\relax 
\providecommand\hyper@newdestlabel[2]{}
\@writefile{toc}{\contentsline {chapter}{\numberline {2}Background}{5}{chapter.2}\protected@file@percent }
\@writefile{lof}{\addvspace {10\p@ }}
\@writefile{lot}{\addvspace {10\p@ }}
\newlabel{chap-background}{{2}{5}{Background}{chapter.2}{}}
\newlabel{chap-background@cref}{{[chapter][2][]2}{[1][5][]5}}
\citation{history_transduction}
\citation{genesis}
\citation{knuth68}
\citation{ags88}
\@writefile{toc}{\contentsline {section}{\numberline {2.1}Early Attribute Grammars}{6}{section.2.1}\protected@file@percent }
\citation{knuth68}
\citation{ags88,lewis73puresynth}
\citation{knuth68}
\citation{knuth68}
\citation{knuth68correction}
\citation{kennedy1976automatic}
\citation{courcelle1982SNCAGs}
\citation{ags88,jourdan1984sncdemand}
\citation{mayoh1981benign}
\citation{courcelle1982SNCAGs}
\citation{genesis,lncs90attributeapplications}
\@writefile{toc}{\contentsline {subsection}{\numberline {2.1.1}Statically Scheduled Attribute Grammar Categories}{7}{subsection.2.1.1}\protected@file@percent }
\@writefile{toc}{\contentsline {subsubsection}{Purely Synthesised Attribute Grammars}{7}{section*.3}\protected@file@percent }
\@writefile{toc}{\contentsline {subsubsection}{Non-Circular Attribute Grammars}{7}{section*.4}\protected@file@percent }
\@writefile{toc}{\contentsline {subsubsection}{Strongly (or Absolutely) Non-Circular Attribute Grammars}{7}{section*.5}\protected@file@percent }
\citation{courcelle1982SNCAGs,jourdan1984sncdemand}
\citation{courcelle1982SNCAGs}
\citation{jourdan1984sncdemand}
\citation{jourdan84optimalrecursive}
\citation{kastens80}
\citation{lncs91attributesystems}
\citation{eng82lordered}
\citation{kastens78orderedwrong}
\citation{file1987dnc}
\citation{barbar1982partialorder}
\citation{kiama}
\citation{jourdan84optimalrecursive}
\citation{boyland96conditional}
\@writefile{toc}{\contentsline {subsubsection}{Ordered Attribute Grammars}{8}{section*.6}\protected@file@percent }
\@writefile{toc}{\contentsline {subsubsection}{Other Categories}{8}{section*.7}\protected@file@percent }
\@writefile{toc}{\contentsline {section}{\numberline {2.2}Dynamically Scheduled Attribute Grammars}{8}{section.2.2}\protected@file@percent }
\citation{madsen80dags,jalili85incremental}
\citation{saraiva99lrc}
\citation{jastadd01,jastadd03,jastadd}
\citation{baars03uuag}
\citation{silver}
\citation{kiama}
\citation{paakki95survey}
\@writefile{toc}{\contentsline {subsection}{\numberline {2.2.1}Attribute Grammar Notations}{9}{subsection.2.2.1}\protected@file@percent }
\newlabel{sect-bg-notations}{{2.2.1}{9}{Attribute Grammar Notations}{subsection.2.2.1}{}}
\newlabel{sect-bg-notations@cref}{{[subsection][1][2,2]2.2.1}{[1][9][]9}}
\citation{jastaddonline}
\@writefile{toc}{\contentsline {subsubsection}{Silver}{10}{section*.8}\protected@file@percent }
\newlabel{sect-bg-silver}{{2.2.1}{10}{Silver}{section*.8}{}}
\newlabel{sect-bg-silver@cref}{{[subsection][1][2,2]2.2.1}{[1][9][]10}}
\@writefile{toc}{\contentsline {subsubsection}{JastAdd}{10}{section*.9}\protected@file@percent }
\newlabel{sect-bg-jastadd}{{2.2.1}{10}{JastAdd}{section*.9}{}}
\newlabel{sect-bg-jastadd@cref}{{[subsection][1][2,2]2.2.1}{[1][10][]10}}
\@writefile{lof}{\contentsline {figure}{\numberline {2.1}{\ignorespaces The \text  {\fontfamily  {lcmss}\selectfont  globmin} program specified in Silver.}}{11}{figure.2.1}\protected@file@percent }
\newlabel{fig-silverglobmin}{{2.1}{11}{The \a {globmin} program specified in Silver}{figure.2.1}{}}
\newlabel{fig-silverglobmin@cref}{{[figure][1][2]2.1}{[1][10][]11}}
\@writefile{lof}{\contentsline {figure}{\numberline {2.2}{\ignorespaces The \text  {\fontfamily  {lcmss}\selectfont  globmin} program specified in JastAdd.}}{11}{figure.2.2}\protected@file@percent }
\newlabel{fig-jastaddglobmin}{{2.2}{11}{The \a {globmin} program specified in JastAdd}{figure.2.2}{}}
\newlabel{fig-jastaddglobmin@cref}{{[figure][2][2]2.2}{[1][10][]11}}
\citation{scalabook}
\@writefile{toc}{\contentsline {subsubsection}{Kiama}{12}{section*.10}\protected@file@percent }
\newlabel{sect-bg-kiama}{{2.2.1}{12}{Kiama}{section*.10}{}}
\newlabel{sect-bg-kiama@cref}{{[subsection][1][2,2]2.2.1}{[1][12][]12}}
\@writefile{lof}{\contentsline {figure}{\numberline {2.3}{\ignorespaces The \text  {\fontfamily  {lcmss}\selectfont  globmin} attribute program specified in Kiama.}}{13}{figure.2.3}\protected@file@percent }
\newlabel{fig-kiamaglobmin}{{2.3}{13}{The \a {globmin} attribute program specified in Kiama}{figure.2.3}{}}
\newlabel{fig-kiamaglobmin@cref}{{[figure][3][2]2.3}{[1][12][]13}}
\citation{poetzsch93distant}
\citation{boyland96remote}
\citation{hedin00reference}
\@writefile{toc}{\contentsline {section}{\numberline {2.3}Attribute Grammar Extensions}{14}{section.2.3}\protected@file@percent }
\newlabel{sect-bg-extensions}{{2.3}{14}{Attribute Grammar Extensions}{section.2.3}{}}
\newlabel{sect-bg-extensions@cref}{{[section][3][2]2.3}{[1][13][]14}}
\@writefile{toc}{\contentsline {subsection}{\numberline {2.3.1}Reference Attribute Grammars}{14}{subsection.2.3.1}\protected@file@percent }
\@writefile{lof}{\contentsline {figure}{\numberline {2.4}{\ignorespaces The \text  {\fontfamily  {lcmss}\selectfont  refmin} attribute program specified in Silver}}{15}{figure.2.4}\protected@file@percent }
\newlabel{fig-silverrefmin}{{2.4}{15}{The \a {refmin} attribute program specified in Silver}{figure.2.4}{}}
\newlabel{fig-silverrefmin@cref}{{[figure][4][2]2.4}{[1][14][]15}}
\@writefile{lof}{\contentsline {figure}{\numberline {2.5}{\ignorespaces The \text  {\fontfamily  {lcmss}\selectfont  refmin} attribute program specified in Kiama.}}{15}{figure.2.5}\protected@file@percent }
\newlabel{fig-kiamarefmin}{{2.5}{15}{The \a {refmin} attribute program specified in Kiama}{figure.2.5}{}}
\newlabel{fig-kiamarefmin@cref}{{[figure][5][2]2.5}{[1][14][]15}}
\citation{hedin00reference}
\@writefile{lof}{\contentsline {figure}{\numberline {2.6}{\ignorespaces The \text  {\fontfamily  {lcmss}\selectfont  refmin} attribute program specified in JastAdd.}}{16}{figure.2.6}\protected@file@percent }
\newlabel{fig-jastaddrefmin}{{2.6}{16}{The \a {refmin} attribute program specified in JastAdd}{figure.2.6}{}}
\newlabel{fig-jastaddrefmin@cref}{{[figure][6][2]2.6}{[1][14][]16}}
\@writefile{toc}{\contentsline {subsection}{\numberline {2.3.2}Parameterised Attribute Grammars}{16}{subsection.2.3.2}\protected@file@percent }
\newlabel{sect-bg-parameterised}{{2.3.2}{16}{Parameterised Attribute Grammars}{subsection.2.3.2}{}}
\newlabel{sect-bg-parameterised@cref}{{[subsection][2][2,3]2.3.2}{[1][16][]16}}
\@writefile{lof}{\contentsline {figure}{\numberline {2.7}{\ignorespaces The \text  {\fontfamily  {lcmss}\selectfont  countless} attribute specified in JastAdd.}}{17}{figure.2.7}\protected@file@percent }
\newlabel{fig-jastaddcountless}{{2.7}{17}{The \a {countless} attribute specified in JastAdd}{figure.2.7}{}}
\newlabel{fig-jastaddcountless@cref}{{[figure][7][2]2.7}{[1][16][]17}}
\@writefile{lof}{\contentsline {figure}{\numberline {2.8}{\ignorespaces The \text  {\fontfamily  {lcmss}\selectfont  countless} attribute implemented in Kiama.}}{17}{figure.2.8}\protected@file@percent }
\newlabel{fig-kiamacountless}{{2.8}{17}{The \a {countless} attribute implemented in Kiama}{figure.2.8}{}}
\newlabel{fig-kiamacountless@cref}{{[figure][8][2]2.8}{[1][16][]17}}
\@writefile{lof}{\contentsline {figure}{\numberline {2.9}{\ignorespaces The \text  {\fontfamily  {lcmss}\selectfont  countless} attribute specified in JastAdd, with debug printing.}}{17}{figure.2.9}\protected@file@percent }
\newlabel{fig-jastaddcountlesscached}{{2.9}{17}{The \a {countless} attribute specified in JastAdd, with debug printing}{figure.2.9}{}}
\newlabel{fig-jastaddcountlesscached@cref}{{[figure][9][2]2.9}{[1][16][]17}}
\@writefile{lof}{\contentsline {figure}{\numberline {2.10}{\ignorespaces The output of running the JastAdd implementation of \text  {\fontfamily  {lcmss}\selectfont  countless} with debug printing, on the tree parsed from \texttt  {9 + 7 + 4 + 3 + 99}.}}{17}{figure.2.10}\protected@file@percent }
\newlabel{fig-jastaddcountlessoutput}{{2.10}{17}{The output of running the JastAdd implementation of \a {countless} with debug printing, on the tree parsed from \tt {9 + 7 + 4 + 3 + 99}}{figure.2.10}{}}
\newlabel{fig-jastaddcountlessoutput@cref}{{[figure][10][2]2.10}{[1][16][]17}}
\citation{jourdan84optimalrecursive}
\@writefile{toc}{\contentsline {subsection}{\numberline {2.3.3}Attribute Caching}{18}{subsection.2.3.3}\protected@file@percent }
\newlabel{sect-bg-caching}{{2.3.3}{18}{Attribute Caching}{subsection.2.3.3}{}}
\newlabel{sect-bg-caching@cref}{{[subsection][3][2,3]2.3.3}{[1][18][]18}}
\citation{vogt89hoags,swierstra91hoags}
\citation{vogt89hoags}
\@writefile{toc}{\contentsline {subsection}{\numberline {2.3.4}Higher Order Attribute Grammars}{19}{subsection.2.3.4}\protected@file@percent }
\newlabel{sect-bg-higherorder}{{2.3.4}{19}{Higher Order Attribute Grammars}{subsection.2.3.4}{}}
\newlabel{sect-bg-higherorder@cref}{{[subsection][4][2,3]2.3.4}{[1][19][]19}}
\@writefile{lof}{\contentsline {figure}{\numberline {2.11}{\ignorespaces The \text  {\fontfamily  {lcmss}\selectfont  repmin} attribute implemented in Kiama, assuming \text  {\fontfamily  {lcmss}\selectfont  globmin} is already implemented.}}{20}{figure.2.11}\protected@file@percent }
\newlabel{fig-kiamarepmin}{{2.11}{20}{The \a {repmin} attribute implemented in Kiama, assuming \a {globmin} is already implemented}{figure.2.11}{}}
\newlabel{fig-kiamarepmin@cref}{{[figure][11][2]2.11}{[1][19][]20}}
\@writefile{lof}{\contentsline {figure}{\numberline {2.12}{\ignorespaces The \text  {\fontfamily  {lcmss}\selectfont  repmin} attribute implemented in JastAdd, assuming \text  {\fontfamily  {lcmss}\selectfont  globmin} is already implemented.}}{20}{figure.2.12}\protected@file@percent }
\newlabel{fig-jastaddrepmin}{{2.12}{20}{The \a {repmin} attribute implemented in JastAdd, assuming \a {globmin} is already implemented}{figure.2.12}{}}
\newlabel{fig-jastaddrepmin@cref}{{[figure][12][2]2.12}{[1][19][]20}}
\@writefile{lof}{\contentsline {figure}{\numberline {2.13}{\ignorespaces The \text  {\fontfamily  {lcmss}\selectfont  repmin} attribute implemented in Silver, assuming \text  {\fontfamily  {lcmss}\selectfont  globmin} is already implemented.}}{20}{figure.2.13}\protected@file@percent }
\newlabel{fig-silverrepmin}{{2.13}{20}{The \a {repmin} attribute implemented in Silver, assuming \a {globmin} is already implemented}{figure.2.13}{}}
\newlabel{fig-silverrepmin@cref}{{[figure][13][2]2.13}{[1][19][]20}}
\@writefile{toc}{\contentsline {subsubsection}{Higher Order Nodes in the Existing Tree}{21}{section*.11}\protected@file@percent }
\citation{vanwyk02forwarding}
\@writefile{toc}{\contentsline {subsection}{\numberline {2.3.5}Attribute Forwarding}{22}{subsection.2.3.5}\protected@file@percent }
\newlabel{sect-bg-forwarding}{{2.3.5}{22}{Attribute Forwarding}{subsection.2.3.5}{}}
\newlabel{sect-bg-forwarding@cref}{{[subsection][5][2,3]2.3.5}{[1][22][]22}}
\citation{farrow86circular,jones90circular}
\citation{magnusson07circular}
\@writefile{lof}{\contentsline {figure}{\numberline {2.14}{\ignorespaces Forwarding a \textit  {for} production, implemented in Silver.}}{23}{figure.2.14}\protected@file@percent }
\newlabel{fig-silverforwarding}{{2.14}{23}{Forwarding a \it {for} production, implemented in Silver}{figure.2.14}{}}
\newlabel{fig-silverforwarding@cref}{{[figure][14][2]2.14}{[1][23][]23}}
\@writefile{toc}{\contentsline {subsection}{\numberline {2.3.6}Circular Attribute Grammars}{23}{subsection.2.3.6}\protected@file@percent }
\citation{boyland96remote}
\@writefile{lof}{\contentsline {figure}{\numberline {2.15}{\ignorespaces A simple set of circular attributes defined in JastAdd.}}{24}{figure.2.15}\protected@file@percent }
\newlabel{fig-jastaddcircular}{{2.15}{24}{A simple set of circular attributes defined in JastAdd}{figure.2.15}{}}
\newlabel{fig-jastaddcircular@cref}{{[figure][15][2]2.15}{[1][24][]24}}
\@writefile{lof}{\contentsline {figure}{\numberline {2.16}{\ignorespaces A simple set of circular attributes defined in Kiama.}}{24}{figure.2.16}\protected@file@percent }
\newlabel{fig-kiamacircular}{{2.16}{24}{A simple set of circular attributes defined in Kiama}{figure.2.16}{}}
\newlabel{fig-kiamacircular@cref}{{[figure][16][2]2.16}{[1][24][]24}}
\@writefile{toc}{\contentsline {subsection}{\numberline {2.3.7}Collection attributes}{24}{subsection.2.3.7}\protected@file@percent }
\@writefile{lof}{\contentsline {figure}{\numberline {2.17}{\ignorespaces A simple collection attribute defined in JastAdd.}}{25}{figure.2.17}\protected@file@percent }
\newlabel{fig-jastaddcollection}{{2.17}{25}{A simple collection attribute defined in JastAdd}{figure.2.17}{}}
\newlabel{fig-jastaddcollection@cref}{{[figure][17][2]2.17}{[1][24][]25}}
\@writefile{lof}{\contentsline {figure}{\numberline {2.18}{\ignorespaces A simple collection attribute defined in JastAdd.}}{25}{figure.2.18}\protected@file@percent }
\newlabel{fig-kiamacollection}{{2.18}{25}{A simple collection attribute defined in JastAdd}{figure.2.18}{}}
\newlabel{fig-kiamacollection@cref}{{[figure][18][2]2.18}{[1][24][]25}}
\@writefile{lof}{\contentsline {figure}{\numberline {2.19}{\ignorespaces A simple collection attribute defined in Silver.}}{25}{figure.2.19}\protected@file@percent }
\newlabel{fig-silvercollection}{{2.19}{25}{A simple collection attribute defined in Silver}{figure.2.19}{}}
\newlabel{fig-silvercollection@cref}{{[figure][19][2]2.19}{[1][24][]25}}
\@writefile{toc}{\contentsline {section}{\numberline {2.4}Previous Attempts}{26}{section.2.4}\protected@file@percent }
\newlabel{sect-bg-previouswork}{{2.4}{26}{Previous Attempts}{section.2.4}{}}
\newlabel{sect-bg-previouswork@cref}{{[section][4][2]2.4}{[1][26][]26}}
\citation{demoor99aspect,demoor00firstclass}
\citation{johnsson87functional,jourdan84optimalrecursive}
\citation{backhouse02functional}
\citation{schafer09agcoq}
\citation{martins16zippers}
\citation{buckley17saiga}
\@setckpt{chap_background}{
\setcounter{page}{28}
\setcounter{equation}{0}
\setcounter{enumi}{8}
\setcounter{enumii}{0}
\setcounter{enumiii}{0}
\setcounter{enumiv}{0}
\setcounter{footnote}{0}
\setcounter{mpfootnote}{0}
\setcounter{part}{0}
\setcounter{chapter}{2}
\setcounter{section}{4}
\setcounter{subsection}{0}
\setcounter{subsubsection}{0}
\setcounter{paragraph}{0}
\setcounter{subparagraph}{0}
\setcounter{figure}{19}
\setcounter{table}{0}
\setcounter{NAT@ctr}{0}
\setcounter{parentequation}{0}
\setcounter{Item}{8}
\setcounter{Hfootnote}{1}
\setcounter{bookmark@seq@number}{19}
\setcounter{@@conflict}{0}
\setcounter{tcbbreakpart}{0}
\setcounter{tcblayer}{0}
\setcounter{subfigure}{0}
\setcounter{lofdepth}{1}
\setcounter{subtable}{0}
\setcounter{lotdepth}{1}
\setcounter{lstnumber}{24}
\setcounter{tmkcount}{0}
\setcounter{lcword@index}{0}
\setcounter{word@count}{0}
\setcounter{lc@words}{0}
\setcounter{dia@count}{0}
\setcounter{arg@@@index}{0}
\setcounter{theorem}{0}
\setcounter{definition}{0}
\setcounter{thmcase}{0}
\setcounter{thmsubcase}{0}
\setcounter{thmsubsubcase}{0}
\setcounter{section@level}{1}
\setcounter{lstlisting}{0}
}
