\relax 
\providecommand\hyper@newdestlabel[2]{}
\@writefile{toc}{\contentsline {chapter}{\numberline {6}Metatheoretic Properties}{87}{chapter.6}\protected@file@percent }
\@writefile{lof}{\addvspace {10\p@ }}
\@writefile{lot}{\addvspace {10\p@ }}
\newlabel{chap-meta}{{6}{87}{Metatheoretic Properties}{chapter.6}{}}
\newlabel{chap-meta@cref}{{[chapter][6][]6}{[1][87][]87}}
\@writefile{toc}{\contentsline {section}{\numberline {6.1}Axioms}{87}{section.6.1}\protected@file@percent }
\newlabel{axiom-function-type-equal}{{1}{87}{}{theorem.1}{}}
\newlabel{axiom-function-type-equal@cref}{{[axiom][1][]1}{[1][87][]87}}
\@writefile{toc}{\contentsline {section}{\numberline {6.2}Values Can Not Step}{88}{section.6.2}\protected@file@percent }
\newlabel{sect-valuenostep}{{6.2}{88}{Values Can Not Step}{section.6.2}{}}
\newlabel{sect-valuenostep@cref}{{[section][2][6]6.2}{[1][87][]88}}
\newlabel{thm-valuenostep}{{2}{88}{}{theorem.2}{}}
\newlabel{thm-valuenostep@cref}{{[theorem][2][]2}{[1][88][]88}}
\newlabel{thm-valuenostep-ext}{{3}{88}{}{theorem.3}{}}
\newlabel{thm-valuenostep-ext@cref}{{[theorem][3][]3}{[1][88][]88}}
\@writefile{toc}{\contentsline {section}{\numberline {6.3}Step Determinism}{88}{section.6.3}\protected@file@percent }
\newlabel{sect-meta-stepdeterminism}{{6.3}{88}{Step Determinism}{section.6.3}{}}
\newlabel{sect-meta-stepdeterminism@cref}{{[section][3][6]6.3}{[1][88][]88}}
\@writefile{toc}{\contentsline {subsection}{\numberline {6.3.1}Proof for the Core Calculus}{88}{subsection.6.3.1}\protected@file@percent }
\newlabel{thm-determinism-core}{{4}{88}{}{theorem.4}{}}
\newlabel{thm-determinism-core@cref}{{[theorem][4][]4}{[1][88][]88}}
\newlabel{coredet1}{{4.1}{88}{}{equation.4.1}{}}
\newlabel{coredet1@cref}{{[equation][1][6]4.1}{[1][88][]88}}
\newlabel{coredet1b}{{4.2}{88}{}{equation.4.2}{}}
\newlabel{coredet1b@cref}{{[equation][2][6]4.2}{[1][88][]88}}
\newlabel{coredet1c}{{4.3}{88}{}{equation.4.3}{}}
\newlabel{coredet1c@cref}{{[equation][3][6]4.3}{[1][88][]88}}
\newlabel{thm-determinism-core-condstep}{{4.1}{89}{\condstep }{thmcase.4.1}{}}
\newlabel{thm-determinism-core-condstep@cref}{{[thmcase][1][]4.1}{[1][89][]89}}
\newlabel{coredet2}{{4.5}{89}{\condstep }{equation.4.5}{}}
\newlabel{coredet2@cref}{{[equation][5][6]4.5}{[1][89][]89}}
\newlabel{coredet3}{{4.6}{89}{\condstep }{equation.4.6}{}}
\newlabel{coredet3@cref}{{[equation][6][6]4.6}{[1][89][]89}}
\newlabel{coredet4}{{4.9}{89}{\condstep }{equation.4.9}{}}
\newlabel{coredet4@cref}{{[equation][9][6]4.9}{[1][89][]89}}
\newlabel{coredet5}{{4.10}{89}{\condstep }{equation.4.10}{}}
\newlabel{coredet5@cref}{{[equation][10][6]4.10}{[1][89][]89}}
\newlabel{coredet6}{{4.12}{89}{\condstep }{equation.4.12}{}}
\newlabel{coredet6@cref}{{[equation][12][6]4.12}{[1][89][]89}}
\newlabel{coredet7a}{{4.14}{89}{\condtrue and \condfalse }{equation.4.14}{}}
\newlabel{coredet7a@cref}{{[equation][14][6]4.14}{[1][89][]89}}
\newlabel{coredetfun1}{{4.17}{90}{\funapp }{equation.4.17}{}}
\newlabel{coredetfun1@cref}{{[equation][17][6]4.17}{[1][90][]90}}
\newlabel{coredetaf1}{{4.20}{90}{\attrfetch }{equation.4.20}{}}
\newlabel{coredetaf1@cref}{{[equation][20][6]4.20}{[1][90][]90}}
\@writefile{toc}{\contentsline {subsection}{\numberline {6.3.2}Proof for the Extended Calculus}{90}{subsection.6.3.2}\protected@file@percent }
\newlabel{thm-determinism-ext}{{5}{90}{}{theorem.5}{}}
\newlabel{thm-determinism-ext@cref}{{[theorem][5][]5}{[1][90][]90}}
\newlabel{extdet1}{{5.1}{90}{}{equation.5.1}{}}
\newlabel{extdet1@cref}{{[equation][1][6]5.1}{[1][90][]90}}
\newlabel{extdet2c}{{5.5}{91}{\attrfetchvalue }{equation.5.5}{}}
\newlabel{extdet2c@cref}{{[equation][5][6]5.5}{[1][91][]91}}
\newlabel{extdet2b}{{5.6}{91}{\attrfetchvalue }{equation.5.6}{}}
\newlabel{extdet2b@cref}{{[equation][6][6]5.6}{[1][91][]91}}
\newlabel{extdet2}{{5.10}{91}{\attrfetchcached }{equation.5.10}{}}
\newlabel{extdet2@cref}{{[equation][10][6]5.10}{[1][91][]91}}
\newlabel{extdet3}{{5.13}{91}{\cachestep }{equation.5.13}{}}
\newlabel{extdet3@cref}{{[equation][13][6]5.13}{[1][91][]91}}
\newlabel{extdet4}{{5.14}{91}{\cachestep }{equation.5.14}{}}
\newlabel{extdet4@cref}{{[equation][14][6]5.14}{[1][91][]91}}
\newlabel{extdet5}{{5.17}{92}{\cachestep }{equation.5.17}{}}
\newlabel{extdet5@cref}{{[equation][17][6]5.17}{[1][91][]92}}
\newlabel{extdet6}{{5.19}{92}{\cachestep }{equation.5.19}{}}
\newlabel{extdet6@cref}{{[equation][19][6]5.19}{[1][91][]92}}
\newlabel{extdet7}{{5.22}{92}{\cachewrite }{equation.5.22}{}}
\newlabel{extdet7@cref}{{[equation][22][6]5.22}{[1][92][]92}}
\@writefile{toc}{\contentsline {subsection}{\numberline {6.3.3}Proof for the Higher Order Calculus}{92}{subsection.6.3.3}\protected@file@percent }
\newlabel{thm-determinism-ho}{{6}{92}{}{theorem.6}{}}
\newlabel{thm-determinism-ho@cref}{{[theorem][6][]6}{[1][92][]92}}
\newlabel{hodet1}{{6.1}{92}{}{equation.6.1}{}}
\newlabel{hodet1@cref}{{[equation][1][6]6.1}{[1][92][]92}}
\newlabel{hodet2}{{6.7}{93}{\attrfetchho }{equation.6.7}{}}
\newlabel{hodet2@cref}{{[equation][7][6]6.7}{[1][92][]93}}
\@writefile{toc}{\contentsline {section}{\numberline {6.4}Type Determinism}{93}{section.6.4}\protected@file@percent }
\newlabel{sect-meta-typedeterminism}{{6.4}{93}{Type Determinism}{section.6.4}{}}
\newlabel{sect-meta-typedeterminism@cref}{{[section][4][6]6.4}{[1][93][]93}}
\@writefile{toc}{\contentsline {subsection}{\numberline {6.4.1}Proof for the Core Calculus}{93}{subsection.6.4.1}\protected@file@percent }
\newlabel{thm-typedeterminism-core}{{7}{93}{}{theorem.7}{}}
\newlabel{thm-typedeterminism-core@cref}{{[theorem][7][]7}{[1][93][]93}}
\newlabel{coretypedet2}{{7.1}{93}{}{equation.7.1}{}}
\newlabel{coretypedet2@cref}{{[equation][1][6]7.1}{[1][93][]93}}
\newlabel{coretypedet3}{{7.2}{93}{}{equation.7.2}{}}
\newlabel{coretypedet3@cref}{{[equation][2][6]7.2}{[1][93][]93}}
\newlabel{typedetval1}{{7.4}{93}{$e$ is a value}{equation.7.4}{}}
\newlabel{typedetval1@cref}{{[equation][4][6]7.4}{[1][93][]93}}
\newlabel{typedetval2}{{7.5}{93}{$e$ is a value}{equation.7.5}{}}
\newlabel{typedetval2@cref}{{[equation][5][6]7.5}{[1][93][]93}}
\newlabel{typedetcond1}{{7.7}{94}{$e$ is a conditional expression}{equation.7.7}{}}
\newlabel{typedetcond1@cref}{{[equation][7][6]7.7}{[1][93][]94}}
\newlabel{typedetcond2}{{7.8}{94}{$e$ is a conditional expression}{equation.7.8}{}}
\newlabel{typedetcond2@cref}{{[equation][8][6]7.8}{[1][93][]94}}
\newlabel{typedetcond3}{{7.12}{94}{$e$ is a conditional expression}{equation.7.12}{}}
\newlabel{typedetcond3@cref}{{[equation][12][6]7.12}{[1][94][]94}}
\newlabel{typedetcond4}{{7.16}{94}{$e$ is a conditional expression}{equation.7.16}{}}
\newlabel{typedetcond4@cref}{{[equation][16][6]7.16}{[1][94][]94}}
\newlabel{typedetfun1}{{7.19}{94}{$e$ is a function application expression}{equation.7.19}{}}
\newlabel{typedetfun1@cref}{{[equation][19][6]7.19}{[1][94][]94}}
\newlabel{typedetfun2}{{7.20}{94}{$e$ is a function application expression}{equation.7.20}{}}
\newlabel{typedetfun2@cref}{{[equation][20][6]7.20}{[1][94][]94}}
\newlabel{typedetfun5}{{7.23}{94}{$e$ is a function application expression}{equation.7.23}{}}
\newlabel{typedetfun5@cref}{{[equation][23][6]7.23}{[1][94][]94}}
\newlabel{typedetfun3}{{7.24}{94}{$e$ is a function application expression}{equation.7.24}{}}
\newlabel{typedetfun3@cref}{{[equation][24][6]7.24}{[1][94][]94}}
\newlabel{typedetfun6}{{7.26}{94}{$e$ is a function application expression}{equation.7.26}{}}
\newlabel{typedetfun6@cref}{{[equation][26][6]7.26}{[1][94][]94}}
\newlabel{typedetfun4}{{7.27}{94}{$e$ is a function application expression}{equation.7.27}{}}
\newlabel{typedetfun4@cref}{{[equation][27][6]7.27}{[1][94][]94}}
\newlabel{typedetattr1}{{7.29}{95}{$e$ is an attribution expression}{equation.7.29}{}}
\newlabel{typedetattr1@cref}{{[equation][29][6]7.29}{[1][94][]95}}
\newlabel{typedetattr2}{{7.30}{95}{$e$ is an attribution expression}{equation.7.30}{}}
\newlabel{typedetattr2@cref}{{[equation][30][6]7.30}{[1][94][]95}}
\@writefile{toc}{\contentsline {subsection}{\numberline {6.4.2}Proof for the Extended Calculus}{95}{subsection.6.4.2}\protected@file@percent }
\newlabel{thm-typedeterminism-ext}{{8}{95}{}{theorem.8}{}}
\newlabel{thm-typedeterminism-ext@cref}{{[theorem][8][]8}{[1][95][]95}}
\newlabel{exttypedetattr1}{{8.4}{95}{$e$ is an attribution expression}{equation.8.4}{}}
\newlabel{exttypedetattr1@cref}{{[equation][4][6]8.4}{[1][95][]95}}
\newlabel{exttypedetattr2}{{8.5}{95}{$e$ is an attribution expression}{equation.8.5}{}}
\newlabel{exttypedetattr2@cref}{{[equation][5][6]8.5}{[1][95][]95}}
\newlabel{exttypedetcache1}{{8.7}{96}{$e$ is a cache expression}{equation.8.7}{}}
\newlabel{exttypedetcache1@cref}{{[equation][7][6]8.7}{[1][95][]96}}
\newlabel{exttypedetcache2}{{8.8}{96}{$e$ is a cache expression}{equation.8.8}{}}
\newlabel{exttypedetcache2@cref}{{[equation][8][6]8.8}{[1][95][]96}}
\@writefile{toc}{\contentsline {subsection}{\numberline {6.4.3}Proof for the Higher Order Calculus}{96}{subsection.6.4.3}\protected@file@percent }
\newlabel{thm-typedeterminism-ho}{{9}{96}{}{theorem.9}{}}
\newlabel{thm-typedeterminism-ho@cref}{{[theorem][9][]9}{[1][96][]96}}
\newlabel{hotypedetattr1}{{9.4}{96}{$e$ is a \mk expression}{equation.9.4}{}}
\newlabel{hotypedetattr1@cref}{{[equation][4][6]9.4}{[1][96][]96}}
\newlabel{hotypedetattr3}{{9.5}{96}{$e$ is a \mk expression}{equation.9.5}{}}
\newlabel{hotypedetattr3@cref}{{[equation][5][6]9.5}{[1][96][]96}}
\@writefile{toc}{\contentsline {section}{\numberline {6.5}Type Preservation over the Step Relation}{96}{section.6.5}\protected@file@percent }
\newlabel{sect-meta-typepreservation}{{6.5}{96}{Type Preservation over the Step Relation}{section.6.5}{}}
\newlabel{sect-meta-typepreservation@cref}{{[section][5][6]6.5}{[1][96][]96}}
\newlabel{defn-typesafe}{{6.5.1}{97}{}{definition.6.5.1}{}}
\newlabel{defn-typesafe@cref}{{[definition][1][6,5]6.5.1}{[1][97][]97}}
\@writefile{toc}{\contentsline {subsection}{\numberline {6.5.1}Proof for the Core Calculus}{97}{subsection.6.5.1}\protected@file@percent }
\newlabel{thm-typepreservation-core}{{10}{97}{}{theorem.10}{}}
\newlabel{thm-typepreservation-core@cref}{{[theorem][10][]10}{[1][97][]97}}
\newlabel{coretypepres1a}{{10.1}{97}{}{equation.10.1}{}}
\newlabel{coretypepres1a@cref}{{[equation][1][6]10.1}{[1][97][]97}}
\newlabel{coretypepres3}{{10.2}{97}{}{equation.10.2}{}}
\newlabel{coretypepres3@cref}{{[equation][2][6]10.2}{[1][97][]97}}
\newlabel{coretypepres2}{{10.3}{97}{}{equation.10.3}{}}
\newlabel{coretypepres2@cref}{{[equation][3][6]10.3}{[1][97][]97}}
\newlabel{coretypepres4}{{10.6}{97}{\condstep }{equation.10.6}{}}
\newlabel{coretypepres4@cref}{{[equation][6][6]10.6}{[1][97][]97}}
\newlabel{coretypepres4b}{{10.7}{97}{\condstep }{equation.10.7}{}}
\newlabel{coretypepres4b@cref}{{[equation][7][6]10.7}{[1][97][]97}}
\newlabel{coretypepres4c}{{10.8}{97}{\condstep }{equation.10.8}{}}
\newlabel{coretypepres4c@cref}{{[equation][8][6]10.8}{[1][97][]97}}
\newlabel{coretypepres5}{{10.10}{97}{\condstep }{equation.10.10}{}}
\newlabel{coretypepres5@cref}{{[equation][10][6]10.10}{[1][97][]97}}
\newlabel{coretypepres5a}{{10.14}{98}{\condtrue and \condfalse }{equation.10.14}{}}
\newlabel{coretypepres5a@cref}{{[equation][14][6]10.14}{[1][97][]98}}
\newlabel{coretypepres718}{{10.19}{98}{\funapp }{equation.10.19}{}}
\newlabel{coretypepres718@cref}{{[equation][19][6]10.19}{[1][98][]98}}
\newlabel{coretypepres719}{{10.20}{98}{\funapp }{equation.10.20}{}}
\newlabel{coretypepres719@cref}{{[equation][20][6]10.20}{[1][98][]98}}
\newlabel{coretypepres6}{{10.24}{98}{\funstep }{equation.10.24}{}}
\newlabel{coretypepres6@cref}{{[equation][24][6]10.24}{[1][98][]98}}
\newlabel{coretypepres8}{{10.25}{98}{\funstep }{equation.10.25}{}}
\newlabel{coretypepres8@cref}{{[equation][25][6]10.25}{[1][98][]98}}
\newlabel{coretypepres7}{{10.27}{98}{\funstep }{equation.10.27}{}}
\newlabel{coretypepres7@cref}{{[equation][27][6]10.27}{[1][98][]98}}
\newlabel{coretypepres9}{{10.30}{98}{\funparstep }{equation.10.30}{}}
\newlabel{coretypepres9@cref}{{[equation][30][6]10.30}{[1][98][]98}}
\newlabel{coretypepres10}{{10.31}{98}{\funparstep }{equation.10.31}{}}
\newlabel{coretypepres10@cref}{{[equation][31][6]10.31}{[1][98][]98}}
\newlabel{coretypepres11}{{10.33}{98}{\funparstep }{equation.10.33}{}}
\newlabel{coretypepres11@cref}{{[equation][33][6]10.33}{[1][98][]98}}
\newlabel{coretypepres12}{{10.36}{99}{\attrnodestep }{equation.10.36}{}}
\newlabel{coretypepres12@cref}{{[equation][36][6]10.36}{[1][98][]99}}
\newlabel{coretypepres13}{{10.38}{99}{\attrnodestep }{equation.10.38}{}}
\newlabel{coretypepres13@cref}{{[equation][38][6]10.38}{[1][98][]99}}
\newlabel{thm-typedeterminism-core-attrfetch}{{10.7}{99}{\attrfetch }{thmcase.10.7}{}}
\newlabel{thm-typedeterminism-core-attrfetch@cref}{{[thmcase][7][]10.7}{[1][99][]99}}
\newlabel{coretypepres15}{{10.40}{99}{\attrfetch }{equation.10.40}{}}
\newlabel{coretypepres15@cref}{{[equation][40][6]10.40}{[1][99][]99}}
\@writefile{toc}{\contentsline {subsection}{\numberline {6.5.2}Proof for the Extended Calculus}{99}{subsection.6.5.2}\protected@file@percent }
\newlabel{thm-typepreservation-ext}{{11}{99}{}{theorem.11}{}}
\newlabel{thm-typepreservation-ext@cref}{{[theorem][11][]11}{[1][99][]99}}
\newlabel{exttypepres1}{{11.3}{99}{}{equation.11.3}{}}
\newlabel{exttypepres1@cref}{{[equation][3][6]11.3}{[1][99][]99}}
\newlabel{exttypepres2}{{11.6}{100}{\attrparstep }{equation.11.6}{}}
\newlabel{exttypepres2@cref}{{[equation][6][6]11.6}{[1][99][]100}}
\newlabel{exttypepres3}{{11.7}{100}{\attrparstep }{equation.11.7}{}}
\newlabel{exttypepres3@cref}{{[equation][7][6]11.7}{[1][99][]100}}
\newlabel{exttypepres4}{{11.9}{100}{\attrparstep }{equation.11.9}{}}
\newlabel{exttypepres4@cref}{{[equation][9][6]11.9}{[1][99][]100}}
\newlabel{exttypepres811}{{11.11}{100}{\attrfetchvalue and \attrfetchcached }{equation.11.11}{}}
\newlabel{exttypepres811@cref}{{[equation][11][6]11.11}{[1][100][]100}}
\newlabel{exttypepres811b}{{11.16}{100}{\attrfetchvalue and \attrfetchcached }{equation.11.16}{}}
\newlabel{exttypepres811b@cref}{{[equation][16][6]11.16}{[1][100][]100}}
\newlabel{exttypepres6}{{11.19}{100}{\cachestep }{equation.11.19}{}}
\newlabel{exttypepres6@cref}{{[equation][19][6]11.19}{[1][100][]100}}
\newlabel{exttypepres7}{{11.21}{100}{\cachestep }{equation.11.21}{}}
\newlabel{exttypepres7@cref}{{[equation][21][6]11.21}{[1][100][]100}}
\newlabel{exttypepres8}{{11.24}{100}{\cachewrite }{equation.11.24}{}}
\newlabel{exttypepres8@cref}{{[equation][24][6]11.24}{[1][100][]100}}
\@writefile{toc}{\contentsline {subsection}{\numberline {6.5.3}Proof for the Higher Order Calculus}{101}{subsection.6.5.3}\protected@file@percent }
\newlabel{thm-typepreservation-ho}{{12}{101}{}{theorem.12}{}}
\newlabel{thm-typepreservation-ho@cref}{{[theorem][12][]12}{[1][101][]101}}
\newlabel{hotypepres1}{{12.3}{101}{}{equation.12.3}{}}
\newlabel{hotypepres1@cref}{{[equation][3][6]12.3}{[1][101][]101}}
\newlabel{hotypepres115}{{12.5}{101}{\attrfetchho }{equation.12.5}{}}
\newlabel{hotypepres115@cref}{{[equation][5][6]12.5}{[1][101][]101}}
\newlabel{hotypepres1110}{{12.10}{101}{\attrfetchho }{equation.12.10}{}}
\newlabel{hotypepres1110@cref}{{[equation][10][6]12.10}{[1][101][]101}}
\newlabel{hotypepres1113}{{12.12}{101}{\attrfetchho }{equation.12.12}{}}
\newlabel{hotypepres1113@cref}{{[equation][12][6]12.12}{[1][101][]101}}
\newlabel{hotypepres1114}{{12.13}{101}{\attrfetchho }{equation.12.13}{}}
\newlabel{hotypepres1114@cref}{{[equation][13][6]12.13}{[1][101][]101}}
\@writefile{toc}{\contentsline {section}{\numberline {6.6}Progress}{101}{section.6.6}\protected@file@percent }
\newlabel{sect-meta-progress}{{6.6}{101}{Progress}{section.6.6}{}}
\newlabel{sect-meta-progress@cref}{{[section][6][6]6.6}{[1][101][]101}}
\@writefile{toc}{\contentsline {subsection}{\numberline {6.6.1}Proof for the Core Calculus}{102}{subsection.6.6.1}\protected@file@percent }
\newlabel{thm-strongprogress-core}{{13}{102}{}{theorem.13}{}}
\newlabel{thm-strongprogress-core@cref}{{[theorem][13][]13}{[1][102][]102}}
\newlabel{corestrong2}{{13.4}{102}{$e_1$ is a conditional expression}{equation.13.4}{}}
\newlabel{corestrong2@cref}{{[equation][4][6]13.4}{[1][102][]102}}
\newlabel{corestrong4}{{13.13}{103}{$e_1$ is an attribution expression}{equation.13.13}{}}
\newlabel{corestrong4@cref}{{[equation][13][6]13.13}{[1][103][]103}}
\@writefile{toc}{\contentsline {subsection}{\numberline {6.6.2}Proof for the Extended Calculus}{103}{subsection.6.6.2}\protected@file@percent }
\newlabel{thm-strongprogress-ext}{{14}{103}{}{theorem.14}{}}
\newlabel{thm-strongprogress-ext@cref}{{[theorem][14][]14}{[1][103][]103}}
\@writefile{toc}{\contentsline {subsection}{\numberline {6.6.3}Proof for the Higher Order Calculus}{104}{subsection.6.6.3}\protected@file@percent }
\newlabel{thm-strongprogress-ho}{{15}{104}{}{theorem.15}{}}
\newlabel{thm-strongprogress-ho@cref}{{[theorem][15][]15}{[1][104][]104}}
\@writefile{toc}{\contentsline {section}{\numberline {6.7}Big Step Multistep Equivalence}{105}{section.6.7}\protected@file@percent }
\newlabel{sect-meta-multibig}{{6.7}{105}{Big Step Multistep Equivalence}{section.6.7}{}}
\newlabel{sect-meta-multibig@cref}{{[section][7][6]6.7}{[1][105][]105}}
\@writefile{toc}{\contentsline {subsection}{\numberline {6.7.1}Multistep Implies Big Step}{106}{subsection.6.7.1}\protected@file@percent }
\newlabel{lem-stepbigstep}{{16}{106}{}{theorem.16}{}}
\newlabel{lem-stepbigstep@cref}{{[lemma][16][]16}{[1][106][]106}}
\newlabel{eq151}{{16.1}{106}{}{equation.16.1}{}}
\newlabel{eq151@cref}{{[equation][1][6]16.1}{[1][106][]106}}
\newlabel{eq152}{{16.2}{106}{}{equation.16.2}{}}
\newlabel{eq152@cref}{{[equation][2][6]16.2}{[1][106][]106}}
\newlabel{lem-stepbigstep-condstep-bcondtrue}{{16.1.1}{106}{\condstep followed by \bcondtrue }{thmsubcase.16.1.1}{}}
\newlabel{lem-stepbigstep-condstep-bcondtrue@cref}{{[thmsubcase][1][]16.1.1}{[1][106][]106}}
\newlabel{eq155}{{16.5}{106}{\condstep followed by \bcondtrue }{equation.16.5}{}}
\newlabel{eq155@cref}{{[equation][5][6]16.5}{[1][106][]106}}
\newlabel{eq157}{{16.7}{106}{\condstep followed by \bcondtrue }{equation.16.7}{}}
\newlabel{eq157@cref}{{[equation][7][6]16.7}{[1][106][]106}}
\newlabel{eq158}{{16.8}{106}{\condstep followed by \bcondtrue }{equation.16.8}{}}
\newlabel{eq158@cref}{{[equation][8][6]16.8}{[1][106][]106}}
\newlabel{lem-stepbigstep-condtrue}{{16.2}{106}{\condstep followed by \condtrue }{thmcase.16.2}{}}
\newlabel{lem-stepbigstep-condtrue@cref}{{[thmcase][2][]16.2}{[1][106][]106}}
\newlabel{eq1516}{{16.11}{106}{\condstep followed by \condtrue }{equation.16.11}{}}
\newlabel{eq1516@cref}{{[equation][11][6]16.11}{[1][106][]106}}
\newlabel{lem-stepbigstep-funstep}{{16.4}{106}{\funstep }{thmcase.16.4}{}}
\newlabel{lem-stepbigstep-funstep@cref}{{[thmcase][4][]16.4}{[1][106][]106}}
\newlabel{eq1514}{{16.14}{107}{\funstep }{equation.16.14}{}}
\newlabel{eq1514@cref}{{[equation][14][6]16.14}{[1][106][]107}}
\newlabel{eq1515}{{16.15}{107}{\funstep }{equation.16.15}{}}
\newlabel{eq1515@cref}{{[equation][15][6]16.15}{[1][106][]107}}
\newlabel{eq1516}{{16.16}{107}{\funstep }{equation.16.16}{}}
\newlabel{eq1516@cref}{{[equation][16][6]16.16}{[1][106][]107}}
\newlabel{eq1517}{{16.17}{107}{\funstep }{equation.16.17}{}}
\newlabel{eq1517@cref}{{[equation][17][6]16.17}{[1][106][]107}}
\newlabel{eq1520}{{16.20}{107}{\funparstep }{equation.16.20}{}}
\newlabel{eq1520@cref}{{[equation][20][6]16.20}{[1][107][]107}}
\newlabel{eq1522}{{16.22}{107}{\funparstep }{equation.16.22}{}}
\newlabel{eq1522@cref}{{[equation][22][6]16.22}{[1][107][]107}}
\newlabel{eq1523}{{16.23}{107}{\funparstep }{equation.16.23}{}}
\newlabel{eq1523@cref}{{[equation][23][6]16.23}{[1][107][]107}}
\newlabel{lem-stepbigstep-attrnodestep}{{16.7}{107}{\attrnodestep }{thmcase.16.7}{}}
\newlabel{lem-stepbigstep-attrnodestep@cref}{{[thmcase][7][]16.7}{[1][107][]107}}
\newlabel{eq1528}{{16.29}{107}{\attrnodestep followed by \battrvalue }{equation.16.29}{}}
\newlabel{eq1528@cref}{{[equation][29][6]16.29}{[1][107][]107}}
\newlabel{eq1529}{{16.30}{107}{\attrnodestep followed by \battrvalue }{equation.16.30}{}}
\newlabel{eq1529@cref}{{[equation][30][6]16.30}{[1][107][]107}}
\newlabel{eq1530}{{16.31}{107}{\attrnodestep followed by \battrvalue }{equation.16.31}{}}
\newlabel{eq1530@cref}{{[equation][31][6]16.31}{[1][107][]107}}
\newlabel{eq1531}{{16.32}{107}{\attrnodestep followed by \battrvalue }{equation.16.32}{}}
\newlabel{eq1531@cref}{{[equation][32][6]16.32}{[1][107][]107}}
\newlabel{eq1532}{{16.33}{107}{\attrnodestep followed by \battrvalue }{equation.16.33}{}}
\newlabel{eq1532@cref}{{[equation][33][6]16.33}{[1][107][]107}}
\newlabel{eq1534}{{16.36}{108}{\attrnodestep followed by \battrcached }{equation.16.36}{}}
\newlabel{eq1534@cref}{{[equation][36][6]16.36}{[1][108][]108}}
\newlabel{eq1535}{{16.37}{108}{\attrnodestep followed by \battrcached }{equation.16.37}{}}
\newlabel{eq1535@cref}{{[equation][37][6]16.37}{[1][108][]108}}
\newlabel{eq1536}{{16.38}{108}{\attrnodestep followed by \battrcached }{equation.16.38}{}}
\newlabel{eq1536@cref}{{[equation][38][6]16.38}{[1][108][]108}}
\newlabel{eq1537}{{16.39}{108}{\attrnodestep followed by \battrcached }{equation.16.39}{}}
\newlabel{eq1537@cref}{{[equation][39][6]16.39}{[1][108][]108}}
\newlabel{eq1538}{{16.40}{108}{\attrnodestep followed by \battrcached }{equation.16.40}{}}
\newlabel{eq1538@cref}{{[equation][40][6]16.40}{[1][108][]108}}
\newlabel{eq1539}{{16.41}{108}{\attrnodestep followed by \battrcached }{equation.16.41}{}}
\newlabel{eq1539@cref}{{[equation][41][6]16.41}{[1][108][]108}}
\newlabel{eq1541}{{16.44}{108}{\attrnodestep followed by \battrho }{equation.16.44}{}}
\newlabel{eq1541@cref}{{[equation][44][6]16.44}{[1][108][]108}}
\newlabel{eq1542}{{16.45}{108}{\attrnodestep followed by \battrho }{equation.16.45}{}}
\newlabel{eq1542@cref}{{[equation][45][6]16.45}{[1][108][]108}}
\newlabel{eq1543}{{16.46}{108}{\attrnodestep followed by \battrho }{equation.16.46}{}}
\newlabel{eq1543@cref}{{[equation][46][6]16.46}{[1][108][]108}}
\newlabel{eq1544}{{16.47}{108}{\attrnodestep followed by \battrho }{equation.16.47}{}}
\newlabel{eq1544@cref}{{[equation][47][6]16.47}{[1][108][]108}}
\newlabel{eq1545}{{16.48}{108}{\attrnodestep followed by \battrho }{equation.16.48}{}}
\newlabel{eq1545@cref}{{[equation][48][6]16.48}{[1][108][]108}}
\newlabel{eq1546}{{16.49}{108}{\attrnodestep followed by \battrho }{equation.16.49}{}}
\newlabel{eq1546@cref}{{[equation][49][6]16.49}{[1][108][]108}}
\newlabel{eq1560}{{16.52}{108}{\attrfetchvalue }{equation.16.52}{}}
\newlabel{eq1560@cref}{{[equation][52][6]16.52}{[1][108][]108}}
\newlabel{eq1564}{{16.56}{109}{\attrfetchcached }{equation.16.56}{}}
\newlabel{eq1564@cref}{{[equation][56][6]16.56}{[1][108][]109}}
\newlabel{eq1658}{{16.58}{109}{\attrfetchcached }{equation.16.58}{}}
\newlabel{eq1658@cref}{{[equation][58][6]16.58}{[1][108][]109}}
\newlabel{eq1661}{{16.61}{109}{\attrfetchho }{equation.16.61}{}}
\newlabel{eq1661@cref}{{[equation][61][6]16.61}{[1][109][]109}}
\newlabel{eq1662}{{16.62}{109}{\attrfetchho }{equation.16.62}{}}
\newlabel{eq1662@cref}{{[equation][62][6]16.62}{[1][109][]109}}
\newlabel{eq1666}{{16.66}{109}{\cachestep }{equation.16.66}{}}
\newlabel{eq1666@cref}{{[equation][66][6]16.66}{[1][109][]109}}
\newlabel{eq1668}{{16.68}{109}{\cachestep }{equation.16.68}{}}
\newlabel{eq1668@cref}{{[equation][68][6]16.68}{[1][109][]109}}
\newlabel{thm-multistepbigstep}{{17}{109}{}{theorem.17}{}}
\newlabel{thm-multistepbigstep@cref}{{[theorem][17][]17}{[1][109][]109}}
\newlabel{eq171}{{17.1}{109}{}{equation.17.1}{}}
\newlabel{eq171@cref}{{[equation][1][6]17.1}{[1][109][]109}}
\newlabel{eq175}{{17.5}{110}{MultiStep}{equation.17.5}{}}
\newlabel{eq175@cref}{{[equation][5][6]17.5}{[1][110][]110}}
\newlabel{eq177}{{17.7}{110}{MultiStep}{equation.17.7}{}}
\newlabel{eq177@cref}{{[equation][7][6]17.7}{[1][110][]110}}
\@writefile{toc}{\contentsline {subsection}{\numberline {6.7.2}Big Step Implies Multistep}{110}{subsection.6.7.2}\protected@file@percent }
\newlabel{lem-multisteprec-cond}{{18}{110}{}{theorem.18}{}}
\newlabel{lem-multisteprec-cond@cref}{{[lemma][18][]18}{[1][110][]110}}
\newlabel{eq181}{{18.1}{110}{}{equation.18.1}{}}
\newlabel{eq181@cref}{{[equation][1][6]18.1}{[1][110][]110}}
\newlabel{eq185}{{18.5}{110}{MultiRefl}{equation.18.5}{}}
\newlabel{eq185@cref}{{[equation][5][6]18.5}{[1][110][]110}}
\newlabel{eq187}{{18.7}{111}{MultiStep}{equation.18.7}{}}
\newlabel{eq187@cref}{{[equation][7][6]18.7}{[1][110][]111}}
\newlabel{eq189}{{18.9}{111}{MultiStep}{equation.18.9}{}}
\newlabel{eq189@cref}{{[equation][9][6]18.9}{[1][110][]111}}
\newlabel{eq1810}{{18.10}{111}{MultiStep}{equation.18.10}{}}
\newlabel{eq1810@cref}{{[equation][10][6]18.10}{[1][110][]111}}
\newlabel{lem-multisteprec-appf}{{19}{111}{}{theorem.19}{}}
\newlabel{lem-multisteprec-appf@cref}{{[lemma][19][]19}{[1][111][]111}}
\newlabel{lem-multisteprec-appp}{{20}{111}{}{theorem.20}{}}
\newlabel{lem-multisteprec-appp@cref}{{[lemma][20][]20}{[1][111][]111}}
\newlabel{lem-multisteprec-attrn}{{21}{111}{}{theorem.21}{}}
\newlabel{lem-multisteprec-attrn@cref}{{[lemma][21][]21}{[1][111][]111}}
\newlabel{lem-multisteprec-attrp}{{22}{111}{}{theorem.22}{}}
\newlabel{lem-multisteprec-attrp@cref}{{[lemma][22][]22}{[1][111][]111}}
\newlabel{lem-multisteprec-cache}{{23}{112}{}{theorem.23}{}}
\newlabel{lem-multisteprec-cache@cref}{{[lemma][23][]23}{[1][112][]112}}
\newlabel{thm-bigstepmultistep}{{24}{112}{}{theorem.24}{}}
\newlabel{thm-bigstepmultistep@cref}{{[theorem][24][]24}{[1][112][]112}}
\newlabel{eq241}{{24.1}{112}{}{equation.24.1}{}}
\newlabel{eq241@cref}{{[equation][1][6]24.1}{[1][112][]112}}
\newlabel{thm-bigstepmultistep-both}{{25}{113}{}{theorem.25}{}}
\newlabel{thm-bigstepmultistep-both@cref}{{[theorem][25][]25}{[1][113][]113}}
\@writefile{toc}{\contentsline {subsection}{\numberline {6.7.3}Big Step Induction}{113}{subsection.6.7.3}\protected@file@percent }
\@writefile{toc}{\contentsline {section}{\numberline {6.8}Cache Irrelevance}{113}{section.6.8}\protected@file@percent }
\newlabel{sect-meta-cacheirrel}{{6.8}{113}{Cache Irrelevance}{section.6.8}{}}
\newlabel{sect-meta-cacheirrel@cref}{{[section][8][6]6.8}{[1][113][]113}}
\newlabel{def-contextequiv}{{6.8.1}{114}{Context Equivalence}{definition.6.8.1}{}}
\newlabel{def-contextequiv@cref}{{[definition][1][6,8]6.8.1}{[1][114][]114}}
\newlabel{lem-value-nochange}{{26}{114}{}{theorem.26}{}}
\newlabel{lem-value-nochange@cref}{{[lemma][26][]26}{[1][114][]114}}
\newlabel{lem-samectx-onlyvalues}{{27}{115}{}{theorem.27}{}}
\newlabel{lem-samectx-onlyvalues@cref}{{[lemma][27][]27}{[1][115][]115}}
\newlabel{eq251}{{27.1}{115}{}{equation.27.1}{}}
\newlabel{eq251@cref}{{[equation][1][6]27.1}{[1][115][]115}}
\newlabel{lem-cacheperm}{{28}{115}{}{theorem.28}{}}
\newlabel{lem-cacheperm@cref}{{[lemma][28][]28}{[1][115][]115}}
\newlabel{lem-selfsame}{{29}{115}{}{theorem.29}{}}
\newlabel{lem-selfsame@cref}{{[lemma][29][]29}{[1][115][]115}}
\newlabel{eq28b1}{{29.1}{116}{}{equation.29.1}{}}
\newlabel{eq28b1@cref}{{[equation][1][6]29.1}{[1][115][]116}}
\newlabel{lem-cong-crux}{{30}{116}{}{theorem.30}{}}
\newlabel{lem-cong-crux@cref}{{[lemma][30][]30}{[1][116][]116}}
\newlabel{eq251}{{30.1}{116}{}{equation.30.1}{}}
\newlabel{eq251@cref}{{[equation][1][6]30.1}{[1][116][]116}}
\newlabel{lem-cong-ext}{{31}{116}{}{theorem.31}{}}
\newlabel{lem-cong-ext@cref}{{[lemma][31][]31}{[1][116][]116}}
\newlabel{eq281}{{31.1}{117}{}{equation.31.1}{}}
\newlabel{eq281@cref}{{[equation][1][6]31.1}{[1][116][]117}}
\newlabel{eq285}{{31.5}{117}{\attrfetchcached }{equation.31.5}{}}
\newlabel{eq285@cref}{{[equation][5][6]31.5}{[1][117][]117}}
\newlabel{eq286}{{31.6}{117}{\attrfetchcached }{equation.31.6}{}}
\newlabel{eq286@cref}{{[equation][6][6]31.6}{[1][117][]117}}
\newlabel{eq287}{{31.7}{117}{\attrfetchcached }{equation.31.7}{}}
\newlabel{eq287@cref}{{[equation][7][6]31.7}{[1][117][]117}}
\newlabel{eq289}{{31.9}{117}{\attrfetchcached }{equation.31.9}{}}
\newlabel{eq289@cref}{{[equation][9][6]31.9}{[1][117][]117}}
\newlabel{eq2810}{{31.10}{117}{\attrfetchcached }{equation.31.10}{}}
\newlabel{eq2810@cref}{{[equation][10][6]31.10}{[1][117][]117}}
\newlabel{eq2811}{{31.11}{117}{\attrfetchcached }{equation.31.11}{}}
\newlabel{eq2811@cref}{{[equation][11][6]31.11}{[1][117][]117}}
\newlabel{eq2812}{{31.12}{117}{\attrfetchcached }{equation.31.12}{}}
\newlabel{eq2812@cref}{{[equation][12][6]31.12}{[1][117][]117}}
\newlabel{eq2813}{{31.13}{117}{\attrfetchcached }{equation.31.13}{}}
\newlabel{eq2813@cref}{{[equation][13][6]31.13}{[1][117][]117}}
\newlabel{eq2814}{{31.14}{117}{\attrfetchcached }{equation.31.14}{}}
\newlabel{eq2814@cref}{{[equation][14][6]31.14}{[1][117][]117}}
\newlabel{eq2815}{{31.15}{117}{\attrfetchcached }{equation.31.15}{}}
\newlabel{eq2815@cref}{{[equation][15][6]31.15}{[1][117][]117}}
\newlabel{eq2816}{{31.16}{117}{\attrfetchcached }{equation.31.16}{}}
\newlabel{eq2816@cref}{{[equation][16][6]31.16}{[1][117][]117}}
\newlabel{lem-cong-crux-ho}{{32}{117}{}{theorem.32}{}}
\newlabel{lem-cong-crux-ho@cref}{{[lemma][32][]32}{[1][117][]117}}
\newlabel{thm-cong-ho}{{33}{118}{}{theorem.33}{}}
\newlabel{thm-cong-ho@cref}{{[theorem][33][]33}{[1][118][]118}}
\newlabel{eq324}{{33.3}{119}{\attrfetchho }{equation.33.3}{}}
\newlabel{eq324@cref}{{[equation][3][6]33.3}{[1][119][]119}}
\newlabel{eq325}{{33.4}{119}{\attrfetchho }{equation.33.4}{}}
\newlabel{eq325@cref}{{[equation][4][6]33.4}{[1][119][]119}}
\newlabel{eq326}{{33.5}{119}{\attrfetchho }{equation.33.5}{}}
\newlabel{eq326@cref}{{[equation][5][6]33.5}{[1][119][]119}}
\newlabel{eq329}{{33.9}{119}{\attrfetchho }{equation.33.9}{}}
\newlabel{eq329@cref}{{[equation][9][6]33.9}{[1][119][]119}}
\newlabel{thm-multistep-equivalence}{{34}{119}{}{theorem.34}{}}
\newlabel{thm-multistep-equivalence@cref}{{[theorem][34][]34}{[1][119][]119}}
\newlabel{thm-equiv-applied}{{35}{119}{}{theorem.35}{}}
\newlabel{thm-equiv-applied@cref}{{[theorem][35][]35}{[1][119][]119}}
\newlabel{def-contextequiv-exp}{{6.8.2}{120}{Alternative Context Equivalence}{definition.6.8.2}{}}
\newlabel{def-contextequiv-exp@cref}{{[definition][2][6,8]6.8.2}{[1][120][]120}}
\newlabel{lem-equiv-equivexp}{{36}{120}{}{theorem.36}{}}
\newlabel{lem-equiv-equivexp@cref}{{[lemma][36][]36}{[1][120][]120}}
\@writefile{toc}{\contentsline {section}{\numberline {6.9}Conclusion}{121}{section.6.9}\protected@file@percent }
\@setckpt{chap_metatheoretic}{
\setcounter{page}{122}
\setcounter{equation}{1}
\setcounter{enumi}{8}
\setcounter{enumii}{0}
\setcounter{enumiii}{0}
\setcounter{enumiv}{0}
\setcounter{footnote}{1}
\setcounter{mpfootnote}{0}
\setcounter{part}{0}
\setcounter{chapter}{6}
\setcounter{section}{9}
\setcounter{subsection}{0}
\setcounter{subsubsection}{0}
\setcounter{paragraph}{0}
\setcounter{subparagraph}{0}
\setcounter{figure}{0}
\setcounter{table}{0}
\setcounter{NAT@ctr}{0}
\setcounter{parentequation}{0}
\setcounter{Item}{8}
\setcounter{Hfootnote}{2}
\setcounter{bookmark@seq@number}{98}
\setcounter{@@conflict}{0}
\setcounter{tcbbreakpart}{0}
\setcounter{tcblayer}{0}
\setcounter{subfigure}{0}
\setcounter{lofdepth}{1}
\setcounter{subtable}{0}
\setcounter{lotdepth}{1}
\setcounter{lstnumber}{2}
\setcounter{tmkcount}{126}
\setcounter{lcword@index}{0}
\setcounter{word@count}{0}
\setcounter{lc@words}{0}
\setcounter{dia@count}{0}
\setcounter{arg@@@index}{0}
\setcounter{theorem}{36}
\setcounter{definition}{0}
\setcounter{thmcase}{0}
\setcounter{thmsubcase}{0}
\setcounter{thmsubsubcase}{0}
\setcounter{section@level}{1}
\setcounter{lstlisting}{0}
}
