\relax 
\providecommand\hyper@newdestlabel[2]{}
\@writefile{toc}{\contentsline {chapter}{\numberline {3}Saiga}{29}{chapter.3}\protected@file@percent }
\@writefile{lof}{\addvspace {10\p@ }}
\@writefile{lot}{\addvspace {10\p@ }}
\newlabel{chap-saiga}{{3}{29}{Saiga}{chapter.3}{}}
\newlabel{chap-saiga@cref}{{[chapter][3][]3}{[1][29][]29}}
\@writefile{toc}{\contentsline {section}{\numberline {3.1}Calculus}{29}{section.3.1}\protected@file@percent }
\newlabel{sect-saiga-calculus}{{3.1}{29}{Calculus}{section.3.1}{}}
\newlabel{sect-saiga-calculus@cref}{{[section][1][3]3.1}{[1][29][]29}}
\@writefile{toc}{\contentsline {subsection}{\numberline {3.1.1}An Underlying System}{30}{subsection.3.1.1}\protected@file@percent }
\newlabel{sect-saiga-underlying}{{3.1.1}{30}{An Underlying System}{subsection.3.1.1}{}}
\newlabel{sect-saiga-underlying@cref}{{[subsection][1][3,1]3.1.1}{[1][29][]30}}
\@writefile{toc}{\contentsline {subsection}{\numberline {3.1.2}All Types}{31}{subsection.3.1.2}\protected@file@percent }
\newlabel{sect-saiga-types}{{3.1.2}{31}{All Types}{subsection.3.1.2}{}}
\newlabel{sect-saiga-types@cref}{{[subsection][2][3,1]3.1.2}{[1][30][]31}}
\@writefile{toc}{\contentsline {subsection}{\numberline {3.1.3}Expression Language}{31}{subsection.3.1.3}\protected@file@percent }
\newlabel{sect-saiga-grammar}{{3.1.3}{31}{Expression Language}{subsection.3.1.3}{}}
\newlabel{sect-saiga-grammar@cref}{{[subsection][3][3,1]3.1.3}{[1][31][]31}}
\@writefile{toc}{\contentsline {subsection}{\numberline {3.1.4}Type Rules}{31}{subsection.3.1.4}\protected@file@percent }
\newlabel{sect-saiga-typerules}{{3.1.4}{31}{Type Rules}{subsection.3.1.4}{}}
\newlabel{sect-saiga-typerules@cref}{{[subsection][4][3,1]3.1.4}{[1][31][]31}}
\@writefile{toc}{\contentsline {subsection}{\numberline {3.1.5}Semantic Rules}{32}{subsection.3.1.5}\protected@file@percent }
\newlabel{sect-saiga-semantics}{{3.1.5}{32}{Semantic Rules}{subsection.3.1.5}{}}
\newlabel{sect-saiga-semantics@cref}{{[subsection][5][3,1]3.1.5}{[1][32][]32}}
\@writefile{toc}{\contentsline {subsection}{\numberline {3.1.6}Intrinsic, Structural, and Extrinsic Attributes}{33}{subsection.3.1.6}\protected@file@percent }
\newlabel{sect-saiga-intrinsicetc}{{3.1.6}{33}{Intrinsic, Structural, and Extrinsic Attributes}{subsection.3.1.6}{}}
\newlabel{sect-saiga-intrinsicetc@cref}{{[subsection][6][3,1]3.1.6}{[1][33][]33}}
\@writefile{toc}{\contentsline {subsection}{\numberline {3.1.7}Simple Example}{34}{subsection.3.1.7}\protected@file@percent }
\newlabel{sect-saiga-simpleexample}{{3.1.7}{34}{Simple Example}{subsection.3.1.7}{}}
\newlabel{sect-saiga-simpleexample@cref}{{[subsection][7][3,1]3.1.7}{[1][33][]34}}
\@writefile{toc}{\contentsline {section}{\numberline {3.2}Discussion}{36}{section.3.2}\protected@file@percent }
\newlabel{sect-saiga-discussion}{{3.2}{36}{Discussion}{section.3.2}{}}
\newlabel{sect-saiga-discussion@cref}{{[section][2][3]3.2}{[1][36][]36}}
\@writefile{toc}{\contentsline {subsection}{\numberline {3.2.1}Equation Selection and the Context Function}{36}{subsection.3.2.1}\protected@file@percent }
\newlabel{sect-equationselection}{{3.2.1}{36}{Equation Selection and the Context Function}{subsection.3.2.1}{}}
\newlabel{sect-equationselection@cref}{{[subsection][1][3,2]3.2.1}{[1][36][]36}}
\@writefile{toc}{\contentsline {subsubsection}{Demonstration}{38}{section*.12}\protected@file@percent }
\@writefile{toc}{\contentsline {subsection}{\numberline {3.2.2}Equation Selection and Node Types}{39}{subsection.3.2.2}\protected@file@percent }
\newlabel{sect-saiga-equationselection-types}{{3.2.2}{39}{Equation Selection and Node Types}{subsection.3.2.2}{}}
\newlabel{sect-saiga-equationselection-types@cref}{{[subsection][2][3,2]3.2.2}{[1][39][]39}}
\@writefile{toc}{\contentsline {subsubsection}{Symbol-Based Equation Selection}{40}{section*.13}\protected@file@percent }
\@writefile{toc}{\contentsline {subsubsection}{Production-Based Equation Selection}{41}{section*.14}\protected@file@percent }
\@writefile{toc}{\contentsline {subsubsection}{Selector Notations}{42}{section*.15}\protected@file@percent }
\newlabel{sect-saiga-selectors}{{3.2.2}{42}{Selector Notations}{section*.15}{}}
\newlabel{sect-saiga-selectors@cref}{{[subsection][2][3,2]3.2.2}{[1][42][]42}}
\@writefile{toc}{\contentsline {subsubsection}{Selector Example}{45}{section*.16}\protected@file@percent }
\@writefile{toc}{\contentsline {subsubsection}{Partial Context Functions and Non-Terminating Evaluation}{45}{section*.17}\protected@file@percent }
\citation{boyland96conditional}
\@writefile{toc}{\contentsline {subsection}{\numberline {3.2.3}Conditional Expressions}{46}{subsection.3.2.3}\protected@file@percent }
\@writefile{toc}{\contentsline {subsection}{\numberline {3.2.4}Multiple-Parameter Functions}{46}{subsection.3.2.4}\protected@file@percent }
\@writefile{toc}{\contentsline {subsection}{\numberline {3.2.5}Tuples}{47}{subsection.3.2.5}\protected@file@percent }
\newlabel{sect-tuples}{{3.2.5}{47}{Tuples}{subsection.3.2.5}{}}
\newlabel{sect-tuples@cref}{{[subsection][5][3,2]3.2.5}{[1][47][]47}}
\@writefile{toc}{\contentsline {subsection}{\numberline {3.2.6}Functions Returning Expressions}{48}{subsection.3.2.6}\protected@file@percent }
\@writefile{toc}{\contentsline {subsection}{\numberline {3.2.7}Option Types and the Null Node}{49}{subsection.3.2.7}\protected@file@percent }
\@writefile{toc}{\contentsline {subsection}{\numberline {3.2.8}The Multistep Relation}{50}{subsection.3.2.8}\protected@file@percent }
\newlabel{sect-multistep-core}{{3.2.8}{50}{The Multistep Relation}{subsection.3.2.8}{}}
\newlabel{sect-multistep-core@cref}{{[subsection][8][3,2]3.2.8}{[1][50][]50}}
\@writefile{toc}{\contentsline {subsection}{\numberline {3.2.9}The Big Step Relation}{50}{subsection.3.2.9}\protected@file@percent }
\newlabel{sect-bigstep-core}{{3.2.9}{50}{The Big Step Relation}{subsection.3.2.9}{}}
\newlabel{sect-bigstep-core@cref}{{[subsection][9][3,2]3.2.9}{[1][50][]50}}
\@writefile{toc}{\contentsline {section}{\numberline {3.3}Name Analysis Example}{51}{section.3.3}\protected@file@percent }
\newlabel{sect-saiga-name-example}{{3.3}{51}{Name Analysis Example}{section.3.3}{}}
\newlabel{sect-saiga-name-example@cref}{{[section][3][3]3.3}{[1][50][]51}}
\@writefile{toc}{\contentsline {section}{\numberline {3.4}Conclusion}{53}{section.3.4}\protected@file@percent }
\@setckpt{chap_saiga}{
\setcounter{page}{55}
\setcounter{equation}{0}
\setcounter{enumi}{8}
\setcounter{enumii}{0}
\setcounter{enumiii}{0}
\setcounter{enumiv}{0}
\setcounter{footnote}{0}
\setcounter{mpfootnote}{0}
\setcounter{part}{0}
\setcounter{chapter}{3}
\setcounter{section}{4}
\setcounter{subsection}{0}
\setcounter{subsubsection}{0}
\setcounter{paragraph}{0}
\setcounter{subparagraph}{0}
\setcounter{figure}{0}
\setcounter{table}{0}
\setcounter{NAT@ctr}{0}
\setcounter{parentequation}{0}
\setcounter{Item}{8}
\setcounter{Hfootnote}{1}
\setcounter{bookmark@seq@number}{40}
\setcounter{@@conflict}{0}
\setcounter{tcbbreakpart}{0}
\setcounter{tcblayer}{0}
\setcounter{subfigure}{0}
\setcounter{lofdepth}{1}
\setcounter{subtable}{0}
\setcounter{lotdepth}{1}
\setcounter{lstnumber}{2}
\setcounter{tmkcount}{9}
\setcounter{lcword@index}{0}
\setcounter{word@count}{0}
\setcounter{lc@words}{0}
\setcounter{dia@count}{0}
\setcounter{arg@@@index}{0}
\setcounter{theorem}{0}
\setcounter{definition}{0}
\setcounter{thmcase}{0}
\setcounter{thmsubcase}{0}
\setcounter{thmsubsubcase}{0}
\setcounter{section@level}{1}
\setcounter{lstlisting}{0}
}
