\relax 
\providecommand\hyper@newdestlabel[2]{}
\citation{languageworkbenches-stateoftheart2013}
\citation{knuth68}
\@writefile{toc}{\contentsline {chapter}{\numberline {1}Introduction}{1}{chapter.1}\protected@file@percent }
\@writefile{lof}{\addvspace {10\p@ }}
\@writefile{lot}{\addvspace {10\p@ }}
\@writefile{toc}{\contentsline {section}{\numberline {1.1}Contributions}{2}{section.1.1}\protected@file@percent }
\newlabel{sect-intro-contributions}{{1.1}{2}{Contributions}{section.1.1}{}}
\newlabel{sect-intro-contributions@cref}{{[section][1][1]1.1}{[1][2][]2}}
\@writefile{toc}{\contentsline {section}{\numberline {1.2}Outline}{3}{section.1.2}\protected@file@percent }
\newlabel{sect-intro-outline}{{1.2}{3}{Outline}{section.1.2}{}}
\newlabel{sect-intro-outline@cref}{{[section][2][1]1.2}{[1][3][]3}}
\@setckpt{chap_intro}{
\setcounter{page}{5}
\setcounter{equation}{0}
\setcounter{enumi}{8}
\setcounter{enumii}{0}
\setcounter{enumiii}{0}
\setcounter{enumiv}{0}
\setcounter{footnote}{1}
\setcounter{mpfootnote}{0}
\setcounter{part}{0}
\setcounter{chapter}{1}
\setcounter{section}{2}
\setcounter{subsection}{0}
\setcounter{subsubsection}{0}
\setcounter{paragraph}{0}
\setcounter{subparagraph}{0}
\setcounter{figure}{0}
\setcounter{table}{0}
\setcounter{NAT@ctr}{0}
\setcounter{parentequation}{0}
\setcounter{Item}{8}
\setcounter{Hfootnote}{1}
\setcounter{bookmark@seq@number}{5}
\setcounter{@@conflict}{0}
\setcounter{tcbbreakpart}{0}
\setcounter{tcblayer}{0}
\setcounter{subfigure}{0}
\setcounter{lofdepth}{1}
\setcounter{subtable}{0}
\setcounter{lotdepth}{1}
\setcounter{lstnumber}{1}
\setcounter{tmkcount}{0}
\setcounter{lcword@index}{0}
\setcounter{word@count}{0}
\setcounter{lc@words}{0}
\setcounter{dia@count}{0}
\setcounter{arg@@@index}{0}
\setcounter{theorem}{0}
\setcounter{definition}{0}
\setcounter{thmcase}{0}
\setcounter{thmsubcase}{0}
\setcounter{thmsubsubcase}{0}
\setcounter{section@level}{1}
\setcounter{lstlisting}{0}
}
