\relax 
\providecommand\hyper@newdestlabel[2]{}
\@writefile{toc}{\contentsline {chapter}{\numberline {5}Higher Order Saiga}{71}{chapter.5}\protected@file@percent }
\@writefile{lof}{\addvspace {10\p@ }}
\@writefile{lot}{\addvspace {10\p@ }}
\newlabel{chap-saiga-ho}{{5}{71}{Higher Order Saiga}{chapter.5}{}}
\newlabel{chap-saiga-ho@cref}{{[chapter][5][]5}{[1][71][]71}}
\@writefile{toc}{\contentsline {section}{\numberline {5.1}Higher Order Attributes}{71}{section.5.1}\protected@file@percent }
\newlabel{sect-ho-calculus}{{5.1}{71}{Higher Order Attributes}{section.5.1}{}}
\newlabel{sect-ho-calculus@cref}{{[section][1][5]5.1}{[1][71][]71}}
\@writefile{toc}{\contentsline {subsection}{\numberline {5.1.1}Expression Language}{72}{subsection.5.1.1}\protected@file@percent }
\newlabel{sect-ho-grammar}{{5.1.1}{72}{Expression Language}{subsection.5.1.1}{}}
\newlabel{sect-ho-grammar@cref}{{[subsection][1][5,1]5.1.1}{[1][72][]72}}
\@writefile{toc}{\contentsline {subsection}{\numberline {5.1.2}Type Rules}{73}{subsection.5.1.2}\protected@file@percent }
\newlabel{sect-ho-typerules}{{5.1.2}{73}{Type Rules}{subsection.5.1.2}{}}
\newlabel{sect-ho-typerules@cref}{{[subsection][2][5,1]5.1.2}{[1][73][]73}}
\@writefile{toc}{\contentsline {subsection}{\numberline {5.1.3}Semantic Rules}{73}{subsection.5.1.3}\protected@file@percent }
\newlabel{sect-ho-semantics}{{5.1.3}{73}{Semantic Rules}{subsection.5.1.3}{}}
\newlabel{sect-ho-semantics@cref}{{[subsection][3][5,1]5.1.3}{[1][73][]73}}
\@writefile{toc}{\contentsline {section}{\numberline {5.2}Tree Optimisation Example}{74}{section.5.2}\protected@file@percent }
\newlabel{sect-ho-example}{{5.2}{74}{Tree Optimisation Example}{section.5.2}{}}
\newlabel{sect-ho-example@cref}{{[section][2][5]5.2}{[1][74][]74}}
\@writefile{toc}{\contentsline {section}{\numberline {5.3}Discussion}{80}{section.5.3}\protected@file@percent }
\newlabel{sect-ho-discussion}{{5.3}{80}{Discussion}{section.5.3}{}}
\newlabel{sect-ho-discussion@cref}{{[section][3][5]5.3}{[1][80][]80}}
\@writefile{toc}{\contentsline {subsection}{\numberline {5.3.1}User-Level Expressions}{80}{subsection.5.3.1}\protected@file@percent }
\newlabel{sect-ho-userlevel}{{5.3.1}{80}{User-Level Expressions}{subsection.5.3.1}{}}
\newlabel{sect-ho-userlevel@cref}{{[subsection][1][5,3]5.3.1}{[1][80][]80}}
\@writefile{toc}{\contentsline {subsection}{\numberline {5.3.2}Intrinsic Attributes on Higher Order Nodes}{81}{subsection.5.3.2}\protected@file@percent }
\newlabel{sect-ho-intrinsic}{{5.3.2}{81}{Intrinsic Attributes on Higher Order Nodes}{subsection.5.3.2}{}}
\newlabel{sect-ho-intrinsic@cref}{{[subsection][2][5,3]5.3.2}{[1][81][]81}}
\@writefile{toc}{\contentsline {subsection}{\numberline {5.3.3}Building Initial Trees}{82}{subsection.5.3.3}\protected@file@percent }
\newlabel{sect-ho-treebuilding}{{5.3.3}{82}{Building Initial Trees}{subsection.5.3.3}{}}
\newlabel{sect-ho-treebuilding@cref}{{[subsection][3][5,3]5.3.3}{[1][82][]82}}
\citation{vanwyk02forwarding}
\@writefile{toc}{\contentsline {subsubsection}{Tree Construction and Parsing}{83}{section*.22}\protected@file@percent }
\@writefile{toc}{\contentsline {subsubsection}{Forcing Full Construction}{83}{section*.23}\protected@file@percent }
\newlabel{sect-ho-forcing}{{5.3.3}{83}{Forcing Full Construction}{section*.23}{}}
\newlabel{sect-ho-forcing@cref}{{[subsection][3][5,3]5.3.3}{[1][83][]83}}
\@writefile{toc}{\contentsline {subsection}{\numberline {5.3.4}Forwarding}{84}{subsection.5.3.4}\protected@file@percent }
\newlabel{sect-ho-forwarding}{{5.3.4}{84}{Forwarding}{subsection.5.3.4}{}}
\newlabel{sect-ho-forwarding@cref}{{[subsection][4][5,3]5.3.4}{[1][83][]84}}
\@writefile{toc}{\contentsline {subsection}{\numberline {5.3.5}The Multistep Relation}{85}{subsection.5.3.5}\protected@file@percent }
\newlabel{sect-multistep-ho}{{5.3.5}{85}{The Multistep Relation}{subsection.5.3.5}{}}
\newlabel{sect-multistep-ho@cref}{{[subsection][5][5,3]5.3.5}{[1][85][]85}}
\@writefile{toc}{\contentsline {subsection}{\numberline {5.3.6}The Big Step Relation}{85}{subsection.5.3.6}\protected@file@percent }
\newlabel{sect-bigstep-ho}{{5.3.6}{85}{The Big Step Relation}{subsection.5.3.6}{}}
\newlabel{sect-bigstep-ho@cref}{{[subsection][6][5,3]5.3.6}{[1][85][]85}}
\@setckpt{chap_saiga_ho}{
\setcounter{page}{87}
\setcounter{equation}{0}
\setcounter{enumi}{8}
\setcounter{enumii}{0}
\setcounter{enumiii}{0}
\setcounter{enumiv}{0}
\setcounter{footnote}{0}
\setcounter{mpfootnote}{0}
\setcounter{part}{0}
\setcounter{chapter}{5}
\setcounter{section}{3}
\setcounter{subsection}{6}
\setcounter{subsubsection}{0}
\setcounter{paragraph}{0}
\setcounter{subparagraph}{0}
\setcounter{figure}{0}
\setcounter{table}{0}
\setcounter{NAT@ctr}{0}
\setcounter{parentequation}{0}
\setcounter{Item}{8}
\setcounter{Hfootnote}{1}
\setcounter{bookmark@seq@number}{73}
\setcounter{@@conflict}{0}
\setcounter{tcbbreakpart}{0}
\setcounter{tcblayer}{0}
\setcounter{subfigure}{0}
\setcounter{lofdepth}{1}
\setcounter{subtable}{0}
\setcounter{lotdepth}{1}
\setcounter{lstnumber}{2}
\setcounter{tmkcount}{24}
\setcounter{lcword@index}{0}
\setcounter{word@count}{0}
\setcounter{lc@words}{0}
\setcounter{dia@count}{0}
\setcounter{arg@@@index}{0}
\setcounter{theorem}{0}
\setcounter{definition}{0}
\setcounter{thmcase}{0}
\setcounter{thmsubcase}{0}
\setcounter{thmsubsubcase}{0}
\setcounter{section@level}{2}
\setcounter{lstlisting}{0}
}
