\relax 
\providecommand\hyper@newdestlabel[2]{}
\citation{igarashi01fwjgj}
\citation{igarashi01fwjgj}
\@writefile{toc}{\contentsline {chapter}{\numberline {7}Example}{123}{chapter.7}\protected@file@percent }
\@writefile{lof}{\addvspace {10\p@ }}
\@writefile{lot}{\addvspace {10\p@ }}
\newlabel{chap-example}{{7}{123}{Example}{chapter.7}{}}
\newlabel{chap-example@cref}{{[chapter][7][]7}{[1][123][]123}}
\citation{sloane16rats}
\citation{igarashi01fwjgj}
\@writefile{toc}{\contentsline {section}{\numberline {7.1}The Abstract Grammar}{124}{section.7.1}\protected@file@percent }
\newlabel{sect-ex-abstract}{{7.1}{124}{The Abstract Grammar}{section.7.1}{}}
\newlabel{sect-ex-abstract@cref}{{[section][1][7]7.1}{[1][124][]124}}
\@writefile{toc}{\contentsline {section}{\numberline {7.2}The Attributes}{124}{section.7.2}\protected@file@percent }
\newlabel{sect-ex-attributes}{{7.2}{124}{The Attributes}{section.7.2}{}}
\newlabel{sect-ex-attributes@cref}{{[section][2][7]7.2}{[1][124][]124}}
\@writefile{lof}{\contentsline {figure}{\numberline {7.1}{\ignorespaces A sample of the abstract grammar used by the Kiama implementation.}}{125}{figure.7.1}\protected@file@percent }
\newlabel{fig-ex-kiamatree}{{7.1}{125}{A sample of the abstract grammar used by the Kiama implementation}{figure.7.1}{}}
\newlabel{fig-ex-kiamatree@cref}{{[figure][1][7]7.1}{[1][124][]125}}
\@writefile{lof}{\contentsline {figure}{\numberline {7.2}{\ignorespaces A sample of the abstract grammar used by the JastAdd implementation.}}{125}{figure.7.2}\protected@file@percent }
\newlabel{fig-ex-jastaddtree}{{7.2}{125}{A sample of the abstract grammar used by the JastAdd implementation}{figure.7.2}{}}
\newlabel{fig-ex-jastaddtree@cref}{{[figure][2][7]7.2}{[1][124][]125}}
\@writefile{lof}{\contentsline {figure}{\numberline {7.3}{\ignorespaces The abstract syntax tree used in this example.}}{126}{figure.7.3}\protected@file@percent }
\newlabel{sect-name-abstractgrammar}{{7.3}{126}{The abstract syntax tree used in this example}{figure.7.3}{}}
\newlabel{sect-name-abstractgrammar@cref}{{[figure][3][7]7.3}{[1][124][]126}}
\newlabel{fig-ex-ast}{{7.3}{126}{The abstract syntax tree used in this example}{figure.7.3}{}}
\newlabel{fig-ex-ast@cref}{{[figure][3][7]7.3}{[1][124][]126}}
\@writefile{lof}{\contentsline {figure}{\numberline {7.4}{\ignorespaces An example tree that matches the abstract syntax described in \cref  {fig-ex-ast}.}}{126}{figure.7.4}\protected@file@percent }
\newlabel{fig-ex-treeexample}{{7.4}{126}{An example tree that matches the abstract syntax described in \cref {fig-ex-ast}}{figure.7.4}{}}
\newlabel{fig-ex-treeexample@cref}{{[figure][4][7]7.4}{[1][124][]126}}
\@writefile{toc}{\contentsline {subsection}{\numberline {7.2.1}The Kiama Implementation}{127}{subsection.7.2.1}\protected@file@percent }
\newlabel{sect-name-kiama}{{7.2.1}{127}{The Kiama Implementation}{subsection.7.2.1}{}}
\newlabel{sect-name-kiama@cref}{{[subsection][1][7,2]7.2.1}{[1][124][]127}}
\@writefile{toc}{\contentsline {subsubsection}{\text  {\fontfamily  {lcmss}\selectfont  env}}{127}{section*.24}\protected@file@percent }
\newlabel{name-kiama-env}{{7.2.1}{127}{\a {env}}{section*.24}{}}
\newlabel{name-kiama-env@cref}{{[subsection][1][7,2]7.2.1}{[1][127][]127}}
\@writefile{toc}{\contentsline {subsubsection}{\text  {\fontfamily  {lcmss}\selectfont  decl}}{128}{section*.25}\protected@file@percent }
\newlabel{name-kiama-decl}{{7.2.1}{128}{\a {decl}}{section*.25}{}}
\newlabel{name-kiama-decl@cref}{{[subsection][1][7,2]7.2.1}{[1][127][]128}}
\@writefile{toc}{\contentsline {subsubsection}{\text  {\fontfamily  {lcmss}\selectfont  type}}{128}{section*.26}\protected@file@percent }
\newlabel{name-kiama-type}{{7.2.1}{128}{\a {type}}{section*.26}{}}
\newlabel{name-kiama-type@cref}{{[subsection][1][7,2]7.2.1}{[1][128][]128}}
\@writefile{toc}{\contentsline {subsubsection}{\text  {\fontfamily  {lcmss}\selectfont  type} Aux Attributes}{128}{section*.27}\protected@file@percent }
\@writefile{toc}{\contentsline {subsubsection}{\text  {\fontfamily  {lcmss}\selectfont  fields}}{129}{section*.28}\protected@file@percent }
\newlabel{name-kiama-fields}{{7.2.1}{129}{\a {fields}}{section*.28}{}}
\newlabel{name-kiama-fields@cref}{{[subsection][1][7,2]7.2.1}{[1][128][]129}}
\@writefile{toc}{\contentsline {subsubsection}{\text  {\fontfamily  {lcmss}\selectfont  superClass}}{129}{section*.29}\protected@file@percent }
\newlabel{name-kiama-superclass}{{7.2.1}{129}{\a {superClass}}{section*.29}{}}
\newlabel{name-kiama-superclass@cref}{{[subsection][1][7,2]7.2.1}{[1][129][]129}}
\@writefile{toc}{\contentsline {subsubsection}{\text  {\fontfamily  {lcmss}\selectfont  method}}{129}{section*.30}\protected@file@percent }
\newlabel{name-kiama-method}{{7.2.1}{129}{\a {method}}{section*.30}{}}
\newlabel{name-kiama-method@cref}{{[subsection][1][7,2]7.2.1}{[1][129][]129}}
\@writefile{toc}{\contentsline {subsubsection}{\text  {\fontfamily  {lcmss}\selectfont  subTypeOf}}{129}{section*.31}\protected@file@percent }
\newlabel{name-kiama-subtypes}{{7.2.1}{129}{\a {subTypeOf}}{section*.31}{}}
\newlabel{name-kiama-subtypes@cref}{{[subsection][1][7,2]7.2.1}{[1][129][]129}}
\@writefile{toc}{\contentsline {subsubsection}{\text  {\fontfamily  {lcmss}\selectfont  thisFPDecl}}{129}{section*.32}\protected@file@percent }
\newlabel{name-kiama-thisfpdecl}{{7.2.1}{129}{\a {thisFPDecl}}{section*.32}{}}
\newlabel{name-kiama-thisfpdecl@cref}{{[subsection][1][7,2]7.2.1}{[1][129][]129}}
\@writefile{toc}{\contentsline {subsubsection}{\text  {\fontfamily  {lcmss}\selectfont  objectClassDecl}}{130}{section*.33}\protected@file@percent }
\newlabel{name-kiama-objectclassdecl}{{7.2.1}{130}{\a {objectClassDecl}}{section*.33}{}}
\newlabel{name-kiama-objectclassdecl@cref}{{[subsection][1][7,2]7.2.1}{[1][129][]130}}
\@writefile{toc}{\contentsline {subsubsection}{Aux Node Construction Attributes}{130}{section*.34}\protected@file@percent }
\@writefile{toc}{\contentsline {subsubsection}{Helper Attributes}{130}{section*.35}\protected@file@percent }
\newlabel{name-kiama-helpers}{{7.2.1}{130}{Helper Attributes}{section*.35}{}}
\newlabel{name-kiama-helpers@cref}{{[subsection][1][7,2]7.2.1}{[1][130][]130}}
\@writefile{toc}{\contentsline {subsection}{\numberline {7.2.2}The JastAdd Implementation}{131}{subsection.7.2.2}\protected@file@percent }
\newlabel{sect-name-jastadd}{{7.2.2}{131}{The JastAdd Implementation}{subsection.7.2.2}{}}
\newlabel{sect-name-jastadd@cref}{{[subsection][2][7,2]7.2.2}{[1][131][]131}}
\@writefile{toc}{\contentsline {subsubsection}{\text  {\fontfamily  {lcmss}\selectfont  decl}}{131}{section*.36}\protected@file@percent }
\newlabel{name-jastadd-decl}{{7.2.2}{131}{\attr {decl}}{section*.36}{}}
\newlabel{name-jastadd-decl@cref}{{[subsection][2][7,2]7.2.2}{[1][131][]131}}
\@writefile{toc}{\contentsline {subsubsection}{\text  {\fontfamily  {lcmss}\selectfont  type}}{132}{section*.37}\protected@file@percent }
\newlabel{name-jastadd-type}{{7.2.2}{132}{\attr {type}}{section*.37}{}}
\newlabel{name-jastadd-type@cref}{{[subsection][2][7,2]7.2.2}{[1][131][]132}}
\@writefile{toc}{\contentsline {subsubsection}{\text  {\fontfamily  {lcmss}\selectfont  subTypeOf}}{132}{section*.38}\protected@file@percent }
\newlabel{name-jastadd-subtypeof}{{7.2.2}{132}{\attr {subTypeOf}}{section*.38}{}}
\newlabel{name-jastadd-subtypeof@cref}{{[subsection][2][7,2]7.2.2}{[1][132][]132}}
\@writefile{toc}{\contentsline {subsubsection}{\text  {\fontfamily  {lcmss}\selectfont  lookup}}{133}{section*.39}\protected@file@percent }
\newlabel{name-jastadd-lookup}{{7.2.2}{133}{\attr {lookup}}{section*.39}{}}
\newlabel{name-jastadd-lookup@cref}{{[subsection][2][7,2]7.2.2}{[1][132][]133}}
\@writefile{toc}{\contentsline {subsubsection}{\text  {\fontfamily  {lcmss}\selectfont  fields}}{133}{section*.40}\protected@file@percent }
\newlabel{name-jastadd-fields}{{7.2.2}{133}{\attr {fields}}{section*.40}{}}
\newlabel{name-jastadd-fields@cref}{{[subsection][2][7,2]7.2.2}{[1][133][]133}}
\@writefile{toc}{\contentsline {subsubsection}{\text  {\fontfamily  {lcmss}\selectfont  lookupType}}{133}{section*.41}\protected@file@percent }
\newlabel{name-jastadd-lookuptype}{{7.2.2}{133}{\attr {lookupType}}{section*.41}{}}
\newlabel{name-jastadd-lookuptype@cref}{{[subsection][2][7,2]7.2.2}{[1][133][]133}}
\@writefile{toc}{\contentsline {subsubsection}{\text  {\fontfamily  {lcmss}\selectfont  lookupMethod}}{133}{section*.42}\protected@file@percent }
\newlabel{name-jastadd-lookupmethod}{{7.2.2}{133}{\attr {lookupMethod}}{section*.42}{}}
\newlabel{name-jastadd-lookupmethod@cref}{{[subsection][2][7,2]7.2.2}{[1][133][]133}}
\@writefile{toc}{\contentsline {subsubsection}{\text  {\fontfamily  {lcmss}\selectfont  remoteLookup}}{134}{section*.43}\protected@file@percent }
\newlabel{name-jastadd-remotelookup}{{7.2.2}{134}{\attr {remoteLookup}}{section*.43}{}}
\newlabel{name-jastadd-remotelookup@cref}{{[subsection][2][7,2]7.2.2}{[1][133][]134}}
\@writefile{toc}{\contentsline {subsubsection}{\text  {\fontfamily  {lcmss}\selectfont  superClass}}{134}{section*.44}\protected@file@percent }
\newlabel{name-jastadd-superclass}{{7.2.2}{134}{\attr {superClass}}{section*.44}{}}
\newlabel{name-jastadd-superclass@cref}{{[subsection][2][7,2]7.2.2}{[1][134][]134}}
\@writefile{toc}{\contentsline {subsubsection}{\text  {\fontfamily  {lcmss}\selectfont  enclosingClassDecl}}{134}{section*.45}\protected@file@percent }
\newlabel{name-jastadd-enclosingclassdecl}{{7.2.2}{134}{\attr {enclosingClassDecl}}{section*.45}{}}
\newlabel{name-jastadd-enclosingclassdecl@cref}{{[subsection][2][7,2]7.2.2}{[1][134][]134}}
\@writefile{toc}{\contentsline {subsubsection}{\text  {\fontfamily  {lcmss}\selectfont  thisFPDecl}}{134}{section*.46}\protected@file@percent }
\newlabel{name-jastadd-thisfpdecl}{{7.2.2}{134}{\attr {thisFPDecl}}{section*.46}{}}
\newlabel{name-jastadd-thisfpdecl@cref}{{[subsection][2][7,2]7.2.2}{[1][134][]134}}
\@writefile{toc}{\contentsline {subsubsection}{\text  {\fontfamily  {lcmss}\selectfont  objectClassDecl}}{134}{section*.47}\protected@file@percent }
\newlabel{name-jastadd-objectclassdecl}{{7.2.2}{134}{\a {objectClassDecl}}{section*.47}{}}
\newlabel{name-jastadd-objectclassdecl@cref}{{[subsection][2][7,2]7.2.2}{[1][134][]134}}
\@writefile{toc}{\contentsline {subsubsection}{Aux Node Construction Attributes}{134}{section*.48}\protected@file@percent }
\@writefile{toc}{\contentsline {subsubsection}{Helper Attributes}{135}{section*.49}\protected@file@percent }
\newlabel{name-jastadd-helpers}{{7.2.2}{135}{Helper Attributes}{section*.49}{}}
\newlabel{name-jastadd-helpers@cref}{{[subsection][2][7,2]7.2.2}{[1][135][]135}}
\@writefile{toc}{\contentsline {section}{\numberline {7.3}Important Lemmas}{135}{section.7.3}\protected@file@percent }
\newlabel{sect-ex-lemmas}{{7.3}{135}{Important Lemmas}{section.7.3}{}}
\newlabel{sect-ex-lemmas@cref}{{[section][3][7]7.3}{[1][135][]135}}
\newlabel{def-asame}{{7.3.1}{135}{}{definition.7.3.1}{}}
\newlabel{def-asame@cref}{{[definition][1][7,3]7.3.1}{[1][135][]135}}
\newlabel{thm-meta-equality}{{37}{136}{}{theorem.37}{}}
\newlabel{thm-meta-equality@cref}{{[lemma][37][]37}{[1][136][]136}}
\newlabel{n01}{{37.1}{136}{}{equation.37.1}{}}
\newlabel{n01@cref}{{[equation][1][7]37.1}{[1][136][]136}}
\newlabel{n02}{{37.2}{136}{}{equation.37.2}{}}
\newlabel{n02@cref}{{[equation][2][7]37.2}{[1][136][]136}}
\newlabel{n03}{{37.3}{136}{}{equation.37.3}{}}
\newlabel{n03@cref}{{[equation][3][7]37.3}{[1][136][]136}}
\newlabel{n2.4}{{37.4}{136}{$e$ is a function application expression}{equation.37.4}{}}
\newlabel{n2.4@cref}{{[equation][4][7]37.4}{[1][136][]136}}
\newlabel{n2.5}{{37.5}{136}{$e$ is a function application expression}{equation.37.5}{}}
\newlabel{n2.5@cref}{{[equation][5][7]37.5}{[1][136][]136}}
\newlabel{n2.6}{{37.6}{136}{$e$ is a function application expression}{equation.37.6}{}}
\newlabel{n2.6@cref}{{[equation][6][7]37.6}{[1][136][]136}}
\newlabel{n2.7}{{37.7}{136}{$e$ is a function application expression}{equation.37.7}{}}
\newlabel{n2.7@cref}{{[equation][7][7]37.7}{[1][136][]136}}
\newlabel{n2.8}{{37.8}{136}{$e$ is a function application expression}{equation.37.8}{}}
\newlabel{n2.8@cref}{{[equation][8][7]37.8}{[1][136][]136}}
\newlabel{n2.9}{{37.9}{136}{$e$ is a function application expression}{equation.37.9}{}}
\newlabel{n2.9@cref}{{[equation][9][7]37.9}{[1][136][]136}}
\newlabel{n2.10}{{37.10}{136}{$e$ is a function application expression}{equation.37.10}{}}
\newlabel{n2.10@cref}{{[equation][10][7]37.10}{[1][136][]136}}
\newlabel{n2.11}{{37.11}{136}{$e$ is a function application expression}{equation.37.11}{}}
\newlabel{n2.11@cref}{{[equation][11][7]37.11}{[1][136][]136}}
\newlabel{n2.11}{{37.12}{136}{$e$ is a function application expression}{equation.37.12}{}}
\newlabel{n2.11@cref}{{[equation][12][7]37.12}{[1][136][]136}}
\newlabel{n2.12}{{37.13}{136}{$e$ is a function application expression}{equation.37.13}{}}
\newlabel{n2.12@cref}{{[equation][13][7]37.13}{[1][136][]136}}
\newlabel{n2.13}{{37.14}{137}{$e$ is a function application expression}{equation.37.14}{}}
\newlabel{n2.13@cref}{{[equation][14][7]37.14}{[1][136][]137}}
\newlabel{n2.14}{{37.15}{137}{$e$ is a function application expression}{equation.37.15}{}}
\newlabel{n2.14@cref}{{[equation][15][7]37.15}{[1][136][]137}}
\newlabel{n10}{{37.16}{137}{$e$ is an attribution expression}{equation.37.16}{}}
\newlabel{n10@cref}{{[equation][16][7]37.16}{[1][137][]137}}
\newlabel{n11}{{37.17}{137}{$e$ is an attribution expression}{equation.37.17}{}}
\newlabel{n11@cref}{{[equation][17][7]37.17}{[1][137][]137}}
\newlabel{n12}{{37.18}{137}{$e$ is an attribution expression}{equation.37.18}{}}
\newlabel{n12@cref}{{[equation][18][7]37.18}{[1][137][]137}}
\newlabel{n13}{{37.19}{137}{$e$ is an attribution expression}{equation.37.19}{}}
\newlabel{n13@cref}{{[equation][19][7]37.19}{[1][137][]137}}
\newlabel{n14}{{37.20}{137}{$e$ is an attribution expression}{equation.37.20}{}}
\newlabel{n14@cref}{{[equation][20][7]37.20}{[1][137][]137}}
\newlabel{n15}{{37.21}{137}{$e$ is an attribution expression}{equation.37.21}{}}
\newlabel{n15@cref}{{[equation][21][7]37.21}{[1][137][]137}}
\newlabel{n16}{{37.22}{137}{$e$ is an attribution expression}{equation.37.22}{}}
\newlabel{n16@cref}{{[equation][22][7]37.22}{[1][137][]137}}
\newlabel{n17}{{37.23}{137}{$e$ is an attribution expression}{equation.37.23}{}}
\newlabel{n17@cref}{{[equation][23][7]37.23}{[1][137][]137}}
\newlabel{n18}{{37.24}{137}{$e$ is an attribution expression}{equation.37.24}{}}
\newlabel{n18@cref}{{[equation][24][7]37.24}{[1][137][]137}}
\newlabel{n19}{{37.25}{137}{$e$ is an attribution expression}{equation.37.25}{}}
\newlabel{n19@cref}{{[equation][25][7]37.25}{[1][137][]137}}
\newlabel{n2.26}{{37.26}{137}{$e$ is an attribution expression}{equation.37.26}{}}
\newlabel{n2.26@cref}{{[equation][26][7]37.26}{[1][137][]137}}
\newlabel{n2.27}{{37.27}{137}{$e$ is an attribution expression}{equation.37.27}{}}
\newlabel{n2.27@cref}{{[equation][27][7]37.27}{[1][137][]137}}
\newlabel{lem-ainA}{{38}{137}{}{theorem.38}{}}
\newlabel{lem-ainA@cref}{{[lemma][38][]38}{[1][137][]137}}
\newlabel{n3.6}{{38.6}{138}{}{equation.38.6}{}}
\newlabel{n3.6@cref}{{[equation][6][7]38.6}{[1][138][]138}}
\newlabel{n3.8}{{38.8}{138}{The \attrfetchvalue case}{equation.38.8}{}}
\newlabel{n3.8@cref}{{[equation][8][7]38.8}{[1][138][]138}}
\newlabel{n3.10}{{38.10}{138}{The \attrfetchvalue case}{equation.38.10}{}}
\newlabel{n3.10@cref}{{[equation][10][7]38.10}{[1][138][]138}}
\newlabel{n3.11}{{38.11}{138}{The \attrfetchvalue case}{equation.38.11}{}}
\newlabel{n3.11@cref}{{[equation][11][7]38.11}{[1][138][]138}}
\newlabel{n3.12}{{38.12}{138}{The \attrfetchvalue case}{equation.38.12}{}}
\newlabel{n3.12@cref}{{[equation][12][7]38.12}{[1][138][]138}}
\newlabel{n3.13}{{38.13}{138}{The \attrfetchvalue case}{equation.38.13}{}}
\newlabel{n3.13@cref}{{[equation][13][7]38.13}{[1][138][]138}}
\newlabel{n3.14}{{38.14}{138}{The \attrfetchvalue case}{equation.38.14}{}}
\newlabel{n3.14@cref}{{[equation][14][7]38.14}{[1][138][]138}}
\newlabel{n3.15}{{38.15}{138}{The \attrfetchvalue case}{equation.38.15}{}}
\newlabel{n3.15@cref}{{[equation][15][7]38.15}{[1][138][]138}}
\newlabel{n3.16}{{38.16}{138}{The \attrfetchvalue case}{equation.38.16}{}}
\newlabel{n3.16@cref}{{[equation][16][7]38.16}{[1][138][]138}}
\newlabel{n3.17}{{38.17}{138}{The \attrfetchvalue case}{equation.38.17}{}}
\newlabel{n3.17@cref}{{[equation][17][7]38.17}{[1][138][]138}}
\newlabel{n3.18}{{38.18}{139}{The \attrfetchcached case}{equation.38.18}{}}
\newlabel{n3.18@cref}{{[equation][18][7]38.18}{[1][138][]139}}
\newlabel{n3.19}{{38.19}{139}{The \attrfetchcached case}{equation.38.19}{}}
\newlabel{n3.19@cref}{{[equation][19][7]38.19}{[1][138][]139}}
\newlabel{n3.20}{{38.20}{139}{The \attrfetchcached case}{equation.38.20}{}}
\newlabel{n3.20@cref}{{[equation][20][7]38.20}{[1][138][]139}}
\newlabel{n3.21}{{38.21}{139}{The \attrfetchcached case}{equation.38.21}{}}
\newlabel{n3.21@cref}{{[equation][21][7]38.21}{[1][138][]139}}
\newlabel{n3.22}{{38.22}{139}{The \attrfetchcached case}{equation.38.22}{}}
\newlabel{n3.22@cref}{{[equation][22][7]38.22}{[1][138][]139}}
\newlabel{n3.23}{{38.23}{139}{The \attrfetchcached case}{equation.38.23}{}}
\newlabel{n3.23@cref}{{[equation][23][7]38.23}{[1][138][]139}}
\newlabel{n3.24}{{38.24}{139}{The \attrfetchcached case}{equation.38.24}{}}
\newlabel{n3.24@cref}{{[equation][24][7]38.24}{[1][138][]139}}
\newlabel{n3.25}{{38.25}{139}{The \attrfetchcached case}{equation.38.25}{}}
\newlabel{n3.25@cref}{{[equation][25][7]38.25}{[1][138][]139}}
\newlabel{n3.26}{{38.26}{139}{The \attrfetchcached case}{equation.38.26}{}}
\newlabel{n3.26@cref}{{[equation][26][7]38.26}{[1][138][]139}}
\newlabel{n3.27}{{38.27}{139}{The \attrfetchcached case}{equation.38.27}{}}
\newlabel{n3.27@cref}{{[equation][27][7]38.27}{[1][138][]139}}
\newlabel{n3.28}{{38.28}{139}{The \attrfetchho case}{equation.38.28}{}}
\newlabel{n3.28@cref}{{[equation][28][7]38.28}{[1][139][]139}}
\newlabel{n3.29}{{38.29}{139}{The \attrfetchho case}{equation.38.29}{}}
\newlabel{n3.29@cref}{{[equation][29][7]38.29}{[1][139][]139}}
\newlabel{n3.30}{{38.30}{139}{The \attrfetchho case}{equation.38.30}{}}
\newlabel{n3.30@cref}{{[equation][30][7]38.30}{[1][139][]139}}
\newlabel{n3.31}{{38.31}{139}{The \attrfetchho case}{equation.38.31}{}}
\newlabel{n3.31@cref}{{[equation][31][7]38.31}{[1][139][]139}}
\newlabel{n3.32}{{38.32}{139}{The \attrfetchho case}{equation.38.32}{}}
\newlabel{n3.32@cref}{{[equation][32][7]38.32}{[1][139][]139}}
\newlabel{n3.33}{{38.33}{139}{The \attrfetchho case}{equation.38.33}{}}
\newlabel{n3.33@cref}{{[equation][33][7]38.33}{[1][139][]139}}
\newlabel{n3.34}{{38.34}{139}{The \attrfetchho case}{equation.38.34}{}}
\newlabel{n3.34@cref}{{[equation][34][7]38.34}{[1][139][]139}}
\newlabel{n3.35}{{38.35}{139}{The \attrfetchho case}{equation.38.35}{}}
\newlabel{n3.35@cref}{{[equation][35][7]38.35}{[1][139][]139}}
\newlabel{n3.36}{{38.36}{139}{The \attrfetchho case}{equation.38.36}{}}
\newlabel{n3.36@cref}{{[equation][36][7]38.36}{[1][139][]139}}
\newlabel{n3.37}{{38.37}{139}{The \attrfetchho case}{equation.38.37}{}}
\newlabel{n3.37@cref}{{[equation][37][7]38.37}{[1][139][]139}}
\newlabel{lem-ainA-rec}{{39}{140}{}{theorem.39}{}}
\newlabel{lem-ainA-rec@cref}{{[lemma][39][]39}{[1][140][]140}}
\newlabel{n4.4}{{39.4}{140}{$e$ does not reference $a$}{equation.39.4}{}}
\newlabel{n4.4@cref}{{[equation][4][7]39.4}{[1][140][]140}}
\newlabel{n4.5}{{39.5}{140}{$e$ does not reference $a$}{equation.39.5}{}}
\newlabel{n4.5@cref}{{[equation][5][7]39.5}{[1][140][]140}}
\newlabel{n4.6}{{39.6}{140}{$e$ does not reference $a$}{equation.39.6}{}}
\newlabel{n4.6@cref}{{[equation][6][7]39.6}{[1][140][]140}}
\newlabel{n4.7}{{39.7}{140}{$e$ does not reference $a$}{equation.39.7}{}}
\newlabel{n4.7@cref}{{[equation][7][7]39.7}{[1][140][]140}}
\newlabel{n4.8}{{39.8}{140}{$e$ does not reference $a$}{equation.39.8}{}}
\newlabel{n4.8@cref}{{[equation][8][7]39.8}{[1][140][]140}}
\newlabel{n4.9}{{39.9}{140}{$e$ does not reference $a$}{equation.39.9}{}}
\newlabel{n4.9@cref}{{[equation][9][7]39.9}{[1][140][]140}}
\newlabel{n4.13}{{39.13}{141}{$e$ references $a$}{equation.39.13}{}}
\newlabel{n4.13@cref}{{[equation][13][7]39.13}{[1][140][]141}}
\@writefile{toc}{\contentsline {section}{\numberline {7.4}Featherweight Java}{141}{section.7.4}\protected@file@percent }
\newlabel{sect-ex-mainproofs}{{7.4}{141}{Featherweight Java}{section.7.4}{}}
\newlabel{sect-ex-mainproofs@cref}{{[section][4][7]7.4}{[1][141][]141}}
\@writefile{toc}{\contentsline {subsection}{\numberline {7.4.1}Attributes in \ensuremath  {A_{k\equiv j}}\xspace  }{142}{subsection.7.4.1}\protected@file@percent }
\newlabel{lem-objectClassDecl}{{40}{142}{\a {objectClassDecl} for Program nodes}{theorem.40}{}}
\newlabel{lem-objectClassDecl@cref}{{[lemma][40][]40}{[1][142][]142}}
\newlabel{lem-matchname}{{41}{143}{\a {\_matchName} with different nodes}{theorem.41}{}}
\newlabel{lem-matchname@cref}{{[lemma][41][]41}{[1][143][]143}}
\newlabel{thm-decl-lookuptype}{{42}{143}{\a {decl} and \a {lookupType}}{theorem.42}{}}
\newlabel{thm-decl-lookuptype@cref}{{[theorem][42][]42}{[1][143][]143}}
\newlabel{lem-decl-typeuse-typeuse-decl}{{43}{144}{\a {decl} and \a {typeUse}}{theorem.43}{}}
\newlabel{lem-decl-typeuse-typeuse-decl@cref}{{[lemma][43][]43}{[1][144][]144}}
\newlabel{thm-superclass}{{44}{145}{\a {superClass} is in \Asamekj }{theorem.44}{}}
\newlabel{thm-superclass@cref}{{[theorem][44][]44}{[1][145][]145}}
\newlabel{thm-fields}{{45}{147}{\a {fields} is in \Asamekj }{theorem.45}{}}
\newlabel{thm-fields@cref}{{[theorem][45][]45}{[1][147][]147}}
\newlabel{thm-subtypeof}{{46}{147}{\a {subTypeOf} is in \Asamekj }{theorem.46}{}}
\newlabel{thm-subtypeof@cref}{{[theorem][46][]46}{[1][147][]147}}
\newlabel{lem-findfp-cons-concat}{{47}{148}{\a {findFP} with \it {cons} and \it {concat}}{theorem.47}{}}
\newlabel{lem-findfp-cons-concat@cref}{{[lemma][47][]47}{[1][148][]148}}
\newlabel{lem-findfp-concat}{{48}{150}{}{theorem.48}{}}
\newlabel{lem-findfp-concat@cref}{{[lemma][48][]48}{[1][149][]150}}
\newlabel{def-superclass-chain}{{7.4.1}{152}{The ``superclass chain'' and ``superclass induction''}{definition.7.4.1}{}}
\newlabel{def-superclass-chain@cref}{{[definition][1][7,4]7.4.1}{[1][152][]152}}
\newlabel{lem-remotelookup-findfp}{{49}{152}{}{theorem.49}{}}
\newlabel{lem-remotelookup-findfp@cref}{{[lemma][49][]49}{[1][152][]152}}
\newlabel{lem-fptype-type}{{50}{155}{}{theorem.50}{}}
\newlabel{lem-fptype-type@cref}{{[lemma][50][]50}{[1][155][]155}}
\@writefile{toc}{\contentsline {subsection}{\numberline {7.4.2}The \text  {\fontfamily  {lcmss}\selectfont  type} Attribute}{156}{subsection.7.4.2}\protected@file@percent }
\@writefile{toc}{\contentsline {subsubsection}{The EFld Case}{156}{section*.50}\protected@file@percent }
\newlabel{thm-type-EFld}{{51}{156}{}{theorem.51}{}}
\newlabel{thm-type-EFld@cref}{{[theorem][51][]51}{[1][156][]156}}
\@writefile{toc}{\contentsline {subsubsection}{The EIdn Case}{158}{section*.51}\protected@file@percent }
\newlabel{lem-prepend-concat}{{52}{158}{}{theorem.52}{}}
\newlabel{lem-prepend-concat@cref}{{[lemma][52][]52}{[1][157][]158}}
\newlabel{thm-type-EIdn}{{53}{158}{}{theorem.53}{}}
\newlabel{thm-type-EIdn@cref}{{[theorem][53][]53}{[1][158][]158}}
\@writefile{toc}{\contentsline {subsubsection}{The ECall Case}{163}{section*.52}\protected@file@percent }
\newlabel{lem-method-lookupMethod}{{54}{163}{}{theorem.54}{}}
\newlabel{lem-method-lookupMethod@cref}{{[lemma][54][]54}{[1][163][]163}}
\newlabel{lem-methodDecl-decl}{{55}{164}{}{theorem.55}{}}
\newlabel{lem-methodDecl-decl@cref}{{[lemma][55][]55}{[1][164][]164}}
\newlabel{lem-exprsMatchFPs}{{56}{165}{}{theorem.56}{}}
\newlabel{lem-exprsMatchFPs@cref}{{[lemma][56][]56}{[1][165][]165}}
\newlabel{thm-type-ECall}{{57}{166}{}{theorem.57}{}}
\newlabel{thm-type-ECall@cref}{{[theorem][57][]57}{[1][166][]166}}
\@writefile{toc}{\contentsline {subsubsection}{The ENew Case}{169}{section*.53}\protected@file@percent }
\newlabel{thm-type-ENew}{{58}{169}{}{theorem.58}{}}
\newlabel{thm-type-ENew@cref}{{[theorem][58][]58}{[1][169][]169}}
\@writefile{toc}{\contentsline {subsubsection}{The ECast Case}{171}{section*.54}\protected@file@percent }
\newlabel{thm-type-ECast}{{59}{171}{}{theorem.59}{}}
\newlabel{thm-type-ECast@cref}{{[theorem][59][]59}{[1][171][]171}}
\newlabel{thm-type-FPDecl}{{60}{172}{}{theorem.60}{}}
\newlabel{thm-type-FPDecl@cref}{{[theorem][60][]60}{[1][172][]172}}
\@writefile{toc}{\contentsline {subsubsection}{The \text  {\fontfamily  {lcmss}\selectfont  type} Attribute Theorem}{173}{section*.55}\protected@file@percent }
\newlabel{thm-type-in-asame}{{61}{173}{$\a {type} \in \Asamekj $}{theorem.61}{}}
\newlabel{thm-type-in-asame@cref}{{[theorem][61][]61}{[1][173][]173}}
\@writefile{toc}{\contentsline {section}{\numberline {7.5}Quantitative Analysis}{174}{section.7.5}\protected@file@percent }
\newlabel{sect-ex-quant}{{7.5}{174}{Quantitative Analysis}{section.7.5}{}}
\newlabel{sect-ex-quant@cref}{{[section][5][7]7.5}{[1][173][]174}}
\newlabel{thm-quant-fields}{{62}{174}{}{theorem.62}{}}
\newlabel{thm-quant-fields@cref}{{[theorem][62][]62}{[1][173][]174}}
\newlabel{thm-quant-env-class}{{63}{175}{}{theorem.63}{}}
\newlabel{thm-quant-env-class@cref}{{[theorem][63][]63}{[1][175][]175}}
\newlabel{thm-quant-env-methodexpr}{{64}{176}{}{theorem.64}{}}
\newlabel{thm-quant-env-methodexpr@cref}{{[theorem][64][]64}{[1][176][]176}}
\newlabel{lem-quant-matchname}{{65}{176}{}{theorem.65}{}}
\newlabel{lem-quant-matchname@cref}{{[lemma][65][]65}{[1][176][]176}}
\newlabel{lem-quant-matchname-kiama}{{66}{177}{}{theorem.66}{}}
\newlabel{lem-quant-matchname-kiama@cref}{{[lemma][66][]66}{[1][177][]177}}
\newlabel{thm-quant-remotecount}{{67}{177}{}{theorem.67}{}}
\newlabel{thm-quant-remotecount@cref}{{[theorem][67][]67}{[1][177][]177}}
\newlabel{thm-quant-typeidn-kiama}{{68}{180}{}{theorem.68}{}}
\newlabel{thm-quant-typeidn-kiama@cref}{{[theorem][68][]68}{[1][180][]180}}
\newlabel{thm-quant-typeidn-jastadd}{{69}{181}{}{theorem.69}{}}
\newlabel{thm-quant-typeidn-jastadd@cref}{{[theorem][69][]69}{[1][181][]181}}
\@writefile{toc}{\contentsline {subsection}{\numberline {7.5.1}Comparing Performance}{183}{subsection.7.5.1}\protected@file@percent }
\@setckpt{chap_example}{
\setcounter{page}{185}
\setcounter{equation}{6}
\setcounter{enumi}{8}
\setcounter{enumii}{0}
\setcounter{enumiii}{0}
\setcounter{enumiv}{0}
\setcounter{footnote}{0}
\setcounter{mpfootnote}{0}
\setcounter{part}{0}
\setcounter{chapter}{7}
\setcounter{section}{5}
\setcounter{subsection}{1}
\setcounter{subsubsection}{0}
\setcounter{paragraph}{0}
\setcounter{subparagraph}{0}
\setcounter{figure}{4}
\setcounter{table}{0}
\setcounter{NAT@ctr}{0}
\setcounter{parentequation}{0}
\setcounter{Item}{8}
\setcounter{Hfootnote}{2}
\setcounter{bookmark@seq@number}{109}
\setcounter{@@conflict}{0}
\setcounter{tcbbreakpart}{0}
\setcounter{tcblayer}{0}
\setcounter{subfigure}{0}
\setcounter{lofdepth}{1}
\setcounter{subtable}{0}
\setcounter{lotdepth}{1}
\setcounter{lstnumber}{5}
\setcounter{tmkcount}{257}
\setcounter{lcword@index}{0}
\setcounter{word@count}{0}
\setcounter{lc@words}{0}
\setcounter{dia@count}{0}
\setcounter{arg@@@index}{0}
\setcounter{theorem}{69}
\setcounter{definition}{0}
\setcounter{thmcase}{0}
\setcounter{thmsubcase}{0}
\setcounter{thmsubsubcase}{0}
\setcounter{section@level}{2}
\setcounter{lstlisting}{0}
}
