\relax 
\providecommand\hyper@newdestlabel[2]{}
\@writefile{toc}{\contentsline {chapter}{\numberline {4}Saiga Extended}{55}{chapter.4}\protected@file@percent }
\@writefile{lof}{\addvspace {10\p@ }}
\@writefile{lot}{\addvspace {10\p@ }}
\newlabel{chap-saiga-extended}{{4}{55}{Saiga Extended}{chapter.4}{}}
\newlabel{chap-saiga-extended@cref}{{[chapter][4][]4}{[1][55][]55}}
\@writefile{toc}{\contentsline {section}{\numberline {4.1}Parameterised Attributes}{55}{section.4.1}\protected@file@percent }
\newlabel{sect-param}{{4.1}{55}{Parameterised Attributes}{section.4.1}{}}
\newlabel{sect-param@cref}{{[section][1][4]4.1}{[1][55][]55}}
\@writefile{toc}{\contentsline {subsection}{\numberline {4.1.1}Expression Language}{56}{subsection.4.1.1}\protected@file@percent }
\newlabel{sect-ext-saigagrammar}{{4.1.1}{56}{Expression Language}{subsection.4.1.1}{}}
\newlabel{sect-ext-saigagrammar@cref}{{[subsection][1][4,1]4.1.1}{[1][55][]56}}
\@writefile{toc}{\contentsline {subsection}{\numberline {4.1.2}All Types}{56}{subsection.4.1.2}\protected@file@percent }
\@writefile{toc}{\contentsline {subsection}{\numberline {4.1.3}Type Rules}{56}{subsection.4.1.3}\protected@file@percent }
\newlabel{sect-typerules-param}{{4.1.3}{56}{Type Rules}{subsection.4.1.3}{}}
\newlabel{sect-typerules-param@cref}{{[subsection][3][4,1]4.1.3}{[1][56][]56}}
\@writefile{toc}{\contentsline {subsection}{\numberline {4.1.4}Semantic Rules}{57}{subsection.4.1.4}\protected@file@percent }
\newlabel{sect-ext-semantics-param}{{4.1.4}{57}{Semantic Rules}{subsection.4.1.4}{}}
\newlabel{sect-ext-semantics-param@cref}{{[subsection][4][4,1]4.1.4}{[1][56][]57}}
\@writefile{toc}{\contentsline {subsection}{\numberline {4.1.5}Name analysis Example Revisited}{57}{subsection.4.1.5}\protected@file@percent }
\newlabel{sect-ext-param-example}{{4.1.5}{57}{Name analysis Example Revisited}{subsection.4.1.5}{}}
\newlabel{sect-ext-param-example@cref}{{[subsection][5][4,1]4.1.5}{[1][57][]57}}
\@writefile{toc}{\contentsline {section}{\numberline {4.2}Attribute Caching}{59}{section.4.2}\protected@file@percent }
\newlabel{sect-caching}{{4.2}{59}{Attribute Caching}{section.4.2}{}}
\newlabel{sect-caching@cref}{{[section][2][4]4.2}{[1][59][]59}}
\@writefile{toc}{\contentsline {subsection}{\numberline {4.2.1}Expression Language}{60}{subsection.4.2.1}\protected@file@percent }
\newlabel{sect-ext-cache-saigagrammar}{{4.2.1}{60}{Expression Language}{subsection.4.2.1}{}}
\newlabel{sect-ext-cache-saigagrammar@cref}{{[subsection][1][4,2]4.2.1}{[1][60][]60}}
\@writefile{toc}{\contentsline {subsection}{\numberline {4.2.2}Type Rules}{60}{subsection.4.2.2}\protected@file@percent }
\newlabel{sect-ext-cache-typerules}{{4.2.2}{60}{Type Rules}{subsection.4.2.2}{}}
\newlabel{sect-ext-cache-typerules@cref}{{[subsection][2][4,2]4.2.2}{[1][60][]60}}
\@writefile{toc}{\contentsline {subsection}{\numberline {4.2.3}Semantic Rules}{60}{subsection.4.2.3}\protected@file@percent }
\newlabel{sect-ext-cache-semantics}{{4.2.3}{60}{Semantic Rules}{subsection.4.2.3}{}}
\newlabel{sect-ext-cache-semantics@cref}{{[subsection][3][4,2]4.2.3}{[1][60][]60}}
\@writefile{toc}{\contentsline {subsubsection}{A Changing Context Function}{61}{section*.18}\protected@file@percent }
\@writefile{toc}{\contentsline {subsubsection}{Caching Rules}{62}{section*.19}\protected@file@percent }
\@writefile{toc}{\contentsline {subsubsection}{Two Attribution Rules}{62}{section*.20}\protected@file@percent }
\@writefile{toc}{\contentsline {subsection}{\numberline {4.2.4}Caching Example}{62}{subsection.4.2.4}\protected@file@percent }
\newlabel{sect-cache-example}{{4.2.4}{62}{Caching Example}{subsection.4.2.4}{}}
\newlabel{sect-cache-example@cref}{{[subsection][4][4,2]4.2.4}{[1][62][]62}}
\@writefile{toc}{\contentsline {section}{\numberline {4.3}Discussion}{65}{section.4.3}\protected@file@percent }
\newlabel{sect-ext-discussion}{{4.3}{65}{Discussion}{section.4.3}{}}
\newlabel{sect-ext-discussion@cref}{{[section][3][4]4.3}{[1][65][]65}}
\@writefile{toc}{\contentsline {subsection}{\numberline {4.3.1}Non-Parameterised Attributes}{65}{subsection.4.3.1}\protected@file@percent }
\newlabel{sect-nonparam}{{4.3.1}{65}{Non-Parameterised Attributes}{subsection.4.3.1}{}}
\newlabel{sect-nonparam@cref}{{[subsection][1][4,3]4.3.1}{[1][65][]65}}
\@writefile{toc}{\contentsline {subsection}{\numberline {4.3.2}Attributes Returning Functions}{66}{subsection.4.3.2}\protected@file@percent }
\newlabel{sect-ext-paramasfunctions}{{4.3.2}{66}{Attributes Returning Functions}{subsection.4.3.2}{}}
\newlabel{sect-ext-paramasfunctions@cref}{{[subsection][2][4,3]4.3.2}{[1][66][]66}}
\@writefile{toc}{\contentsline {subsection}{\numberline {4.3.3}Re-Caching Values and Simplicity}{67}{subsection.4.3.3}\protected@file@percent }
\newlabel{sect-recaching}{{4.3.3}{67}{Re-Caching Values and Simplicity}{subsection.4.3.3}{}}
\newlabel{sect-recaching@cref}{{[subsection][3][4,3]4.3.3}{[1][67][]67}}
\@writefile{toc}{\contentsline {subsection}{\numberline {4.3.4}The Multistep Relation}{68}{subsection.4.3.4}\protected@file@percent }
\newlabel{sect-multistep-ext}{{4.3.4}{68}{The Multistep Relation}{subsection.4.3.4}{}}
\newlabel{sect-multistep-ext@cref}{{[subsection][4][4,3]4.3.4}{[1][68][]68}}
\@writefile{toc}{\contentsline {subsection}{\numberline {4.3.5}The Big Step Relation}{68}{subsection.4.3.5}\protected@file@percent }
\newlabel{sect-bigstep-ext}{{4.3.5}{68}{The Big Step Relation}{subsection.4.3.5}{}}
\newlabel{sect-bigstep-ext@cref}{{[subsection][5][4,3]4.3.5}{[1][68][]68}}
\@writefile{toc}{\contentsline {subsubsection}{Big Step and Cache Expressions}{69}{section*.21}\protected@file@percent }
\@writefile{toc}{\contentsline {subsection}{\numberline {4.3.6}User-Level Expressions}{69}{subsection.4.3.6}\protected@file@percent }
\newlabel{sect-ext-userlevel}{{4.3.6}{69}{User-Level Expressions}{subsection.4.3.6}{}}
\newlabel{sect-ext-userlevel@cref}{{[subsection][6][4,3]4.3.6}{[1][69][]69}}
\@writefile{toc}{\contentsline {section}{\numberline {4.4}Conclusion}{70}{section.4.4}\protected@file@percent }
\@setckpt{chap_saiga_extended}{
\setcounter{page}{71}
\setcounter{equation}{0}
\setcounter{enumi}{8}
\setcounter{enumii}{0}
\setcounter{enumiii}{0}
\setcounter{enumiv}{0}
\setcounter{footnote}{0}
\setcounter{mpfootnote}{0}
\setcounter{part}{0}
\setcounter{chapter}{4}
\setcounter{section}{4}
\setcounter{subsection}{0}
\setcounter{subsubsection}{0}
\setcounter{paragraph}{0}
\setcounter{subparagraph}{0}
\setcounter{figure}{0}
\setcounter{table}{0}
\setcounter{NAT@ctr}{0}
\setcounter{parentequation}{0}
\setcounter{Item}{8}
\setcounter{Hfootnote}{1}
\setcounter{bookmark@seq@number}{60}
\setcounter{@@conflict}{0}
\setcounter{tcbbreakpart}{0}
\setcounter{tcblayer}{0}
\setcounter{subfigure}{0}
\setcounter{lofdepth}{1}
\setcounter{subtable}{0}
\setcounter{lotdepth}{1}
\setcounter{lstnumber}{2}
\setcounter{tmkcount}{18}
\setcounter{lcword@index}{0}
\setcounter{word@count}{0}
\setcounter{lc@words}{0}
\setcounter{dia@count}{0}
\setcounter{arg@@@index}{0}
\setcounter{theorem}{0}
\setcounter{definition}{0}
\setcounter{thmcase}{0}
\setcounter{thmsubcase}{0}
\setcounter{thmsubsubcase}{0}
\setcounter{section@level}{1}
\setcounter{lstlisting}{0}
}
