\relax 
\providecommand\hyper@newdestlabel[2]{}
\bibstyle{mqthesis}
\providecommand\HyperFirstAtBeginDocument{\AtBeginDocument}
\HyperFirstAtBeginDocument{\ifx\hyper@anchor\@undefined
\global\let\oldcontentsline\contentsline
\gdef\contentsline#1#2#3#4{\oldcontentsline{#1}{#2}{#3}}
\global\let\oldnewlabel\newlabel
\gdef\newlabel#1#2{\newlabelxx{#1}#2}
\gdef\newlabelxx#1#2#3#4#5#6{\oldnewlabel{#1}{{#2}{#3}}}
\AtEndDocument{\ifx\hyper@anchor\@undefined
\let\contentsline\oldcontentsline
\let\newlabel\oldnewlabel
\fi}
\fi}
\global\let\hyper@last\relax 
\gdef\HyperFirstAtBeginDocument#1{#1}
\providecommand\HyField@AuxAddToFields[1]{}
\providecommand\HyField@AuxAddToCoFields[2]{}
\providecommand \oddpage@label [2]{}
\@writefile{toc}{\contentsline {chapter}{Abstract}{v}{chapter*.1}\protected@file@percent }
\@writefile{lof}{\addvspace {10\p@ }}
\@writefile{lot}{\addvspace {10\p@ }}
\@writefile{toc}{\contentsline {chapter}{Contents}{vii}{chapter*.2}\protected@file@percent }
\@input{chap_intro.aux}
\@input{chap_background.aux}
\@input{chap_saiga.aux}
\@input{chap_saiga_extended.aux}
\@input{chap_saiga_ho.aux}
\@input{chap_metatheoretic.aux}
\@input{chap_example.aux}
\savepointas{206-a}{pgfid401}{0pt}{0pt}
\savepicturepage{pgfid401}{167}
\pgfsyspdfmark {pgfid401}{7218128}{20644619}
\savepointas{206-b}{pgfid402}{0pt}{0pt}
\savepicturepage{pgfid402}{167}
\pgfsyspdfmark {pgfid402}{6913727}{8794402}
\savepointas{208-a}{pgfid406}{0pt}{0pt}
\savepicturepage{pgfid406}{168}
\pgfsyspdfmark {pgfid406}{4116707}{22534244}
\savepointas{208-c}{pgfid407}{0pt}{0pt}
\savepicturepage{pgfid407}{168}
\pgfsyspdfmark {pgfid407}{4421108}{19832853}
\savepointas{208-e}{pgfid408}{0pt}{0pt}
\savepicturepage{pgfid408}{168}
\pgfsyspdfmark {pgfid408}{4116707}{16046840}
\savepointas{209-a1}{pgfid415}{0pt}{0pt}
\savepicturepage{pgfid415}{169}
\pgfsyspdfmark {pgfid415}{7096586}{36793065}
\savepointas{209-b1}{pgfid416}{0pt}{0pt}
\savepicturepage{pgfid416}{169}
\pgfsyspdfmark {pgfid416}{7400987}{35304089}
\savepointas{209-c1}{pgfid417}{0pt}{0pt}
\savepicturepage{pgfid417}{169}
\pgfsyspdfmark {pgfid417}{7400987}{33815113}
\savepointas{209-a2}{pgfid418}{0pt}{0pt}
\savepicturepage{pgfid418}{169}
\pgfsyspdfmark {pgfid418}{7096586}{27764831}
\savepointas{209-b2}{pgfid419}{0pt}{0pt}
\savepicturepage{pgfid419}{169}
\pgfsyspdfmark {pgfid419}{7400987}{26275855}
\savepointas{209-c2}{pgfid420}{0pt}{0pt}
\savepicturepage{pgfid420}{169}
\pgfsyspdfmark {pgfid420}{7400987}{23639999}
\savepointas{211-a1}{pgfid423}{0pt}{0pt}
\savepicturepage{pgfid423}{170}
\pgfsyspdfmark {pgfid423}{3753254}{34085295}
\savepointas{211-a2}{pgfid424}{0pt}{0pt}
\savepicturepage{pgfid424}{170}
\pgfsyspdfmark {pgfid424}{3753254}{21088198}
\savepointas{212-a1}{pgfid433}{0pt}{0pt}
\savepicturepage{pgfid433}{170}
\pgfsyspdfmark {pgfid433}{4033760}{4909658}
\savepointas{212-b1}{pgfid434}{0pt}{0pt}
\savepicturepage{pgfid434}{171}
\pgfsyspdfmark {pgfid434}{6526379}{48588886}
\savepointas{212-c1}{pgfid435}{0pt}{0pt}
\savepicturepage{pgfid435}{171}
\pgfsyspdfmark {pgfid435}{6526379}{45887495}
\savepointas{212-d1}{pgfid436}{0pt}{0pt}
\savepicturepage{pgfid436}{171}
\pgfsyspdfmark {pgfid436}{6526379}{43133540}
\savepointas{212-a2}{pgfid437}{0pt}{0pt}
\savepicturepage{pgfid437}{171}
\pgfsyspdfmark {pgfid437}{6830780}{32430203}
\savepointas{212-b2}{pgfid438}{0pt}{0pt}
\savepicturepage{pgfid438}{171}
\pgfsyspdfmark {pgfid438}{6526379}{29728812}
\savepointas{212-c2}{pgfid439}{0pt}{0pt}
\savepicturepage{pgfid439}{171}
\pgfsyspdfmark {pgfid439}{6526379}{27027421}
\savepointas{212-d2}{pgfid440}{0pt}{0pt}
\savepicturepage{pgfid440}{171}
\pgfsyspdfmark {pgfid440}{6526379}{24273466}
\savepointas{215-1a}{pgfid445}{0pt}{0pt}
\savepicturepage{pgfid445}{172}
\pgfsyspdfmark {pgfid445}{4033760}{32096352}
\savepointas{215-2a}{pgfid446}{0pt}{0pt}
\savepicturepage{pgfid446}{172}
\pgfsyspdfmark {pgfid446}{3729359}{30607376}
\savepointas{215-1b}{pgfid447}{0pt}{0pt}
\savepicturepage{pgfid447}{172}
\pgfsyspdfmark {pgfid447}{4033760}{23410214}
\savepointas{215-2b}{pgfid448}{0pt}{0pt}
\savepicturepage{pgfid448}{172}
\pgfsyspdfmark {pgfid448}{3729359}{21921238}
\@input{chap_mechanisation.aux}
\@input{chap_conclusion.aux}
\@writefile{toc}{\contentsline {chapter}{\numberline {A}Appendix}{199}{appendix.A}\protected@file@percent }
\@writefile{lof}{\addvspace {10\p@ }}
\@writefile{lot}{\addvspace {10\p@ }}
\@writefile{toc}{\contentsline {section}{\numberline {A.1}Name Analysis Example}{199}{section.A.1}\protected@file@percent }
\newlabel{app-ex-asts}{{A.1}{199}{Name Analysis Example}{section.A.1}{}}
\newlabel{app-ex-asts@cref}{{[subappendix][1][2147483647,1]A.1}{[1][199][]199}}
\@writefile{toc}{\contentsline {subsection}{\numberline {A.1.1}Kiama's Abstract Grammar for Featherweight Java}{199}{subsection.A.1.1}\protected@file@percent }
\newlabel{app-fig-ex-kiamatree}{{A.1.1}{199}{Kiama's Abstract Grammar for Featherweight Java}{subsection.A.1.1}{}}
\newlabel{app-fig-ex-kiamatree@cref}{{[subsubappendix][1][2147483647,1,1]A.1.1}{[1][199][]199}}
\@writefile{toc}{\contentsline {subsection}{\numberline {A.1.2}JastAdd's Abstract Grammar for Featherweight Java}{200}{subsection.A.1.2}\protected@file@percent }
\newlabel{app-fig-ex-jastaddtree}{{A.1.2}{200}{JastAdd's Abstract Grammar for Featherweight Java}{subsection.A.1.2}{}}
\newlabel{app-fig-ex-jastaddtree@cref}{{[subsubappendix][2][2147483647,1,1]A.1.2}{[1][200][]200}}
\@writefile{toc}{\contentsline {section}{\numberline {A.2}Featherweight Java Code in Kiama and JastAdd}{201}{section.A.2}\protected@file@percent }
\@writefile{toc}{\contentsline {subsection}{\numberline {A.2.1}Kiama}{201}{subsection.A.2.1}\protected@file@percent }
\newlabel{app-ex-kiamacode}{{A.2.1}{201}{Kiama}{subsection.A.2.1}{}}
\newlabel{app-ex-kiamacode@cref}{{[subsubappendix][1][2147483647,1,2]A.2.1}{[1][201][]201}}
\@writefile{toc}{\contentsline {subsection}{\numberline {A.2.2}JastAdd}{206}{subsection.A.2.2}\protected@file@percent }
\newlabel{app-ex-jastaddcode}{{A.2.2}{206}{JastAdd}{subsection.A.2.2}{}}
\newlabel{app-ex-jastaddcode@cref}{{[subsubappendix][2][2147483647,1,2]A.2.2}{[1][206][]206}}
\bibdata{references}
\bibcite{languageworkbenches-stateoftheart2013}{{1}{}{{}}{{}}}
\bibcite{knuth68}{{2}{}{{}}{{}}}
\bibcite{history_transduction}{{3}{}{{}}{{}}}
\bibcite{genesis}{{4}{}{{}}{{}}}
\bibcite{ags88}{{5}{}{{}}{{}}}
\bibcite{lewis73puresynth}{{6}{}{{}}{{}}}
\bibcite{knuth68correction}{{7}{}{{}}{{}}}
\bibcite{kennedy1976automatic}{{8}{}{{}}{{}}}
\bibcite{courcelle1982SNCAGs}{{9}{}{{}}{{}}}
\bibcite{jourdan1984sncdemand}{{10}{}{{}}{{}}}
\bibcite{mayoh1981benign}{{11}{}{{}}{{}}}
\bibcite{lncs90attributeapplications}{{12}{}{{}}{{}}}
\bibcite{jourdan84optimalrecursive}{{13}{}{{}}{{}}}
\@writefile{toc}{\contentsline {chapter}{References}{211}{appendix*.56}\protected@file@percent }
\bibcite{kastens80}{{14}{}{{}}{{}}}
\bibcite{lncs91attributesystems}{{15}{}{{}}{{}}}
\bibcite{eng82lordered}{{16}{}{{}}{{}}}
\bibcite{kastens78orderedwrong}{{17}{}{{}}{{}}}
\bibcite{file1987dnc}{{18}{}{{}}{{}}}
\bibcite{barbar1982partialorder}{{19}{}{{}}{{}}}
\bibcite{kiama}{{20}{}{{}}{{}}}
\bibcite{boyland96conditional}{{21}{}{{}}{{}}}
\bibcite{madsen80dags}{{22}{}{{}}{{}}}
\bibcite{jalili85incremental}{{23}{}{{}}{{}}}
\bibcite{saraiva99lrc}{{24}{}{{}}{{}}}
\bibcite{jastadd01}{{25}{}{{}}{{}}}
\bibcite{jastadd03}{{26}{}{{}}{{}}}
\bibcite{jastadd}{{27}{}{{}}{{}}}
\bibcite{baars03uuag}{{28}{}{{}}{{}}}
\bibcite{silver}{{29}{}{{}}{{}}}
\bibcite{paakki95survey}{{30}{}{{}}{{}}}
\bibcite{jastaddonline}{{31}{}{{}}{{}}}
\bibcite{scalabook}{{32}{}{{}}{{}}}
\bibcite{poetzsch93distant}{{33}{}{{}}{{}}}
\bibcite{boyland96remote}{{34}{}{{}}{{}}}
\bibcite{hedin00reference}{{35}{}{{}}{{}}}
\bibcite{vogt89hoags}{{36}{}{{}}{{}}}
\bibcite{swierstra91hoags}{{37}{}{{}}{{}}}
\bibcite{vanwyk02forwarding}{{38}{}{{}}{{}}}
\bibcite{farrow86circular}{{39}{}{{}}{{}}}
\bibcite{jones90circular}{{40}{}{{}}{{}}}
\bibcite{magnusson07circular}{{41}{}{{}}{{}}}
\bibcite{demoor99aspect}{{42}{}{{}}{{}}}
\bibcite{demoor00firstclass}{{43}{}{{}}{{}}}
\bibcite{johnsson87functional}{{44}{}{{}}{{}}}
\bibcite{backhouse02functional}{{45}{}{{}}{{}}}
\bibcite{schafer09agcoq}{{46}{}{{}}{{}}}
\bibcite{martins16zippers}{{47}{}{{}}{{}}}
\bibcite{buckley17saiga}{{48}{}{{}}{{}}}
\bibcite{igarashi01fwjgj}{{49}{}{{}}{{}}}
\bibcite{sloane16rats}{{50}{}{{}}{{}}}
\bibcite{barras97coq}{{51}{}{{}}{{}}}
\bibcite{de15lean}{{52}{}{{}}{{}}}
\providecommand\NAT@force@numbers{}\NAT@force@numbers
