\relax 
\providecommand\hyper@newdestlabel[2]{}
\@writefile{toc}{\contentsline {chapter}{\numberline {2}Background}{7}{chapter.2}}
\@writefile{lof}{\addvspace {10\p@ }}
\@writefile{lot}{\addvspace {10\p@ }}
\newlabel{chap-background}{{2}{7}{Background}{chapter.2}{}}
\newlabel{chap-background@cref}{{[chapter][2][]2}{7}}
\citation{history_transduction}
\citation{genesis}
\citation{knuth68}
\citation{ags88}
\@writefile{toc}{\contentsline {section}{\numberline {2.1}Early Attribute Grammars}{8}{section.2.1}}
\citation{knuth68}
\citation{ags88,lewis73puresynth}
\citation{knuth68}
\citation{knuth68}
\citation{knuth68correction}
\citation{kennedy1976automatic}
\citation{courcelle1982SNCAGs}
\citation{ags88,jourdan1984sncdemand}
\citation{mayoh1981benign}
\@writefile{toc}{\contentsline {subsection}{\numberline {2.1.1}Statically Scheduled Attribute Grammar Categories}{10}{subsection.2.1.1}}
\@writefile{toc}{\contentsline {subsubsection}{Purely Synthesised Attribute Grammars}{10}{section*.3}}
\@writefile{toc}{\contentsline {subsubsection}{Non-Circular Attribute Grammars}{10}{section*.4}}
\@writefile{toc}{\contentsline {subsubsection}{Strongly (or Absolutely) Non-Circular Attribute Grammars}{10}{section*.5}}
\citation{courcelle1982SNCAGs}
\citation{genesis,lncs90attributeapplications}
\citation{courcelle1982SNCAGs,jourdan1984sncdemand}
\citation{courcelle1982SNCAGs}
\citation{jourdan1984sncdemand}
\citation{jourdan84optimalrecursive}
\citation{kastens80}
\citation{lncs91attributesystems}
\citation{eng82lordered}
\citation{kastens78orderedwrong}
\citation{file1987dnc}
\citation{barbar1982partialorder}
\@writefile{toc}{\contentsline {subsubsection}{Ordered Attribute Grammars}{11}{section*.6}}
\citation{kiama}
\citation{jourdan84optimalrecursive}
\citation{boyland96conditional}
\citation{boyland96conditional}
\citation{madsen80dags,jalili83linear}
\citation{saraiva99lrc}
\citation{jastadd01,jastadd03,jastadd}
\citation{baars03uuag}
\citation{silver}
\citation{kiama}
\citation{paakki95survey}
\@writefile{toc}{\contentsline {subsubsection}{Other Categories}{12}{section*.7}}
\@writefile{toc}{\contentsline {section}{\numberline {2.2}Dynamically Scheduled Attribute Grammars}{12}{section.2.2}}
\@writefile{toc}{\contentsline {subsection}{\numberline {2.2.1}Attribute Grammar Notations}{13}{subsection.2.2.1}}
\newlabel{sect-bg-notations}{{2.2.1}{13}{Attribute Grammar Notations}{subsection.2.2.1}{}}
\newlabel{sect-bg-notations@cref}{{[subsection][1][2,2]2.2.1}{13}}
\@writefile{toc}{\contentsline {subsubsection}{Silver}{14}{section*.8}}
\newlabel{sect-bg-silver}{{2.2.1}{14}{Silver}{section*.8}{}}
\newlabel{sect-bg-silver@cref}{{[subsection][1][2,2]2.2.1}{14}}
\citation{jastaddonline}
\@writefile{toc}{\contentsline {subsubsection}{JastAdd}{15}{section*.9}}
\newlabel{sect-bg-jastadd}{{2.2.1}{15}{JastAdd}{section*.9}{}}
\newlabel{sect-bg-jastadd@cref}{{[subsection][1][2,2]2.2.1}{15}}
\@writefile{lof}{\contentsline {figure}{\numberline {2.1}{\ignorespaces The \text  {\fontfamily  {lcmss}\selectfont  globmin} program specified in Silver.}}{16}{figure.2.1}}
\newlabel{fig-silverglobmin}{{2.1}{16}{The \a {globmin} program specified in Silver}{figure.2.1}{}}
\newlabel{fig-silverglobmin@cref}{{[figure][1][2]2.1}{16}}
\@writefile{lof}{\contentsline {figure}{\numberline {2.2}{\ignorespaces The \text  {\fontfamily  {lcmss}\selectfont  globmin} program specified in JastAdd.}}{16}{figure.2.2}}
\newlabel{fig-jastaddglobmin}{{2.2}{16}{The \a {globmin} program specified in JastAdd}{figure.2.2}{}}
\newlabel{fig-jastaddglobmin@cref}{{[figure][2][2]2.2}{16}}
\citation{scalabook}
\@writefile{toc}{\contentsline {subsubsection}{Kiama}{17}{section*.10}}
\newlabel{sect-bg-kiama}{{2.2.1}{17}{Kiama}{section*.10}{}}
\newlabel{sect-bg-kiama@cref}{{[subsection][1][2,2]2.2.1}{17}}
\@writefile{lof}{\contentsline {figure}{\numberline {2.3}{\ignorespaces The \text  {\fontfamily  {lcmss}\selectfont  globmin} attribute program specified in Kiama.}}{18}{figure.2.3}}
\newlabel{fig-kiamaglobmin}{{2.3}{18}{The \a {globmin} attribute program specified in Kiama}{figure.2.3}{}}
\newlabel{fig-kiamaglobmin@cref}{{[figure][3][2]2.3}{18}}
\citation{poetzsch93distant}
\citation{boyland96remote}
\citation{hedin00reference}
\@writefile{toc}{\contentsline {section}{\numberline {2.3}Attribute Grammar Extensions}{19}{section.2.3}}
\newlabel{sect-bg-extensions}{{2.3}{19}{Attribute Grammar Extensions}{section.2.3}{}}
\newlabel{sect-bg-extensions@cref}{{[section][3][2]2.3}{19}}
\@writefile{toc}{\contentsline {subsection}{\numberline {2.3.1}Reference Attribute Grammars}{19}{subsection.2.3.1}}
\@writefile{lof}{\contentsline {figure}{\numberline {2.4}{\ignorespaces The \text  {\fontfamily  {lcmss}\selectfont  refmin} attribute program specified in Silver}}{21}{figure.2.4}}
\newlabel{fig-silverrefmin}{{2.4}{21}{The \a {refmin} attribute program specified in Silver}{figure.2.4}{}}
\newlabel{fig-silverrefmin@cref}{{[figure][4][2]2.4}{21}}
\@writefile{lof}{\contentsline {figure}{\numberline {2.5}{\ignorespaces The \text  {\fontfamily  {lcmss}\selectfont  refmin} attribute program specified in Kiama.}}{21}{figure.2.5}}
\newlabel{fig-kiamarefmin}{{2.5}{21}{The \a {refmin} attribute program specified in Kiama}{figure.2.5}{}}
\newlabel{fig-kiamarefmin@cref}{{[figure][5][2]2.5}{21}}
\citation{hedin00reference}
\@writefile{lof}{\contentsline {figure}{\numberline {2.6}{\ignorespaces The \text  {\fontfamily  {lcmss}\selectfont  refmin} attribute program specified in JastAdd.}}{22}{figure.2.6}}
\newlabel{fig-jastaddrefmin}{{2.6}{22}{The \a {refmin} attribute program specified in JastAdd}{figure.2.6}{}}
\newlabel{fig-jastaddrefmin@cref}{{[figure][6][2]2.6}{22}}
\@writefile{toc}{\contentsline {subsection}{\numberline {2.3.2}Parameterised Attribute Grammars}{22}{subsection.2.3.2}}
\newlabel{sect-bg-parameterised}{{2.3.2}{22}{Parameterised Attribute Grammars}{subsection.2.3.2}{}}
\newlabel{sect-bg-parameterised@cref}{{[subsection][2][2,3]2.3.2}{22}}
\@writefile{lof}{\contentsline {figure}{\numberline {2.7}{\ignorespaces The \text  {\fontfamily  {lcmss}\selectfont  countless} attribute specified in JastAdd.}}{23}{figure.2.7}}
\newlabel{fig-jastaddcountless}{{2.7}{23}{The \a {countless} attribute specified in JastAdd}{figure.2.7}{}}
\newlabel{fig-jastaddcountless@cref}{{[figure][7][2]2.7}{23}}
\@writefile{lof}{\contentsline {figure}{\numberline {2.8}{\ignorespaces The \text  {\fontfamily  {lcmss}\selectfont  countless} attribute implemented in Kiama.}}{23}{figure.2.8}}
\newlabel{fig-kiamacountless}{{2.8}{23}{The \a {countless} attribute implemented in Kiama}{figure.2.8}{}}
\newlabel{fig-kiamacountless@cref}{{[figure][8][2]2.8}{23}}
\@writefile{lof}{\contentsline {figure}{\numberline {2.9}{\ignorespaces The \text  {\fontfamily  {lcmss}\selectfont  countless} attribute specified in JastAdd, with debug printing.}}{23}{figure.2.9}}
\newlabel{fig-jastaddcountlesscached}{{2.9}{23}{The \a {countless} attribute specified in JastAdd, with debug printing}{figure.2.9}{}}
\newlabel{fig-jastaddcountlesscached@cref}{{[figure][9][2]2.9}{23}}
\@writefile{lof}{\contentsline {figure}{\numberline {2.10}{\ignorespaces The output of running the JastAdd implementation of \text  {\fontfamily  {lcmss}\selectfont  countless} with debug printing, on the tree parsed from \texttt  {9 + 7 + 4 + 3 + 99}.}}{23}{figure.2.10}}
\newlabel{fig-jastaddcountlessoutput}{{2.10}{23}{The output of running the JastAdd implementation of \a {countless} with debug printing, on the tree parsed from \tt {9 + 7 + 4 + 3 + 99}}{figure.2.10}{}}
\newlabel{fig-jastaddcountlessoutput@cref}{{[figure][10][2]2.10}{23}}
\@writefile{toc}{\contentsline {subsection}{\numberline {2.3.3}Attribute Caching}{24}{subsection.2.3.3}}
\newlabel{sect-bg-caching}{{2.3.3}{24}{Attribute Caching}{subsection.2.3.3}{}}
\newlabel{sect-bg-caching@cref}{{[subsection][3][2,3]2.3.3}{24}}
\citation{jourdan84optimalrecursive}
\citation{vogt89hoags,swierstra91hoags}
\@writefile{lof}{\contentsline {figure}{\numberline {2.11}{\ignorespaces The \text  {\fontfamily  {lcmss}\selectfont  repmin} attribute implemented in Kiama, assuming \text  {\fontfamily  {lcmss}\selectfont  globmin} is already implemented.}}{26}{figure.2.11}}
\newlabel{fig-kiamarepmin}{{2.11}{26}{The \a {repmin} attribute implemented in Kiama, assuming \a {globmin} is already implemented}{figure.2.11}{}}
\newlabel{fig-kiamarepmin@cref}{{[figure][11][2]2.11}{26}}
\@writefile{lof}{\contentsline {figure}{\numberline {2.12}{\ignorespaces The \text  {\fontfamily  {lcmss}\selectfont  repmin} attribute implemented in JastAdd, assuming \text  {\fontfamily  {lcmss}\selectfont  globmin} is already implemented.}}{26}{figure.2.12}}
\newlabel{fig-jastaddrepmin}{{2.12}{26}{The \a {repmin} attribute implemented in JastAdd, assuming \a {globmin} is already implemented}{figure.2.12}{}}
\newlabel{fig-jastaddrepmin@cref}{{[figure][12][2]2.12}{26}}
\@writefile{lof}{\contentsline {figure}{\numberline {2.13}{\ignorespaces The \text  {\fontfamily  {lcmss}\selectfont  repmin} attribute implemented in Silver, assuming \text  {\fontfamily  {lcmss}\selectfont  globmin} is already implemented.}}{26}{figure.2.13}}
\newlabel{fig-silverrepmin}{{2.13}{26}{The \a {repmin} attribute implemented in Silver, assuming \a {globmin} is already implemented}{figure.2.13}{}}
\newlabel{fig-silverrepmin@cref}{{[figure][13][2]2.13}{26}}
\citation{vogt89hoags}
\@writefile{toc}{\contentsline {subsection}{\numberline {2.3.4}Higher Order Attribute Grammars}{27}{subsection.2.3.4}}
\newlabel{sect-bg-higherorder}{{2.3.4}{27}{Higher Order Attribute Grammars}{subsection.2.3.4}{}}
\newlabel{sect-bg-higherorder@cref}{{[subsection][4][2,3]2.3.4}{27}}
\@writefile{toc}{\contentsline {subsubsection}{Higher Order Nodes in the Existing Tree}{28}{section*.11}}
\citation{vanwyk02forwarding}
\@writefile{toc}{\contentsline {subsection}{\numberline {2.3.5}Attribute Forwarding}{29}{subsection.2.3.5}}
\newlabel{sect-bg-forwarding}{{2.3.5}{29}{Attribute Forwarding}{subsection.2.3.5}{}}
\newlabel{sect-bg-forwarding@cref}{{[subsection][5][2,3]2.3.5}{29}}
\citation{farrow86circular,jones90circular}
\citation{magnusson07circular}
\@writefile{lof}{\contentsline {figure}{\numberline {2.14}{\ignorespaces Forwarding a \textit  {for} production, implemented in Silver.}}{31}{figure.2.14}}
\newlabel{fig-silverforwarding}{{2.14}{31}{Forwarding a \it {for} production, implemented in Silver}{figure.2.14}{}}
\newlabel{fig-silverforwarding@cref}{{[figure][14][2]2.14}{31}}
\@writefile{toc}{\contentsline {subsection}{\numberline {2.3.6}Circular Attribute Grammars}{31}{subsection.2.3.6}}
\citation{boyland96remote}
\@writefile{lof}{\contentsline {figure}{\numberline {2.15}{\ignorespaces A simple set of circular attributes defined in JastAdd.}}{32}{figure.2.15}}
\newlabel{fig-jastaddcircular}{{2.15}{32}{A simple set of circular attributes defined in JastAdd}{figure.2.15}{}}
\newlabel{fig-jastaddcircular@cref}{{[figure][15][2]2.15}{32}}
\@writefile{lof}{\contentsline {figure}{\numberline {2.16}{\ignorespaces A simple set of circular attributes defined in Kiama.}}{32}{figure.2.16}}
\newlabel{fig-kiamacircular}{{2.16}{32}{A simple set of circular attributes defined in Kiama}{figure.2.16}{}}
\newlabel{fig-kiamacircular@cref}{{[figure][16][2]2.16}{32}}
\@writefile{toc}{\contentsline {subsection}{\numberline {2.3.7}Collection attributes}{32}{subsection.2.3.7}}
\@writefile{lof}{\contentsline {figure}{\numberline {2.17}{\ignorespaces A simple collection attribute defined in JastAdd.}}{33}{figure.2.17}}
\newlabel{fig-jastaddcollection}{{2.17}{33}{A simple collection attribute defined in JastAdd}{figure.2.17}{}}
\newlabel{fig-jastaddcollection@cref}{{[figure][17][2]2.17}{33}}
\@writefile{lof}{\contentsline {figure}{\numberline {2.18}{\ignorespaces A simple collection attribute defined in Kiama.}}{33}{figure.2.18}}
\newlabel{fig-kiamacollection}{{2.18}{33}{A simple collection attribute defined in Kiama}{figure.2.18}{}}
\newlabel{fig-kiamacollection@cref}{{[figure][18][2]2.18}{33}}
\@writefile{lof}{\contentsline {figure}{\numberline {2.19}{\ignorespaces A simple collection attribute defined in Silver.}}{33}{figure.2.19}}
\newlabel{fig-silvercollection}{{2.19}{33}{A simple collection attribute defined in Silver}{figure.2.19}{}}
\newlabel{fig-silvercollection@cref}{{[figure][19][2]2.19}{33}}
\citation{demoor99aspect,demoor00firstclass}
\citation{johnsson87functional,jourdan84optimalrecursive}
\citation{backhouse02functional}
\@writefile{toc}{\contentsline {section}{\numberline {2.4}Previous Attempts}{35}{section.2.4}}
\newlabel{sect-bg-previouswork}{{2.4}{35}{Previous Attempts}{section.2.4}{}}
\newlabel{sect-bg-previouswork@cref}{{[section][4][2]2.4}{35}}
\citation{schafer09agcoq}
\citation{martins16zippers}
\citation{buckley17saiga}
\@setckpt{chap_background}{
\setcounter{page}{37}
\setcounter{equation}{0}
\setcounter{enumi}{8}
\setcounter{enumii}{0}
\setcounter{enumiii}{0}
\setcounter{enumiv}{0}
\setcounter{footnote}{2}
\setcounter{mpfootnote}{0}
\setcounter{part}{0}
\setcounter{chapter}{2}
\setcounter{section}{4}
\setcounter{subsection}{0}
\setcounter{subsubsection}{0}
\setcounter{paragraph}{0}
\setcounter{subparagraph}{0}
\setcounter{figure}{19}
\setcounter{table}{0}
\setcounter{NAT@ctr}{0}
\setcounter{parentequation}{0}
\setcounter{Item}{8}
\setcounter{Hfootnote}{3}
\setcounter{bookmark@seq@number}{19}
\setcounter{@@conflict}{0}
\setcounter{tcbbreakpart}{0}
\setcounter{subfigure}{0}
\setcounter{lofdepth}{1}
\setcounter{subtable}{0}
\setcounter{lotdepth}{1}
\setcounter{lstnumber}{24}
\setcounter{tmkcount}{0}
\setcounter{lcword@index}{0}
\setcounter{word@count}{0}
\setcounter{lc@words}{0}
\setcounter{dia@count}{0}
\setcounter{arg@@@index}{0}
\setcounter{theorem}{0}
\setcounter{definition}{0}
\setcounter{thmcase}{0}
\setcounter{thmsubcase}{0}
\setcounter{thmsubsubcase}{0}
\setcounter{section@level}{1}
\setcounter{lstlisting}{0}
}
