\relax 
\providecommand\hyper@newdestlabel[2]{}
\citation{igarashi01fwjgj}
\citation{igarashi01fwjgj}
\@writefile{toc}{\contentsline {chapter}{\numberline {7}Example}{159}{chapter.7}}
\@writefile{lof}{\addvspace {10\p@ }}
\@writefile{lot}{\addvspace {10\p@ }}
\newlabel{chap-example}{{7}{159}{Example}{chapter.7}{}}
\newlabel{chap-example@cref}{{[chapter][7][]7}{159}}
\citation{sloane16rats}
\citation{igarashi01fwjgj}
\@writefile{toc}{\contentsline {section}{\numberline {7.1}The Abstract Grammar}{160}{section.7.1}}
\newlabel{sect-ex-abstract}{{7.1}{160}{The Abstract Grammar}{section.7.1}{}}
\newlabel{sect-ex-abstract@cref}{{[section][1][7]7.1}{160}}
\@writefile{lof}{\contentsline {figure}{\numberline {7.1}{\ignorespaces A sample of the abstract grammar used by the Kiama implementation.}}{161}{figure.7.1}}
\newlabel{fig-ex-kiamatree}{{7.1}{161}{A sample of the abstract grammar used by the Kiama implementation}{figure.7.1}{}}
\newlabel{fig-ex-kiamatree@cref}{{[figure][1][7]7.1}{161}}
\@writefile{lof}{\contentsline {figure}{\numberline {7.2}{\ignorespaces A sample of the abstract grammar used by the JastAdd implementation.}}{161}{figure.7.2}}
\newlabel{fig-ex-jastaddtree}{{7.2}{161}{A sample of the abstract grammar used by the JastAdd implementation}{figure.7.2}{}}
\newlabel{fig-ex-jastaddtree@cref}{{[figure][2][7]7.2}{161}}
\@writefile{lof}{\contentsline {figure}{\numberline {7.3}{\ignorespaces The abstract syntax tree used in this example.}}{162}{figure.7.3}}
\newlabel{sect-name-abstractgrammar}{{7.3}{162}{The abstract syntax tree used in this example}{figure.7.3}{}}
\newlabel{sect-name-abstractgrammar@cref}{{[figure][3][7]7.3}{162}}
\newlabel{fig-ex-ast}{{7.3}{162}{The abstract syntax tree used in this example}{figure.7.3}{}}
\newlabel{fig-ex-ast@cref}{{[figure][3][7]7.3}{162}}
\@writefile{lof}{\contentsline {figure}{\numberline {7.4}{\ignorespaces An example tree that matches the abstract syntax described in \cref  {fig-ex-ast}.}}{163}{figure.7.4}}
\newlabel{fig-ex-treeexample}{{7.4}{163}{An example tree that matches the abstract syntax described in \cref {fig-ex-ast}}{figure.7.4}{}}
\newlabel{fig-ex-treeexample@cref}{{[figure][4][7]7.4}{163}}
\@writefile{toc}{\contentsline {section}{\numberline {7.2}The Attributes}{163}{section.7.2}}
\newlabel{sect-ex-attributes}{{7.2}{163}{The Attributes}{section.7.2}{}}
\newlabel{sect-ex-attributes@cref}{{[section][2][7]7.2}{163}}
\@writefile{toc}{\contentsline {subsection}{\numberline {7.2.1}The Kiama Implementation}{163}{subsection.7.2.1}}
\newlabel{sect-name-kiama}{{7.2.1}{163}{The Kiama Implementation}{subsection.7.2.1}{}}
\newlabel{sect-name-kiama@cref}{{[subsection][1][7,2]7.2.1}{163}}
\@writefile{toc}{\contentsline {subsubsection}{\text  {\fontfamily  {lcmss}\selectfont  env}}{164}{section*.24}}
\newlabel{name-kiama-env}{{7.2.1}{164}{\a {env}}{section*.24}{}}
\newlabel{name-kiama-env@cref}{{[subsection][1][7,2]7.2.1}{164}}
\@writefile{toc}{\contentsline {subsubsection}{\text  {\fontfamily  {lcmss}\selectfont  decl}}{165}{section*.25}}
\newlabel{name-kiama-decl}{{7.2.1}{165}{\a {decl}}{section*.25}{}}
\newlabel{name-kiama-decl@cref}{{[subsection][1][7,2]7.2.1}{165}}
\@writefile{toc}{\contentsline {subsubsection}{\text  {\fontfamily  {lcmss}\selectfont  type}}{165}{section*.26}}
\newlabel{name-kiama-type}{{7.2.1}{165}{\a {type}}{section*.26}{}}
\newlabel{name-kiama-type@cref}{{[subsection][1][7,2]7.2.1}{165}}
\@writefile{toc}{\contentsline {subsubsection}{\text  {\fontfamily  {lcmss}\selectfont  type} Aux Attributes}{166}{section*.27}}
\@writefile{toc}{\contentsline {subsubsection}{\text  {\fontfamily  {lcmss}\selectfont  fields}}{166}{section*.28}}
\newlabel{name-kiama-fields}{{7.2.1}{166}{\a {fields}}{section*.28}{}}
\newlabel{name-kiama-fields@cref}{{[subsection][1][7,2]7.2.1}{166}}
\@writefile{toc}{\contentsline {subsubsection}{\text  {\fontfamily  {lcmss}\selectfont  superClass}}{167}{section*.29}}
\newlabel{name-kiama-superclass}{{7.2.1}{167}{\a {superClass}}{section*.29}{}}
\newlabel{name-kiama-superclass@cref}{{[subsection][1][7,2]7.2.1}{167}}
\@writefile{toc}{\contentsline {subsubsection}{\text  {\fontfamily  {lcmss}\selectfont  method}}{167}{section*.30}}
\newlabel{name-kiama-method}{{7.2.1}{167}{\a {method}}{section*.30}{}}
\newlabel{name-kiama-method@cref}{{[subsection][1][7,2]7.2.1}{167}}
\@writefile{toc}{\contentsline {subsubsection}{\text  {\fontfamily  {lcmss}\selectfont  subTypeOf}}{167}{section*.31}}
\newlabel{name-kiama-subtypes}{{7.2.1}{167}{\a {subTypeOf}}{section*.31}{}}
\newlabel{name-kiama-subtypes@cref}{{[subsection][1][7,2]7.2.1}{167}}
\@writefile{toc}{\contentsline {subsubsection}{\text  {\fontfamily  {lcmss}\selectfont  thisFPDecl}}{168}{section*.32}}
\newlabel{name-kiama-thisfpdecl}{{7.2.1}{168}{\a {thisFPDecl}}{section*.32}{}}
\newlabel{name-kiama-thisfpdecl@cref}{{[subsection][1][7,2]7.2.1}{168}}
\@writefile{toc}{\contentsline {subsubsection}{\text  {\fontfamily  {lcmss}\selectfont  objectClassDecl}}{168}{section*.33}}
\newlabel{name-kiama-objectclassdecl}{{7.2.1}{168}{\a {objectClassDecl}}{section*.33}{}}
\newlabel{name-kiama-objectclassdecl@cref}{{[subsection][1][7,2]7.2.1}{168}}
\@writefile{toc}{\contentsline {subsubsection}{Aux Node Construction Attributes}{168}{section*.34}}
\@writefile{toc}{\contentsline {subsubsection}{Helper Attributes}{169}{section*.35}}
\newlabel{name-kiama-helpers}{{7.2.1}{169}{Helper Attributes}{section*.35}{}}
\newlabel{name-kiama-helpers@cref}{{[subsection][1][7,2]7.2.1}{169}}
\@writefile{toc}{\contentsline {subsection}{\numberline {7.2.2}The JastAdd Implementation}{169}{subsection.7.2.2}}
\newlabel{sect-name-jastadd}{{7.2.2}{169}{The JastAdd Implementation}{subsection.7.2.2}{}}
\newlabel{sect-name-jastadd@cref}{{[subsection][2][7,2]7.2.2}{169}}
\@writefile{toc}{\contentsline {subsubsection}{\text  {\fontfamily  {lcmss}\selectfont  decl}}{170}{section*.36}}
\newlabel{name-jastadd-decl}{{7.2.2}{170}{\attr {decl}}{section*.36}{}}
\newlabel{name-jastadd-decl@cref}{{[subsection][2][7,2]7.2.2}{170}}
\@writefile{toc}{\contentsline {subsubsection}{\text  {\fontfamily  {lcmss}\selectfont  type}}{171}{section*.37}}
\newlabel{name-jastadd-type}{{7.2.2}{171}{\attr {type}}{section*.37}{}}
\newlabel{name-jastadd-type@cref}{{[subsection][2][7,2]7.2.2}{171}}
\@writefile{toc}{\contentsline {subsubsection}{\text  {\fontfamily  {lcmss}\selectfont  subTypeOf}}{172}{section*.38}}
\newlabel{name-jastadd-subtypeof}{{7.2.2}{172}{\attr {subTypeOf}}{section*.38}{}}
\newlabel{name-jastadd-subtypeof@cref}{{[subsection][2][7,2]7.2.2}{172}}
\@writefile{toc}{\contentsline {subsubsection}{\text  {\fontfamily  {lcmss}\selectfont  lookup}}{172}{section*.39}}
\newlabel{name-jastadd-lookup}{{7.2.2}{172}{\attr {lookup}}{section*.39}{}}
\newlabel{name-jastadd-lookup@cref}{{[subsection][2][7,2]7.2.2}{172}}
\@writefile{toc}{\contentsline {subsubsection}{\text  {\fontfamily  {lcmss}\selectfont  fields}}{173}{section*.40}}
\newlabel{name-jastadd-fields}{{7.2.2}{173}{\attr {fields}}{section*.40}{}}
\newlabel{name-jastadd-fields@cref}{{[subsection][2][7,2]7.2.2}{173}}
\@writefile{toc}{\contentsline {subsubsection}{\text  {\fontfamily  {lcmss}\selectfont  lookupType}}{173}{section*.41}}
\newlabel{name-jastadd-lookuptype}{{7.2.2}{173}{\attr {lookupType}}{section*.41}{}}
\newlabel{name-jastadd-lookuptype@cref}{{[subsection][2][7,2]7.2.2}{173}}
\@writefile{toc}{\contentsline {subsubsection}{\text  {\fontfamily  {lcmss}\selectfont  lookupMethod}}{173}{section*.42}}
\newlabel{name-jastadd-lookupmethod}{{7.2.2}{173}{\attr {lookupMethod}}{section*.42}{}}
\newlabel{name-jastadd-lookupmethod@cref}{{[subsection][2][7,2]7.2.2}{173}}
\@writefile{toc}{\contentsline {subsubsection}{\text  {\fontfamily  {lcmss}\selectfont  remoteLookup}}{174}{section*.43}}
\newlabel{name-jastadd-remotelookup}{{7.2.2}{174}{\attr {remoteLookup}}{section*.43}{}}
\newlabel{name-jastadd-remotelookup@cref}{{[subsection][2][7,2]7.2.2}{174}}
\@writefile{toc}{\contentsline {subsubsection}{\text  {\fontfamily  {lcmss}\selectfont  superClass}}{174}{section*.44}}
\newlabel{name-jastadd-superclass}{{7.2.2}{174}{\attr {superClass}}{section*.44}{}}
\newlabel{name-jastadd-superclass@cref}{{[subsection][2][7,2]7.2.2}{174}}
\@writefile{toc}{\contentsline {subsubsection}{\text  {\fontfamily  {lcmss}\selectfont  enclosingClassDecl}}{174}{section*.45}}
\newlabel{name-jastadd-enclosingclassdecl}{{7.2.2}{174}{\attr {enclosingClassDecl}}{section*.45}{}}
\newlabel{name-jastadd-enclosingclassdecl@cref}{{[subsection][2][7,2]7.2.2}{174}}
\@writefile{toc}{\contentsline {subsubsection}{\text  {\fontfamily  {lcmss}\selectfont  thisFPDecl}}{174}{section*.46}}
\newlabel{name-jastadd-thisfpdecl}{{7.2.2}{174}{\attr {thisFPDecl}}{section*.46}{}}
\newlabel{name-jastadd-thisfpdecl@cref}{{[subsection][2][7,2]7.2.2}{174}}
\@writefile{toc}{\contentsline {subsubsection}{\text  {\fontfamily  {lcmss}\selectfont  objectClassDecl}}{175}{section*.47}}
\newlabel{name-jastadd-objectclassdecl}{{7.2.2}{175}{\a {objectClassDecl}}{section*.47}{}}
\newlabel{name-jastadd-objectclassdecl@cref}{{[subsection][2][7,2]7.2.2}{175}}
\@writefile{toc}{\contentsline {subsubsection}{Aux Node Construction Attributes}{175}{section*.48}}
\@writefile{toc}{\contentsline {subsubsection}{Helper Attributes}{176}{section*.49}}
\newlabel{name-jastadd-helpers}{{7.2.2}{176}{Helper Attributes}{section*.49}{}}
\newlabel{name-jastadd-helpers@cref}{{[subsection][2][7,2]7.2.2}{176}}
\@writefile{toc}{\contentsline {section}{\numberline {7.3}Important Lemmas}{176}{section.7.3}}
\newlabel{sect-ex-lemmas}{{7.3}{176}{Important Lemmas}{section.7.3}{}}
\newlabel{sect-ex-lemmas@cref}{{[section][3][7]7.3}{176}}
\newlabel{def-asame}{{7.3.1}{176}{}{definition.7.3.1}{}}
\newlabel{def-asame@cref}{{[definition][1][7,3]7.3.1}{176}}
\newlabel{thm-meta-equality}{{37}{177}{}{theorem.37}{}}
\newlabel{thm-meta-equality@cref}{{[lemma][37][]37}{177}}
\newlabel{n01}{{37.1}{177}{}{equation.37.1}{}}
\newlabel{n01@cref}{{[equation][1][7]37.1}{177}}
\newlabel{n02}{{37.2}{177}{}{equation.37.2}{}}
\newlabel{n02@cref}{{[equation][2][7]37.2}{177}}
\newlabel{n03}{{37.3}{177}{}{equation.37.3}{}}
\newlabel{n03@cref}{{[equation][3][7]37.3}{177}}
\newlabel{n2.4}{{37.4}{177}{$e$ is a function application expression}{equation.37.4}{}}
\newlabel{n2.4@cref}{{[equation][4][7]37.4}{177}}
\newlabel{n2.5}{{37.5}{177}{$e$ is a function application expression}{equation.37.5}{}}
\newlabel{n2.5@cref}{{[equation][5][7]37.5}{177}}
\newlabel{n2.6}{{37.6}{177}{$e$ is a function application expression}{equation.37.6}{}}
\newlabel{n2.6@cref}{{[equation][6][7]37.6}{177}}
\newlabel{n2.7}{{37.7}{177}{$e$ is a function application expression}{equation.37.7}{}}
\newlabel{n2.7@cref}{{[equation][7][7]37.7}{177}}
\newlabel{n2.8}{{37.8}{177}{$e$ is a function application expression}{equation.37.8}{}}
\newlabel{n2.8@cref}{{[equation][8][7]37.8}{177}}
\newlabel{n2.9}{{37.9}{177}{$e$ is a function application expression}{equation.37.9}{}}
\newlabel{n2.9@cref}{{[equation][9][7]37.9}{177}}
\newlabel{n2.10}{{37.10}{177}{$e$ is a function application expression}{equation.37.10}{}}
\newlabel{n2.10@cref}{{[equation][10][7]37.10}{177}}
\newlabel{n2.11}{{37.11}{178}{$e$ is a function application expression}{equation.37.11}{}}
\newlabel{n2.11@cref}{{[equation][11][7]37.11}{178}}
\newlabel{n2.11b}{{37.12}{178}{$e$ is a function application expression}{equation.37.12}{}}
\newlabel{n2.11b@cref}{{[equation][12][7]37.12}{178}}
\newlabel{n2.12}{{37.13}{178}{$e$ is a function application expression}{equation.37.13}{}}
\newlabel{n2.12@cref}{{[equation][13][7]37.13}{178}}
\newlabel{n2.13}{{37.14}{178}{$e$ is a function application expression}{equation.37.14}{}}
\newlabel{n2.13@cref}{{[equation][14][7]37.14}{178}}
\newlabel{n2.14}{{37.15}{178}{$e$ is a function application expression}{equation.37.15}{}}
\newlabel{n2.14@cref}{{[equation][15][7]37.15}{178}}
\newlabel{n10}{{37.16}{178}{$e$ is an attribution expression}{equation.37.16}{}}
\newlabel{n10@cref}{{[equation][16][7]37.16}{178}}
\newlabel{n11}{{37.17}{178}{$e$ is an attribution expression}{equation.37.17}{}}
\newlabel{n11@cref}{{[equation][17][7]37.17}{178}}
\newlabel{n12}{{37.18}{178}{$e$ is an attribution expression}{equation.37.18}{}}
\newlabel{n12@cref}{{[equation][18][7]37.18}{178}}
\newlabel{n13}{{37.19}{178}{$e$ is an attribution expression}{equation.37.19}{}}
\newlabel{n13@cref}{{[equation][19][7]37.19}{178}}
\newlabel{n14}{{37.20}{178}{$e$ is an attribution expression}{equation.37.20}{}}
\newlabel{n14@cref}{{[equation][20][7]37.20}{178}}
\newlabel{n15}{{37.21}{178}{$e$ is an attribution expression}{equation.37.21}{}}
\newlabel{n15@cref}{{[equation][21][7]37.21}{178}}
\newlabel{n16}{{37.22}{178}{$e$ is an attribution expression}{equation.37.22}{}}
\newlabel{n16@cref}{{[equation][22][7]37.22}{178}}
\newlabel{n17}{{37.23}{178}{$e$ is an attribution expression}{equation.37.23}{}}
\newlabel{n17@cref}{{[equation][23][7]37.23}{178}}
\newlabel{n18}{{37.24}{178}{$e$ is an attribution expression}{equation.37.24}{}}
\newlabel{n18@cref}{{[equation][24][7]37.24}{178}}
\newlabel{n19}{{37.25}{178}{$e$ is an attribution expression}{equation.37.25}{}}
\newlabel{n19@cref}{{[equation][25][7]37.25}{178}}
\newlabel{n2.26}{{37.26}{178}{$e$ is an attribution expression}{equation.37.26}{}}
\newlabel{n2.26@cref}{{[equation][26][7]37.26}{178}}
\newlabel{n2.27}{{37.27}{178}{$e$ is an attribution expression}{equation.37.27}{}}
\newlabel{n2.27@cref}{{[equation][27][7]37.27}{178}}
\newlabel{lem-ainA}{{38}{179}{}{theorem.38}{}}
\newlabel{lem-ainA@cref}{{[lemma][38][]38}{179}}
\newlabel{n3.6}{{38.6}{179}{}{equation.38.6}{}}
\newlabel{n3.6@cref}{{[equation][6][7]38.6}{179}}
\newlabel{n3.8}{{38.8}{179}{The \attrfetchvalue case}{equation.38.8}{}}
\newlabel{n3.8@cref}{{[equation][8][7]38.8}{179}}
\newlabel{n3.10}{{38.10}{179}{The \attrfetchvalue case}{equation.38.10}{}}
\newlabel{n3.10@cref}{{[equation][10][7]38.10}{179}}
\newlabel{n3.11}{{38.11}{179}{The \attrfetchvalue case}{equation.38.11}{}}
\newlabel{n3.11@cref}{{[equation][11][7]38.11}{179}}
\newlabel{n3.12}{{38.12}{179}{The \attrfetchvalue case}{equation.38.12}{}}
\newlabel{n3.12@cref}{{[equation][12][7]38.12}{179}}
\newlabel{n3.13}{{38.13}{179}{The \attrfetchvalue case}{equation.38.13}{}}
\newlabel{n3.13@cref}{{[equation][13][7]38.13}{179}}
\newlabel{n3.14}{{38.14}{179}{The \attrfetchvalue case}{equation.38.14}{}}
\newlabel{n3.14@cref}{{[equation][14][7]38.14}{179}}
\newlabel{n3.15}{{38.15}{180}{The \attrfetchvalue case}{equation.38.15}{}}
\newlabel{n3.15@cref}{{[equation][15][7]38.15}{180}}
\newlabel{n3.16}{{38.16}{180}{The \attrfetchvalue case}{equation.38.16}{}}
\newlabel{n3.16@cref}{{[equation][16][7]38.16}{180}}
\newlabel{n3.17}{{38.17}{180}{The \attrfetchvalue case}{equation.38.17}{}}
\newlabel{n3.17@cref}{{[equation][17][7]38.17}{180}}
\newlabel{n3.18}{{38.18}{180}{The \attrfetchcached case}{equation.38.18}{}}
\newlabel{n3.18@cref}{{[equation][18][7]38.18}{180}}
\newlabel{n3.19}{{38.19}{180}{The \attrfetchcached case}{equation.38.19}{}}
\newlabel{n3.19@cref}{{[equation][19][7]38.19}{180}}
\newlabel{n3.20}{{38.20}{180}{The \attrfetchcached case}{equation.38.20}{}}
\newlabel{n3.20@cref}{{[equation][20][7]38.20}{180}}
\newlabel{n3.21}{{38.21}{180}{The \attrfetchcached case}{equation.38.21}{}}
\newlabel{n3.21@cref}{{[equation][21][7]38.21}{180}}
\newlabel{n3.22}{{38.22}{180}{The \attrfetchcached case}{equation.38.22}{}}
\newlabel{n3.22@cref}{{[equation][22][7]38.22}{180}}
\newlabel{n3.23}{{38.23}{180}{The \attrfetchcached case}{equation.38.23}{}}
\newlabel{n3.23@cref}{{[equation][23][7]38.23}{180}}
\newlabel{n3.24}{{38.24}{180}{The \attrfetchcached case}{equation.38.24}{}}
\newlabel{n3.24@cref}{{[equation][24][7]38.24}{180}}
\newlabel{n3.25}{{38.25}{180}{The \attrfetchcached case}{equation.38.25}{}}
\newlabel{n3.25@cref}{{[equation][25][7]38.25}{180}}
\newlabel{n3.26}{{38.26}{180}{The \attrfetchcached case}{equation.38.26}{}}
\newlabel{n3.26@cref}{{[equation][26][7]38.26}{180}}
\newlabel{n3.27}{{38.27}{180}{The \attrfetchcached case}{equation.38.27}{}}
\newlabel{n3.27@cref}{{[equation][27][7]38.27}{180}}
\newlabel{n3.28}{{38.28}{180}{The \attrfetchho case}{equation.38.28}{}}
\newlabel{n3.28@cref}{{[equation][28][7]38.28}{180}}
\newlabel{n3.29}{{38.29}{180}{The \attrfetchho case}{equation.38.29}{}}
\newlabel{n3.29@cref}{{[equation][29][7]38.29}{180}}
\newlabel{n3.30}{{38.30}{180}{The \attrfetchho case}{equation.38.30}{}}
\newlabel{n3.30@cref}{{[equation][30][7]38.30}{180}}
\newlabel{n3.31}{{38.31}{180}{The \attrfetchho case}{equation.38.31}{}}
\newlabel{n3.31@cref}{{[equation][31][7]38.31}{180}}
\newlabel{n3.32}{{38.32}{181}{The \attrfetchho case}{equation.38.32}{}}
\newlabel{n3.32@cref}{{[equation][32][7]38.32}{181}}
\newlabel{n3.33}{{38.33}{181}{The \attrfetchho case}{equation.38.33}{}}
\newlabel{n3.33@cref}{{[equation][33][7]38.33}{181}}
\newlabel{n3.34}{{38.34}{181}{The \attrfetchho case}{equation.38.34}{}}
\newlabel{n3.34@cref}{{[equation][34][7]38.34}{181}}
\newlabel{n3.35}{{38.35}{181}{The \attrfetchho case}{equation.38.35}{}}
\newlabel{n3.35@cref}{{[equation][35][7]38.35}{181}}
\newlabel{n3.36}{{38.36}{181}{The \attrfetchho case}{equation.38.36}{}}
\newlabel{n3.36@cref}{{[equation][36][7]38.36}{181}}
\newlabel{n3.37}{{38.37}{181}{The \attrfetchho case}{equation.38.37}{}}
\newlabel{n3.37@cref}{{[equation][37][7]38.37}{181}}
\newlabel{lem-ainA-rec}{{39}{181}{}{theorem.39}{}}
\newlabel{lem-ainA-rec@cref}{{[lemma][39][]39}{181}}
\newlabel{n4.4}{{39.4}{182}{$e$ does not reference $a$}{equation.39.4}{}}
\newlabel{n4.4@cref}{{[equation][4][7]39.4}{182}}
\newlabel{n4.5}{{39.5}{182}{$e$ does not reference $a$}{equation.39.5}{}}
\newlabel{n4.5@cref}{{[equation][5][7]39.5}{182}}
\newlabel{n4.6}{{39.6}{182}{$e$ does not reference $a$}{equation.39.6}{}}
\newlabel{n4.6@cref}{{[equation][6][7]39.6}{182}}
\newlabel{n4.7}{{39.7}{182}{$e$ does not reference $a$}{equation.39.7}{}}
\newlabel{n4.7@cref}{{[equation][7][7]39.7}{182}}
\newlabel{n4.8}{{39.8}{182}{$e$ does not reference $a$}{equation.39.8}{}}
\newlabel{n4.8@cref}{{[equation][8][7]39.8}{182}}
\newlabel{n4.9}{{39.9}{182}{$e$ does not reference $a$}{equation.39.9}{}}
\newlabel{n4.9@cref}{{[equation][9][7]39.9}{182}}
\newlabel{n4.13}{{39.13}{182}{$e$ references $a$}{equation.39.13}{}}
\newlabel{n4.13@cref}{{[equation][13][7]39.13}{182}}
\@writefile{toc}{\contentsline {section}{\numberline {7.4}Featherweight Java}{182}{section.7.4}}
\newlabel{sect-ex-mainproofs}{{7.4}{182}{Featherweight Java}{section.7.4}{}}
\newlabel{sect-ex-mainproofs@cref}{{[section][4][7]7.4}{182}}
\@writefile{toc}{\contentsline {subsection}{\numberline {7.4.1}Attributes in \ensuremath  {A_{k\equiv j}}\xspace  }{183}{subsection.7.4.1}}
\newlabel{lem-objectClassDecl}{{40}{184}{\a {objectClassDecl} for Program nodes}{theorem.40}{}}
\newlabel{lem-objectClassDecl@cref}{{[lemma][40][]40}{184}}
\newlabel{lem-matchname}{{41}{185}{\a {\_matchName} with different nodes}{theorem.41}{}}
\newlabel{lem-matchname@cref}{{[lemma][41][]41}{185}}
\newlabel{thm-decl-lookuptype}{{42}{185}{\a {decl} and \a {lookupType}}{theorem.42}{}}
\newlabel{thm-decl-lookuptype@cref}{{[theorem][42][]42}{185}}
\newlabel{lem-decl-typeuse-typeuse-decl}{{43}{187}{\a {decl} and \a {typeUse}}{theorem.43}{}}
\newlabel{lem-decl-typeuse-typeuse-decl@cref}{{[lemma][43][]43}{187}}
\newlabel{thm-superclass}{{44}{188}{\a {superClass} is in \Asamekj }{theorem.44}{}}
\newlabel{thm-superclass@cref}{{[theorem][44][]44}{188}}
\newlabel{thm-fields}{{45}{190}{\a {fields} is in \Asamekj }{theorem.45}{}}
\newlabel{thm-fields@cref}{{[theorem][45][]45}{190}}
\newlabel{thm-subtypeof}{{46}{190}{\a {subTypeOf} is in \Asamekj }{theorem.46}{}}
\newlabel{thm-subtypeof@cref}{{[theorem][46][]46}{190}}
\newlabel{lem-findfp-cons-concat}{{47}{190}{\a {findFP} with \it {cons} and \it {concat}}{theorem.47}{}}
\newlabel{lem-findfp-cons-concat@cref}{{[lemma][47][]47}{190}}
\newlabel{lem-findfp-concat}{{48}{192}{}{theorem.48}{}}
\newlabel{lem-findfp-concat@cref}{{[lemma][48][]48}{192}}
\newlabel{def-superclass-chain}{{7.4.1}{195}{The ``superclass chain'' and ``superclass induction''}{definition.7.4.1}{}}
\newlabel{def-superclass-chain@cref}{{[definition][1][7,4]7.4.1}{195}}
\newlabel{lem-remotelookup-findfp}{{49}{195}{}{theorem.49}{}}
\newlabel{lem-remotelookup-findfp@cref}{{[lemma][49][]49}{195}}
\newlabel{lem-fptype-type}{{50}{198}{}{theorem.50}{}}
\newlabel{lem-fptype-type@cref}{{[lemma][50][]50}{198}}
\@writefile{toc}{\contentsline {subsection}{\numberline {7.4.2}The \text  {\fontfamily  {lcmss}\selectfont  type} Attribute}{199}{subsection.7.4.2}}
\@writefile{toc}{\contentsline {subsubsection}{The EFld Case}{200}{section*.50}}
\newlabel{thm-type-EFld}{{51}{200}{}{theorem.51}{}}
\newlabel{thm-type-EFld@cref}{{[theorem][51][]51}{200}}
\@writefile{toc}{\contentsline {subsubsection}{The EIdn Case}{201}{section*.51}}
\newlabel{lem-prepend-concat}{{52}{201}{}{theorem.52}{}}
\newlabel{lem-prepend-concat@cref}{{[lemma][52][]52}{201}}
\newlabel{thm-type-EIdn}{{53}{202}{}{theorem.53}{}}
\newlabel{thm-type-EIdn@cref}{{[theorem][53][]53}{202}}
\@writefile{toc}{\contentsline {subsubsection}{The ECall Case}{208}{section*.52}}
\newlabel{lem-method-lookupMethod}{{54}{208}{}{theorem.54}{}}
\newlabel{lem-method-lookupMethod@cref}{{[lemma][54][]54}{208}}
\newlabel{lem-methodDecl-decl}{{55}{209}{}{theorem.55}{}}
\newlabel{lem-methodDecl-decl@cref}{{[lemma][55][]55}{209}}
\newlabel{lem-exprsMatchFPs}{{56}{210}{}{theorem.56}{}}
\newlabel{lem-exprsMatchFPs@cref}{{[lemma][56][]56}{210}}
\newlabel{thm-type-ECall}{{57}{211}{}{theorem.57}{}}
\newlabel{thm-type-ECall@cref}{{[theorem][57][]57}{211}}
\@writefile{toc}{\contentsline {subsubsection}{The ENew Case}{215}{section*.53}}
\newlabel{thm-type-ENew}{{58}{215}{}{theorem.58}{}}
\newlabel{thm-type-ENew@cref}{{[theorem][58][]58}{215}}
\@writefile{toc}{\contentsline {subsubsection}{The ECast Case}{217}{section*.54}}
\newlabel{thm-type-ECast}{{59}{217}{}{theorem.59}{}}
\newlabel{thm-type-ECast@cref}{{[theorem][59][]59}{217}}
\newlabel{thm-type-FPDecl}{{60}{218}{}{theorem.60}{}}
\newlabel{thm-type-FPDecl@cref}{{[theorem][60][]60}{218}}
\@writefile{toc}{\contentsline {subsubsection}{The \text  {\fontfamily  {lcmss}\selectfont  type} Attribute Theorem}{219}{section*.55}}
\newlabel{thm-type-in-asame}{{61}{219}{$\a {type} \in \Asamekj $}{theorem.61}{}}
\newlabel{thm-type-in-asame@cref}{{[theorem][61][]61}{219}}
\@writefile{toc}{\contentsline {section}{\numberline {7.5}Quantitative Analysis}{220}{section.7.5}}
\newlabel{sect-ex-quant}{{7.5}{220}{Quantitative Analysis}{section.7.5}{}}
\newlabel{sect-ex-quant@cref}{{[section][5][7]7.5}{220}}
\newlabel{thm-quant-fields}{{62}{220}{}{theorem.62}{}}
\newlabel{thm-quant-fields@cref}{{[theorem][62][]62}{220}}
\newlabel{thm-quant-env-class}{{63}{221}{}{theorem.63}{}}
\newlabel{thm-quant-env-class@cref}{{[theorem][63][]63}{221}}
\newlabel{thm-quant-env-methodexpr}{{64}{222}{}{theorem.64}{}}
\newlabel{thm-quant-env-methodexpr@cref}{{[theorem][64][]64}{222}}
\newlabel{lem-quant-matchname}{{65}{223}{}{theorem.65}{}}
\newlabel{lem-quant-matchname@cref}{{[lemma][65][]65}{223}}
\newlabel{lem-quant-matchname-kiama}{{66}{224}{}{theorem.66}{}}
\newlabel{lem-quant-matchname-kiama@cref}{{[lemma][66][]66}{224}}
\newlabel{thm-quant-remotecount}{{67}{224}{}{theorem.67}{}}
\newlabel{thm-quant-remotecount@cref}{{[theorem][67][]67}{224}}
\newlabel{thm-quant-typeidn-kiama}{{68}{227}{}{theorem.68}{}}
\newlabel{thm-quant-typeidn-kiama@cref}{{[theorem][68][]68}{227}}
\newlabel{thm-quant-typeidn-jastadd}{{69}{228}{}{theorem.69}{}}
\newlabel{thm-quant-typeidn-jastadd@cref}{{[theorem][69][]69}{228}}
\@writefile{toc}{\contentsline {subsection}{\numberline {7.5.1}Comparing Performance}{231}{subsection.7.5.1}}
\@setckpt{chap_example}{
\setcounter{page}{233}
\setcounter{equation}{6}
\setcounter{enumi}{8}
\setcounter{enumii}{0}
\setcounter{enumiii}{0}
\setcounter{enumiv}{0}
\setcounter{footnote}{3}
\setcounter{mpfootnote}{0}
\setcounter{part}{0}
\setcounter{chapter}{7}
\setcounter{section}{5}
\setcounter{subsection}{1}
\setcounter{subsubsection}{0}
\setcounter{paragraph}{0}
\setcounter{subparagraph}{0}
\setcounter{figure}{4}
\setcounter{table}{0}
\setcounter{NAT@ctr}{0}
\setcounter{parentequation}{0}
\setcounter{Item}{8}
\setcounter{Hfootnote}{9}
\setcounter{bookmark@seq@number}{109}
\setcounter{@@conflict}{0}
\setcounter{tcbbreakpart}{0}
\setcounter{subfigure}{0}
\setcounter{lofdepth}{1}
\setcounter{subtable}{0}
\setcounter{lotdepth}{1}
\setcounter{lstnumber}{5}
\setcounter{tmkcount}{257}
\setcounter{lcword@index}{0}
\setcounter{word@count}{0}
\setcounter{lc@words}{0}
\setcounter{dia@count}{0}
\setcounter{arg@@@index}{0}
\setcounter{theorem}{69}
\setcounter{definition}{0}
\setcounter{thmcase}{0}
\setcounter{thmsubcase}{0}
\setcounter{thmsubsubcase}{2}
\setcounter{section@level}{2}
\setcounter{lstlisting}{0}
}
