\relax 
\providecommand\hyper@newdestlabel[2]{}
\@writefile{toc}{\contentsline {chapter}{\numberline {9}Conclusion}{243}{chapter.9}}
\@writefile{lof}{\addvspace {10\p@ }}
\@writefile{lot}{\addvspace {10\p@ }}
\newlabel{chap-conclusion}{{9}{243}{Conclusion}{chapter.9}{}}
\newlabel{chap-conclusion@cref}{{[chapter][9][]9}{243}}
\@writefile{toc}{\contentsline {section}{\numberline {9.1}Evaluation of Contributions}{244}{section.9.1}}
\@writefile{toc}{\contentsline {section}{\numberline {9.2}Future Work}{247}{section.9.2}}
\newlabel{sect-conclusion-futurework}{{9.2}{247}{Future Work}{section.9.2}{}}
\newlabel{sect-conclusion-futurework@cref}{{[section][2][9]9.2}{247}}
\@setckpt{chap_conclusion}{
\setcounter{page}{249}
\setcounter{equation}{0}
\setcounter{enumi}{8}
\setcounter{enumii}{0}
\setcounter{enumiii}{0}
\setcounter{enumiv}{0}
\setcounter{footnote}{0}
\setcounter{mpfootnote}{0}
\setcounter{part}{0}
\setcounter{chapter}{9}
\setcounter{section}{2}
\setcounter{subsection}{0}
\setcounter{subsubsection}{0}
\setcounter{paragraph}{0}
\setcounter{subparagraph}{0}
\setcounter{figure}{0}
\setcounter{table}{0}
\setcounter{NAT@ctr}{0}
\setcounter{parentequation}{0}
\setcounter{Item}{16}
\setcounter{Hfootnote}{9}
\setcounter{bookmark@seq@number}{126}
\setcounter{@@conflict}{0}
\setcounter{tcbbreakpart}{0}
\setcounter{subfigure}{0}
\setcounter{lofdepth}{1}
\setcounter{subtable}{0}
\setcounter{lotdepth}{1}
\setcounter{lstnumber}{5}
\setcounter{tmkcount}{257}
\setcounter{lcword@index}{0}
\setcounter{word@count}{0}
\setcounter{lc@words}{0}
\setcounter{dia@count}{0}
\setcounter{arg@@@index}{0}
\setcounter{theorem}{69}
\setcounter{definition}{0}
\setcounter{thmcase}{0}
\setcounter{thmsubcase}{0}
\setcounter{thmsubsubcase}{2}
\setcounter{section@level}{1}
\setcounter{lstlisting}{0}
}
