\relax 
\providecommand\hyper@newdestlabel[2]{}
\@writefile{toc}{\contentsline {chapter}{\numberline {4}Saiga Extended}{71}{chapter.4}}
\@writefile{lof}{\addvspace {10\p@ }}
\@writefile{lot}{\addvspace {10\p@ }}
\newlabel{chap-saiga-extended}{{4}{71}{Saiga Extended}{chapter.4}{}}
\newlabel{chap-saiga-extended@cref}{{[chapter][4][]4}{71}}
\@writefile{toc}{\contentsline {section}{\numberline {4.1}Parameterised Attributes}{72}{section.4.1}}
\newlabel{sect-param}{{4.1}{72}{Parameterised Attributes}{section.4.1}{}}
\newlabel{sect-param@cref}{{[section][1][4]4.1}{72}}
\@writefile{toc}{\contentsline {subsection}{\numberline {4.1.1}Expression Language}{72}{subsection.4.1.1}}
\newlabel{sect-ext-saigagrammar}{{4.1.1}{72}{Expression Language}{subsection.4.1.1}{}}
\newlabel{sect-ext-saigagrammar@cref}{{[subsection][1][4,1]4.1.1}{72}}
\@writefile{toc}{\contentsline {subsection}{\numberline {4.1.2}All Types}{73}{subsection.4.1.2}}
\@writefile{toc}{\contentsline {subsection}{\numberline {4.1.3}Type Rules}{73}{subsection.4.1.3}}
\newlabel{sect-typerules-param}{{4.1.3}{73}{Type Rules}{subsection.4.1.3}{}}
\newlabel{sect-typerules-param@cref}{{[subsection][3][4,1]4.1.3}{73}}
\@writefile{toc}{\contentsline {subsection}{\numberline {4.1.4}Semantic Rules}{74}{subsection.4.1.4}}
\newlabel{sect-ext-semantics-param}{{4.1.4}{74}{Semantic Rules}{subsection.4.1.4}{}}
\newlabel{sect-ext-semantics-param@cref}{{[subsection][4][4,1]4.1.4}{74}}
\@writefile{toc}{\contentsline {subsection}{\numberline {4.1.5}Name Analysis Example Revisited}{74}{subsection.4.1.5}}
\newlabel{sect-ext-param-example}{{4.1.5}{74}{Name Analysis Example Revisited}{subsection.4.1.5}{}}
\newlabel{sect-ext-param-example@cref}{{[subsection][5][4,1]4.1.5}{74}}
\@writefile{toc}{\contentsline {section}{\numberline {4.2}Attribute Caching}{77}{section.4.2}}
\newlabel{sect-caching}{{4.2}{77}{Attribute Caching}{section.4.2}{}}
\newlabel{sect-caching@cref}{{[section][2][4]4.2}{77}}
\@writefile{toc}{\contentsline {subsection}{\numberline {4.2.1}Expression Language}{78}{subsection.4.2.1}}
\newlabel{sect-ext-cache-saigagrammar}{{4.2.1}{78}{Expression Language}{subsection.4.2.1}{}}
\newlabel{sect-ext-cache-saigagrammar@cref}{{[subsection][1][4,2]4.2.1}{78}}
\@writefile{toc}{\contentsline {subsection}{\numberline {4.2.2}Type Rules}{78}{subsection.4.2.2}}
\newlabel{sect-ext-cache-typerules}{{4.2.2}{78}{Type Rules}{subsection.4.2.2}{}}
\newlabel{sect-ext-cache-typerules@cref}{{[subsection][2][4,2]4.2.2}{78}}
\@writefile{toc}{\contentsline {subsection}{\numberline {4.2.3}Semantic Rules}{79}{subsection.4.2.3}}
\newlabel{sect-ext-cache-semantics}{{4.2.3}{79}{Semantic Rules}{subsection.4.2.3}{}}
\newlabel{sect-ext-cache-semantics@cref}{{[subsection][3][4,2]4.2.3}{79}}
\@writefile{toc}{\contentsline {subsubsection}{A Changing Context Function}{79}{section*.18}}
\@writefile{toc}{\contentsline {subsubsection}{Caching Rules}{80}{section*.19}}
\@writefile{toc}{\contentsline {subsubsection}{Two Attribution Rules}{81}{section*.20}}
\@writefile{toc}{\contentsline {subsection}{\numberline {4.2.4}Caching Example}{81}{subsection.4.2.4}}
\newlabel{sect-cache-example}{{4.2.4}{81}{Caching Example}{subsection.4.2.4}{}}
\newlabel{sect-cache-example@cref}{{[subsection][4][4,2]4.2.4}{81}}
\@writefile{toc}{\contentsline {section}{\numberline {4.3}Discussion}{84}{section.4.3}}
\newlabel{sect-ext-discussion}{{4.3}{84}{Discussion}{section.4.3}{}}
\newlabel{sect-ext-discussion@cref}{{[section][3][4]4.3}{84}}
\@writefile{toc}{\contentsline {subsection}{\numberline {4.3.1}Non-Parameterised Attributes}{84}{subsection.4.3.1}}
\newlabel{sect-nonparam}{{4.3.1}{84}{Non-Parameterised Attributes}{subsection.4.3.1}{}}
\newlabel{sect-nonparam@cref}{{[subsection][1][4,3]4.3.1}{84}}
\@writefile{toc}{\contentsline {subsection}{\numberline {4.3.2}Attributes Returning Functions}{85}{subsection.4.3.2}}
\newlabel{sect-ext-paramasfunctions}{{4.3.2}{85}{Attributes Returning Functions}{subsection.4.3.2}{}}
\newlabel{sect-ext-paramasfunctions@cref}{{[subsection][2][4,3]4.3.2}{85}}
\@writefile{toc}{\contentsline {subsection}{\numberline {4.3.3}Re-Caching Values and Simplicity}{86}{subsection.4.3.3}}
\newlabel{sect-recaching}{{4.3.3}{86}{Re-Caching Values and Simplicity}{subsection.4.3.3}{}}
\newlabel{sect-recaching@cref}{{[subsection][3][4,3]4.3.3}{86}}
\@writefile{toc}{\contentsline {subsection}{\numberline {4.3.4}The Multistep Relation}{88}{subsection.4.3.4}}
\newlabel{sect-multistep-ext}{{4.3.4}{88}{The Multistep Relation}{subsection.4.3.4}{}}
\newlabel{sect-multistep-ext@cref}{{[subsection][4][4,3]4.3.4}{88}}
\@writefile{toc}{\contentsline {subsection}{\numberline {4.3.5}The Big Step Relation}{88}{subsection.4.3.5}}
\newlabel{sect-bigstep-ext}{{4.3.5}{88}{The Big Step Relation}{subsection.4.3.5}{}}
\newlabel{sect-bigstep-ext@cref}{{[subsection][5][4,3]4.3.5}{88}}
\@writefile{toc}{\contentsline {subsubsection}{Big Step and Cache Expressions}{89}{section*.21}}
\@writefile{toc}{\contentsline {subsection}{\numberline {4.3.6}User-Level Expressions}{90}{subsection.4.3.6}}
\newlabel{sect-ext-userlevel}{{4.3.6}{90}{User-Level Expressions}{subsection.4.3.6}{}}
\newlabel{sect-ext-userlevel@cref}{{[subsection][6][4,3]4.3.6}{90}}
\@writefile{toc}{\contentsline {section}{\numberline {4.4}Conclusion}{90}{section.4.4}}
\@setckpt{chap_saiga_extended}{
\setcounter{page}{92}
\setcounter{equation}{0}
\setcounter{enumi}{8}
\setcounter{enumii}{0}
\setcounter{enumiii}{0}
\setcounter{enumiv}{0}
\setcounter{footnote}{0}
\setcounter{mpfootnote}{0}
\setcounter{part}{0}
\setcounter{chapter}{4}
\setcounter{section}{4}
\setcounter{subsection}{0}
\setcounter{subsubsection}{0}
\setcounter{paragraph}{0}
\setcounter{subparagraph}{0}
\setcounter{figure}{0}
\setcounter{table}{0}
\setcounter{NAT@ctr}{0}
\setcounter{parentequation}{0}
\setcounter{Item}{8}
\setcounter{Hfootnote}{3}
\setcounter{bookmark@seq@number}{60}
\setcounter{@@conflict}{0}
\setcounter{tcbbreakpart}{0}
\setcounter{subfigure}{0}
\setcounter{lofdepth}{1}
\setcounter{subtable}{0}
\setcounter{lotdepth}{1}
\setcounter{lstnumber}{2}
\setcounter{tmkcount}{18}
\setcounter{lcword@index}{0}
\setcounter{word@count}{0}
\setcounter{lc@words}{0}
\setcounter{dia@count}{0}
\setcounter{arg@@@index}{0}
\setcounter{theorem}{0}
\setcounter{definition}{0}
\setcounter{thmcase}{0}
\setcounter{thmsubcase}{0}
\setcounter{thmsubsubcase}{0}
\setcounter{section@level}{1}
\setcounter{lstlisting}{0}
}
