\relax 
\providecommand\hyper@newdestlabel[2]{}
\@writefile{toc}{\contentsline {chapter}{\numberline {6}Metatheoretic Properties}{115}{chapter.6}}
\@writefile{lof}{\addvspace {10\p@ }}
\@writefile{lot}{\addvspace {10\p@ }}
\newlabel{chap-meta}{{6}{115}{Metatheoretic Properties}{chapter.6}{}}
\newlabel{chap-meta@cref}{{[chapter][6][]6}{115}}
\@writefile{toc}{\contentsline {section}{\numberline {6.1}Axioms}{116}{section.6.1}}
\newlabel{axiom-function-type-equal}{{1}{116}{}{theorem.1}{}}
\newlabel{axiom-function-type-equal@cref}{{[axiom][1][]1}{116}}
\@writefile{toc}{\contentsline {section}{\numberline {6.2}Values Can Not Step}{116}{section.6.2}}
\newlabel{sect-valuenostep}{{6.2}{116}{Values Can Not Step}{section.6.2}{}}
\newlabel{sect-valuenostep@cref}{{[section][2][6]6.2}{116}}
\newlabel{thm-valuenostep}{{2}{116}{}{theorem.2}{}}
\newlabel{thm-valuenostep@cref}{{[theorem][2][]2}{116}}
\newlabel{thm-valuenostep-ext}{{3}{116}{}{theorem.3}{}}
\newlabel{thm-valuenostep-ext@cref}{{[theorem][3][]3}{116}}
\@writefile{toc}{\contentsline {section}{\numberline {6.3}Step Determinism}{117}{section.6.3}}
\newlabel{sect-meta-stepdeterminism}{{6.3}{117}{Step Determinism}{section.6.3}{}}
\newlabel{sect-meta-stepdeterminism@cref}{{[section][3][6]6.3}{117}}
\@writefile{toc}{\contentsline {subsection}{\numberline {6.3.1}Proof for the Core Calculus}{117}{subsection.6.3.1}}
\newlabel{thm-determinism-core}{{4}{117}{}{theorem.4}{}}
\newlabel{thm-determinism-core@cref}{{[theorem][4][]4}{117}}
\newlabel{coredet1}{{4.1}{117}{}{equation.4.1}{}}
\newlabel{coredet1@cref}{{[equation][1][6]4.1}{117}}
\newlabel{coredet1b}{{4.2}{117}{}{equation.4.2}{}}
\newlabel{coredet1b@cref}{{[equation][2][6]4.2}{117}}
\newlabel{coredet1c}{{4.3}{117}{}{equation.4.3}{}}
\newlabel{coredet1c@cref}{{[equation][3][6]4.3}{117}}
\newlabel{thm-determinism-core-condstep}{{4.1}{117}{\condstep }{thmcase.4.1}{}}
\newlabel{thm-determinism-core-condstep@cref}{{[thmcase][1][]4.1}{117}}
\newlabel{coredet2}{{4.5}{117}{\condstep }{equation.4.5}{}}
\newlabel{coredet2@cref}{{[equation][5][6]4.5}{117}}
\newlabel{coredet3}{{4.6}{117}{\condstep }{equation.4.6}{}}
\newlabel{coredet3@cref}{{[equation][6][6]4.6}{117}}
\newlabel{coredet4}{{4.9}{118}{\condstep }{equation.4.9}{}}
\newlabel{coredet4@cref}{{[equation][9][6]4.9}{118}}
\newlabel{coredet5}{{4.10}{118}{\condstep }{equation.4.10}{}}
\newlabel{coredet5@cref}{{[equation][10][6]4.10}{118}}
\newlabel{coredet6}{{4.12}{118}{\condstep }{equation.4.12}{}}
\newlabel{coredet6@cref}{{[equation][12][6]4.12}{118}}
\newlabel{coredet7a}{{4.14}{118}{\condtrue and \condfalse }{equation.4.14}{}}
\newlabel{coredet7a@cref}{{[equation][14][6]4.14}{118}}
\newlabel{coredetfun1}{{4.17}{119}{\funapp }{equation.4.17}{}}
\newlabel{coredetfun1@cref}{{[equation][17][6]4.17}{119}}
\newlabel{coredetaf1}{{4.20}{119}{\attrfetch }{equation.4.20}{}}
\newlabel{coredetaf1@cref}{{[equation][20][6]4.20}{119}}
\@writefile{toc}{\contentsline {subsection}{\numberline {6.3.2}Proof for the Extended Calculus}{119}{subsection.6.3.2}}
\newlabel{thm-determinism-ext}{{5}{119}{}{theorem.5}{}}
\newlabel{thm-determinism-ext@cref}{{[theorem][5][]5}{119}}
\newlabel{extdet1}{{5.1}{119}{}{equation.5.1}{}}
\newlabel{extdet1@cref}{{[equation][1][6]5.1}{119}}
\newlabel{extdet2c}{{5.5}{120}{\attrfetchvalue }{equation.5.5}{}}
\newlabel{extdet2c@cref}{{[equation][5][6]5.5}{120}}
\newlabel{extdet2b}{{5.6}{120}{\attrfetchvalue }{equation.5.6}{}}
\newlabel{extdet2b@cref}{{[equation][6][6]5.6}{120}}
\newlabel{extdet2}{{5.10}{120}{\attrfetchcached }{equation.5.10}{}}
\newlabel{extdet2@cref}{{[equation][10][6]5.10}{120}}
\newlabel{extdet3}{{5.13}{121}{\cachestep }{equation.5.13}{}}
\newlabel{extdet3@cref}{{[equation][13][6]5.13}{121}}
\newlabel{extdet4}{{5.14}{121}{\cachestep }{equation.5.14}{}}
\newlabel{extdet4@cref}{{[equation][14][6]5.14}{121}}
\newlabel{extdet5}{{5.17}{121}{\cachestep }{equation.5.17}{}}
\newlabel{extdet5@cref}{{[equation][17][6]5.17}{121}}
\newlabel{extdet6}{{5.19}{121}{\cachestep }{equation.5.19}{}}
\newlabel{extdet6@cref}{{[equation][19][6]5.19}{121}}
\newlabel{extdet7}{{5.22}{121}{\cachewrite }{equation.5.22}{}}
\newlabel{extdet7@cref}{{[equation][22][6]5.22}{121}}
\@writefile{toc}{\contentsline {subsection}{\numberline {6.3.3}Proof for the Higher Order Calculus}{121}{subsection.6.3.3}}
\newlabel{thm-determinism-ho}{{6}{122}{}{theorem.6}{}}
\newlabel{thm-determinism-ho@cref}{{[theorem][6][]6}{122}}
\newlabel{hodet1}{{6.1}{122}{}{equation.6.1}{}}
\newlabel{hodet1@cref}{{[equation][1][6]6.1}{122}}
\newlabel{hodet2}{{6.7}{122}{\attrfetchho }{equation.6.7}{}}
\newlabel{hodet2@cref}{{[equation][7][6]6.7}{122}}
\@writefile{toc}{\contentsline {section}{\numberline {6.4}Type Determinism}{122}{section.6.4}}
\newlabel{sect-meta-typedeterminism}{{6.4}{122}{Type Determinism}{section.6.4}{}}
\newlabel{sect-meta-typedeterminism@cref}{{[section][4][6]6.4}{122}}
\@writefile{toc}{\contentsline {subsection}{\numberline {6.4.1}Proof for the Core Calculus}{123}{subsection.6.4.1}}
\newlabel{thm-typedeterminism-core}{{7}{123}{}{theorem.7}{}}
\newlabel{thm-typedeterminism-core@cref}{{[theorem][7][]7}{123}}
\newlabel{coretypedet2}{{7.1}{123}{}{equation.7.1}{}}
\newlabel{coretypedet2@cref}{{[equation][1][6]7.1}{123}}
\newlabel{coretypedet3}{{7.2}{123}{}{equation.7.2}{}}
\newlabel{coretypedet3@cref}{{[equation][2][6]7.2}{123}}
\newlabel{typedetval1}{{7.4}{123}{$e$ is a value}{equation.7.4}{}}
\newlabel{typedetval1@cref}{{[equation][4][6]7.4}{123}}
\newlabel{typedetval2}{{7.5}{123}{$e$ is a value}{equation.7.5}{}}
\newlabel{typedetval2@cref}{{[equation][5][6]7.5}{123}}
\newlabel{typedetcond1}{{7.7}{123}{$e$ is a conditional expression}{equation.7.7}{}}
\newlabel{typedetcond1@cref}{{[equation][7][6]7.7}{123}}
\newlabel{typedetcond2}{{7.8}{123}{$e$ is a conditional expression}{equation.7.8}{}}
\newlabel{typedetcond2@cref}{{[equation][8][6]7.8}{123}}
\newlabel{typedetcond3}{{7.12}{124}{$e$ is a conditional expression}{equation.7.12}{}}
\newlabel{typedetcond3@cref}{{[equation][12][6]7.12}{124}}
\newlabel{typedetcond4}{{7.16}{124}{$e$ is a conditional expression}{equation.7.16}{}}
\newlabel{typedetcond4@cref}{{[equation][16][6]7.16}{124}}
\newlabel{typedetfun1}{{7.19}{124}{$e$ is a function application expression}{equation.7.19}{}}
\newlabel{typedetfun1@cref}{{[equation][19][6]7.19}{124}}
\newlabel{typedetfun2}{{7.20}{124}{$e$ is a function application expression}{equation.7.20}{}}
\newlabel{typedetfun2@cref}{{[equation][20][6]7.20}{124}}
\newlabel{typedetfun5}{{7.23}{124}{$e$ is a function application expression}{equation.7.23}{}}
\newlabel{typedetfun5@cref}{{[equation][23][6]7.23}{124}}
\newlabel{typedetfun3}{{7.24}{124}{$e$ is a function application expression}{equation.7.24}{}}
\newlabel{typedetfun3@cref}{{[equation][24][6]7.24}{124}}
\newlabel{typedetfun6}{{7.26}{124}{$e$ is a function application expression}{equation.7.26}{}}
\newlabel{typedetfun6@cref}{{[equation][26][6]7.26}{124}}
\newlabel{typedetfun4}{{7.27}{124}{$e$ is a function application expression}{equation.7.27}{}}
\newlabel{typedetfun4@cref}{{[equation][27][6]7.27}{124}}
\newlabel{typedetattr1}{{7.29}{125}{$e$ is an attribution expression}{equation.7.29}{}}
\newlabel{typedetattr1@cref}{{[equation][29][6]7.29}{125}}
\newlabel{typedetattr2}{{7.30}{125}{$e$ is an attribution expression}{equation.7.30}{}}
\newlabel{typedetattr2@cref}{{[equation][30][6]7.30}{125}}
\@writefile{toc}{\contentsline {subsection}{\numberline {6.4.2}Proof for the Extended Calculus}{125}{subsection.6.4.2}}
\newlabel{thm-typedeterminism-ext}{{8}{125}{}{theorem.8}{}}
\newlabel{thm-typedeterminism-ext@cref}{{[theorem][8][]8}{125}}
\newlabel{exttypedetattr1}{{8.4}{126}{$e$ is an attribution expression}{equation.8.4}{}}
\newlabel{exttypedetattr1@cref}{{[equation][4][6]8.4}{126}}
\newlabel{exttypedetattr2}{{8.5}{126}{$e$ is an attribution expression}{equation.8.5}{}}
\newlabel{exttypedetattr2@cref}{{[equation][5][6]8.5}{126}}
\newlabel{exttypedetcache1}{{8.7}{126}{$e$ is a cache expression}{equation.8.7}{}}
\newlabel{exttypedetcache1@cref}{{[equation][7][6]8.7}{126}}
\newlabel{exttypedetcache2}{{8.8}{126}{$e$ is a cache expression}{equation.8.8}{}}
\newlabel{exttypedetcache2@cref}{{[equation][8][6]8.8}{126}}
\@writefile{toc}{\contentsline {subsection}{\numberline {6.4.3}Proof for the Higher Order Calculus}{126}{subsection.6.4.3}}
\newlabel{thm-typedeterminism-ho}{{9}{126}{}{theorem.9}{}}
\newlabel{thm-typedeterminism-ho@cref}{{[theorem][9][]9}{126}}
\newlabel{hotypedetattr1}{{9.4}{127}{$e$ is a \mk expression}{equation.9.4}{}}
\newlabel{hotypedetattr1@cref}{{[equation][4][6]9.4}{127}}
\newlabel{hotypedetattr3}{{9.5}{127}{$e$ is a \mk expression}{equation.9.5}{}}
\newlabel{hotypedetattr3@cref}{{[equation][5][6]9.5}{127}}
\@writefile{toc}{\contentsline {section}{\numberline {6.5}Type Preservation over the Step Relation}{127}{section.6.5}}
\newlabel{sect-meta-typepreservation}{{6.5}{127}{Type Preservation over the Step Relation}{section.6.5}{}}
\newlabel{sect-meta-typepreservation@cref}{{[section][5][6]6.5}{127}}
\newlabel{defn-typesafe}{{6.5.1}{127}{}{definition.6.5.1}{}}
\newlabel{defn-typesafe@cref}{{[definition][1][6,5]6.5.1}{127}}
\@writefile{toc}{\contentsline {subsection}{\numberline {6.5.1}Proof for the Core Calculus}{128}{subsection.6.5.1}}
\newlabel{thm-typepreservation-core}{{10}{128}{}{theorem.10}{}}
\newlabel{thm-typepreservation-core@cref}{{[theorem][10][]10}{128}}
\newlabel{coretypepres1a}{{10.1}{128}{}{equation.10.1}{}}
\newlabel{coretypepres1a@cref}{{[equation][1][6]10.1}{128}}
\newlabel{coretypepres3}{{10.2}{128}{}{equation.10.2}{}}
\newlabel{coretypepres3@cref}{{[equation][2][6]10.2}{128}}
\newlabel{coretypepres2}{{10.3}{128}{}{equation.10.3}{}}
\newlabel{coretypepres2@cref}{{[equation][3][6]10.3}{128}}
\newlabel{coretypepres4}{{10.6}{128}{\condstep }{equation.10.6}{}}
\newlabel{coretypepres4@cref}{{[equation][6][6]10.6}{128}}
\newlabel{coretypepres4b}{{10.7}{128}{\condstep }{equation.10.7}{}}
\newlabel{coretypepres4b@cref}{{[equation][7][6]10.7}{128}}
\newlabel{coretypepres4c}{{10.8}{128}{\condstep }{equation.10.8}{}}
\newlabel{coretypepres4c@cref}{{[equation][8][6]10.8}{128}}
\newlabel{coretypepres5}{{10.10}{128}{\condstep }{equation.10.10}{}}
\newlabel{coretypepres5@cref}{{[equation][10][6]10.10}{128}}
\newlabel{coretypepres5a}{{10.14}{129}{\condtrue and \condfalse }{equation.10.14}{}}
\newlabel{coretypepres5a@cref}{{[equation][14][6]10.14}{129}}
\newlabel{coretypepres718}{{10.19}{129}{\funapp }{equation.10.19}{}}
\newlabel{coretypepres718@cref}{{[equation][19][6]10.19}{129}}
\newlabel{coretypepres719}{{10.20}{129}{\funapp }{equation.10.20}{}}
\newlabel{coretypepres719@cref}{{[equation][20][6]10.20}{129}}
\newlabel{coretypepres6}{{10.24}{129}{\funstep }{equation.10.24}{}}
\newlabel{coretypepres6@cref}{{[equation][24][6]10.24}{129}}
\newlabel{coretypepres8}{{10.25}{129}{\funstep }{equation.10.25}{}}
\newlabel{coretypepres8@cref}{{[equation][25][6]10.25}{129}}
\newlabel{coretypepres7}{{10.27}{129}{\funstep }{equation.10.27}{}}
\newlabel{coretypepres7@cref}{{[equation][27][6]10.27}{129}}
\newlabel{coretypepres9}{{10.30}{130}{\funparstep }{equation.10.30}{}}
\newlabel{coretypepres9@cref}{{[equation][30][6]10.30}{130}}
\newlabel{coretypepres10}{{10.31}{130}{\funparstep }{equation.10.31}{}}
\newlabel{coretypepres10@cref}{{[equation][31][6]10.31}{130}}
\newlabel{coretypepres11}{{10.33}{130}{\funparstep }{equation.10.33}{}}
\newlabel{coretypepres11@cref}{{[equation][33][6]10.33}{130}}
\newlabel{coretypepres12}{{10.36}{130}{\attrnodestep }{equation.10.36}{}}
\newlabel{coretypepres12@cref}{{[equation][36][6]10.36}{130}}
\newlabel{coretypepres13}{{10.38}{130}{\attrnodestep }{equation.10.38}{}}
\newlabel{coretypepres13@cref}{{[equation][38][6]10.38}{130}}
\newlabel{thm-typedeterminism-core-attrfetch}{{10.7}{130}{\attrfetch }{thmcase.10.7}{}}
\newlabel{thm-typedeterminism-core-attrfetch@cref}{{[thmcase][7][]10.7}{130}}
\newlabel{coretypepres15}{{10.40}{130}{\attrfetch }{equation.10.40}{}}
\newlabel{coretypepres15@cref}{{[equation][40][6]10.40}{130}}
\@writefile{toc}{\contentsline {subsection}{\numberline {6.5.2}Proof for the Extended Calculus}{130}{subsection.6.5.2}}
\newlabel{thm-typepreservation-ext}{{11}{130}{}{theorem.11}{}}
\newlabel{thm-typepreservation-ext@cref}{{[theorem][11][]11}{130}}
\newlabel{exttypepres1}{{11.3}{131}{}{equation.11.3}{}}
\newlabel{exttypepres1@cref}{{[equation][3][6]11.3}{131}}
\newlabel{exttypepres2}{{11.6}{131}{\attrparstep }{equation.11.6}{}}
\newlabel{exttypepres2@cref}{{[equation][6][6]11.6}{131}}
\newlabel{exttypepres3}{{11.7}{131}{\attrparstep }{equation.11.7}{}}
\newlabel{exttypepres3@cref}{{[equation][7][6]11.7}{131}}
\newlabel{exttypepres4}{{11.9}{131}{\attrparstep }{equation.11.9}{}}
\newlabel{exttypepres4@cref}{{[equation][9][6]11.9}{131}}
\newlabel{exttypepres811}{{11.11}{132}{\attrfetchvalue and \attrfetchcached }{equation.11.11}{}}
\newlabel{exttypepres811@cref}{{[equation][11][6]11.11}{132}}
\newlabel{exttypepres811b}{{11.16}{132}{\attrfetchvalue and \attrfetchcached }{equation.11.16}{}}
\newlabel{exttypepres811b@cref}{{[equation][16][6]11.16}{132}}
\newlabel{exttypepres6}{{11.19}{132}{\cachestep }{equation.11.19}{}}
\newlabel{exttypepres6@cref}{{[equation][19][6]11.19}{132}}
\newlabel{exttypepres7}{{11.21}{132}{\cachestep }{equation.11.21}{}}
\newlabel{exttypepres7@cref}{{[equation][21][6]11.21}{132}}
\newlabel{exttypepres8}{{11.24}{132}{\cachewrite }{equation.11.24}{}}
\newlabel{exttypepres8@cref}{{[equation][24][6]11.24}{132}}
\@writefile{toc}{\contentsline {subsection}{\numberline {6.5.3}Proof for the Higher Order Calculus}{132}{subsection.6.5.3}}
\newlabel{thm-typepreservation-ho}{{12}{132}{}{theorem.12}{}}
\newlabel{thm-typepreservation-ho@cref}{{[theorem][12][]12}{132}}
\newlabel{hotypepres1}{{12.3}{133}{}{equation.12.3}{}}
\newlabel{hotypepres1@cref}{{[equation][3][6]12.3}{133}}
\newlabel{hotypepres115}{{12.5}{133}{\attrfetchho }{equation.12.5}{}}
\newlabel{hotypepres115@cref}{{[equation][5][6]12.5}{133}}
\newlabel{hotypepres1110}{{12.10}{133}{\attrfetchho }{equation.12.10}{}}
\newlabel{hotypepres1110@cref}{{[equation][10][6]12.10}{133}}
\newlabel{hotypepres1113}{{12.12}{133}{\attrfetchho }{equation.12.12}{}}
\newlabel{hotypepres1113@cref}{{[equation][12][6]12.12}{133}}
\newlabel{hotypepres1114}{{12.13}{133}{\attrfetchho }{equation.12.13}{}}
\newlabel{hotypepres1114@cref}{{[equation][13][6]12.13}{133}}
\@writefile{toc}{\contentsline {section}{\numberline {6.6}Progress}{134}{section.6.6}}
\newlabel{sect-meta-progress}{{6.6}{134}{Progress}{section.6.6}{}}
\newlabel{sect-meta-progress@cref}{{[section][6][6]6.6}{134}}
\@writefile{toc}{\contentsline {subsection}{\numberline {6.6.1}Proof for the Core Calculus}{134}{subsection.6.6.1}}
\newlabel{thm-strongprogress-core}{{13}{134}{}{theorem.13}{}}
\newlabel{thm-strongprogress-core@cref}{{[theorem][13][]13}{134}}
\newlabel{corestrong2}{{13.4}{134}{$e_1$ is a conditional expression}{equation.13.4}{}}
\newlabel{corestrong2@cref}{{[equation][4][6]13.4}{134}}
\newlabel{corestrong4}{{13.13}{135}{$e_1$ is an attribution expression}{equation.13.13}{}}
\newlabel{corestrong4@cref}{{[equation][13][6]13.13}{135}}
\@writefile{toc}{\contentsline {subsection}{\numberline {6.6.2}Proof for the Extended Calculus}{135}{subsection.6.6.2}}
\newlabel{thm-strongprogress-ext}{{14}{135}{}{theorem.14}{}}
\newlabel{thm-strongprogress-ext@cref}{{[theorem][14][]14}{135}}
\@writefile{toc}{\contentsline {subsection}{\numberline {6.6.3}Proof for the Higher Order Calculus}{137}{subsection.6.6.3}}
\newlabel{thm-strongprogress-ho}{{15}{137}{}{theorem.15}{}}
\newlabel{thm-strongprogress-ho@cref}{{[theorem][15][]15}{137}}
\@writefile{toc}{\contentsline {section}{\numberline {6.7}Big Step Multistep Equivalence}{139}{section.6.7}}
\newlabel{sect-meta-multibig}{{6.7}{139}{Big Step Multistep Equivalence}{section.6.7}{}}
\newlabel{sect-meta-multibig@cref}{{[section][7][6]6.7}{139}}
\@writefile{toc}{\contentsline {subsection}{\numberline {6.7.1}Multistep Implies Big Step}{139}{subsection.6.7.1}}
\newlabel{lem-stepbigstep}{{16}{139}{}{theorem.16}{}}
\newlabel{lem-stepbigstep@cref}{{[lemma][16][]16}{139}}
\newlabel{eq151}{{16.1}{139}{}{equation.16.1}{}}
\newlabel{eq151@cref}{{[equation][1][6]16.1}{139}}
\newlabel{eq152}{{16.2}{139}{}{equation.16.2}{}}
\newlabel{eq152@cref}{{[equation][2][6]16.2}{139}}
\newlabel{lem-stepbigstep-condstep-bcondtrue}{{16.1.1}{139}{\condstep followed by \bcondtrue }{thmsubcase.16.1.1}{}}
\newlabel{lem-stepbigstep-condstep-bcondtrue@cref}{{[thmsubcase][1][]16.1.1}{139}}
\newlabel{eq155}{{16.5}{140}{\condstep followed by \bcondtrue }{equation.16.5}{}}
\newlabel{eq155@cref}{{[equation][5][6]16.5}{140}}
\newlabel{eq157}{{16.7}{140}{\condstep followed by \bcondtrue }{equation.16.7}{}}
\newlabel{eq157@cref}{{[equation][7][6]16.7}{140}}
\newlabel{eq158}{{16.8}{140}{\condstep followed by \bcondtrue }{equation.16.8}{}}
\newlabel{eq158@cref}{{[equation][8][6]16.8}{140}}
\newlabel{lem-stepbigstep-condtrue}{{16.2}{140}{\condstep followed by \condtrue }{thmcase.16.2}{}}
\newlabel{lem-stepbigstep-condtrue@cref}{{[thmcase][2][]16.2}{140}}
\newlabel{eq1516c}{{16.11}{140}{\condstep followed by \condtrue }{equation.16.11}{}}
\newlabel{eq1516c@cref}{{[equation][11][6]16.11}{140}}
\newlabel{lem-stepbigstep-funstep}{{16.4}{140}{\funstep }{thmcase.16.4}{}}
\newlabel{lem-stepbigstep-funstep@cref}{{[thmcase][4][]16.4}{140}}
\newlabel{eq1514}{{16.14}{140}{\funstep }{equation.16.14}{}}
\newlabel{eq1514@cref}{{[equation][14][6]16.14}{140}}
\newlabel{eq1515}{{16.15}{140}{\funstep }{equation.16.15}{}}
\newlabel{eq1515@cref}{{[equation][15][6]16.15}{140}}
\newlabel{eq1516}{{16.16}{140}{\funstep }{equation.16.16}{}}
\newlabel{eq1516@cref}{{[equation][16][6]16.16}{140}}
\newlabel{eq1517}{{16.17}{140}{\funstep }{equation.16.17}{}}
\newlabel{eq1517@cref}{{[equation][17][6]16.17}{140}}
\newlabel{eq1520}{{16.20}{141}{\funparstep }{equation.16.20}{}}
\newlabel{eq1520@cref}{{[equation][20][6]16.20}{141}}
\newlabel{eq1522}{{16.22}{141}{\funparstep }{equation.16.22}{}}
\newlabel{eq1522@cref}{{[equation][22][6]16.22}{141}}
\newlabel{eq1523}{{16.23}{141}{\funparstep }{equation.16.23}{}}
\newlabel{eq1523@cref}{{[equation][23][6]16.23}{141}}
\newlabel{lem-stepbigstep-attrnodestep}{{16.7}{141}{\attrnodestep }{thmcase.16.7}{}}
\newlabel{lem-stepbigstep-attrnodestep@cref}{{[thmcase][7][]16.7}{141}}
\newlabel{eq1528}{{16.29}{141}{\attrnodestep followed by \battrvalue }{equation.16.29}{}}
\newlabel{eq1528@cref}{{[equation][29][6]16.29}{141}}
\newlabel{eq1529}{{16.30}{141}{\attrnodestep followed by \battrvalue }{equation.16.30}{}}
\newlabel{eq1529@cref}{{[equation][30][6]16.30}{141}}
\newlabel{eq1530}{{16.31}{141}{\attrnodestep followed by \battrvalue }{equation.16.31}{}}
\newlabel{eq1530@cref}{{[equation][31][6]16.31}{141}}
\newlabel{eq1531}{{16.32}{141}{\attrnodestep followed by \battrvalue }{equation.16.32}{}}
\newlabel{eq1531@cref}{{[equation][32][6]16.32}{141}}
\newlabel{eq1532}{{16.33}{141}{\attrnodestep followed by \battrvalue }{equation.16.33}{}}
\newlabel{eq1532@cref}{{[equation][33][6]16.33}{141}}
\newlabel{eq1534}{{16.36}{142}{\attrnodestep followed by \battrcached }{equation.16.36}{}}
\newlabel{eq1534@cref}{{[equation][36][6]16.36}{142}}
\newlabel{eq1535}{{16.37}{142}{\attrnodestep followed by \battrcached }{equation.16.37}{}}
\newlabel{eq1535@cref}{{[equation][37][6]16.37}{142}}
\newlabel{eq1536}{{16.38}{142}{\attrnodestep followed by \battrcached }{equation.16.38}{}}
\newlabel{eq1536@cref}{{[equation][38][6]16.38}{142}}
\newlabel{eq1537}{{16.39}{142}{\attrnodestep followed by \battrcached }{equation.16.39}{}}
\newlabel{eq1537@cref}{{[equation][39][6]16.39}{142}}
\newlabel{eq1538}{{16.40}{142}{\attrnodestep followed by \battrcached }{equation.16.40}{}}
\newlabel{eq1538@cref}{{[equation][40][6]16.40}{142}}
\newlabel{eq1539}{{16.41}{142}{\attrnodestep followed by \battrcached }{equation.16.41}{}}
\newlabel{eq1539@cref}{{[equation][41][6]16.41}{142}}
\newlabel{eq1541}{{16.44}{142}{\attrnodestep followed by \battrho }{equation.16.44}{}}
\newlabel{eq1541@cref}{{[equation][44][6]16.44}{142}}
\newlabel{eq1542}{{16.45}{142}{\attrnodestep followed by \battrho }{equation.16.45}{}}
\newlabel{eq1542@cref}{{[equation][45][6]16.45}{142}}
\newlabel{eq1543}{{16.46}{142}{\attrnodestep followed by \battrho }{equation.16.46}{}}
\newlabel{eq1543@cref}{{[equation][46][6]16.46}{142}}
\newlabel{eq1544}{{16.47}{142}{\attrnodestep followed by \battrho }{equation.16.47}{}}
\newlabel{eq1544@cref}{{[equation][47][6]16.47}{142}}
\newlabel{eq1545}{{16.48}{142}{\attrnodestep followed by \battrho }{equation.16.48}{}}
\newlabel{eq1545@cref}{{[equation][48][6]16.48}{142}}
\newlabel{eq1546}{{16.49}{142}{\attrnodestep followed by \battrho }{equation.16.49}{}}
\newlabel{eq1546@cref}{{[equation][49][6]16.49}{142}}
\newlabel{eq1560}{{16.52}{142}{\attrfetchvalue }{equation.16.52}{}}
\newlabel{eq1560@cref}{{[equation][52][6]16.52}{142}}
\newlabel{eq1564}{{16.56}{143}{\attrfetchcached }{equation.16.56}{}}
\newlabel{eq1564@cref}{{[equation][56][6]16.56}{143}}
\newlabel{eq1658}{{16.58}{143}{\attrfetchcached }{equation.16.58}{}}
\newlabel{eq1658@cref}{{[equation][58][6]16.58}{143}}
\newlabel{eq1661}{{16.61}{143}{\attrfetchho }{equation.16.61}{}}
\newlabel{eq1661@cref}{{[equation][61][6]16.61}{143}}
\newlabel{eq1662}{{16.62}{143}{\attrfetchho }{equation.16.62}{}}
\newlabel{eq1662@cref}{{[equation][62][6]16.62}{143}}
\newlabel{eq1666}{{16.66}{143}{\cachestep }{equation.16.66}{}}
\newlabel{eq1666@cref}{{[equation][66][6]16.66}{143}}
\newlabel{eq1668}{{16.68}{143}{\cachestep }{equation.16.68}{}}
\newlabel{eq1668@cref}{{[equation][68][6]16.68}{143}}
\newlabel{thm-multistepbigstep}{{17}{144}{}{theorem.17}{}}
\newlabel{thm-multistepbigstep@cref}{{[theorem][17][]17}{144}}
\newlabel{eq171}{{17.1}{144}{}{equation.17.1}{}}
\newlabel{eq171@cref}{{[equation][1][6]17.1}{144}}
\newlabel{eq175}{{17.5}{144}{MultiStep}{equation.17.5}{}}
\newlabel{eq175@cref}{{[equation][5][6]17.5}{144}}
\newlabel{eq177}{{17.7}{144}{MultiStep}{equation.17.7}{}}
\newlabel{eq177@cref}{{[equation][7][6]17.7}{144}}
\@writefile{toc}{\contentsline {subsection}{\numberline {6.7.2}Big Step Implies Multistep}{144}{subsection.6.7.2}}
\newlabel{lem-multisteprec-cond}{{18}{144}{}{theorem.18}{}}
\newlabel{lem-multisteprec-cond@cref}{{[lemma][18][]18}{144}}
\newlabel{eq181}{{18.1}{145}{}{equation.18.1}{}}
\newlabel{eq181@cref}{{[equation][1][6]18.1}{145}}
\newlabel{eq185}{{18.5}{145}{MultiRefl}{equation.18.5}{}}
\newlabel{eq185@cref}{{[equation][5][6]18.5}{145}}
\newlabel{eq187}{{18.7}{145}{MultiStep}{equation.18.7}{}}
\newlabel{eq187@cref}{{[equation][7][6]18.7}{145}}
\newlabel{eq189}{{18.9}{145}{MultiStep}{equation.18.9}{}}
\newlabel{eq189@cref}{{[equation][9][6]18.9}{145}}
\newlabel{eq1810}{{18.10}{145}{MultiStep}{equation.18.10}{}}
\newlabel{eq1810@cref}{{[equation][10][6]18.10}{145}}
\newlabel{lem-multisteprec-appf}{{19}{145}{}{theorem.19}{}}
\newlabel{lem-multisteprec-appf@cref}{{[lemma][19][]19}{145}}
\newlabel{lem-multisteprec-appp}{{20}{146}{}{theorem.20}{}}
\newlabel{lem-multisteprec-appp@cref}{{[lemma][20][]20}{146}}
\newlabel{lem-multisteprec-attrn}{{21}{146}{}{theorem.21}{}}
\newlabel{lem-multisteprec-attrn@cref}{{[lemma][21][]21}{146}}
\newlabel{lem-multisteprec-attrp}{{22}{146}{}{theorem.22}{}}
\newlabel{lem-multisteprec-attrp@cref}{{[lemma][22][]22}{146}}
\newlabel{lem-multisteprec-cache}{{23}{146}{}{theorem.23}{}}
\newlabel{lem-multisteprec-cache@cref}{{[lemma][23][]23}{146}}
\newlabel{thm-bigstepmultistep}{{24}{147}{}{theorem.24}{}}
\newlabel{thm-bigstepmultistep@cref}{{[theorem][24][]24}{147}}
\newlabel{eq241}{{24.1}{147}{}{equation.24.1}{}}
\newlabel{eq241@cref}{{[equation][1][6]24.1}{147}}
\newlabel{thm-bigstepmultistep-both}{{25}{148}{}{theorem.25}{}}
\newlabel{thm-bigstepmultistep-both@cref}{{[theorem][25][]25}{148}}
\@writefile{toc}{\contentsline {subsection}{\numberline {6.7.3}Big Step Induction}{148}{subsection.6.7.3}}
\@writefile{toc}{\contentsline {section}{\numberline {6.8}Cache Irrelevance}{149}{section.6.8}}
\newlabel{sect-meta-cacheirrel}{{6.8}{149}{Cache Irrelevance}{section.6.8}{}}
\newlabel{sect-meta-cacheirrel@cref}{{[section][8][6]6.8}{149}}
\newlabel{def-contextequiv}{{6.8.1}{149}{Context Equivalence}{definition.6.8.1}{}}
\newlabel{def-contextequiv@cref}{{[definition][1][6,8]6.8.1}{149}}
\newlabel{lem-value-nochange}{{26}{150}{}{theorem.26}{}}
\newlabel{lem-value-nochange@cref}{{[lemma][26][]26}{150}}
\newlabel{lem-samectx-onlyvalues}{{27}{150}{}{theorem.27}{}}
\newlabel{lem-samectx-onlyvalues@cref}{{[lemma][27][]27}{150}}
\newlabel{eq251}{{27.1}{150}{}{equation.27.1}{}}
\newlabel{eq251@cref}{{[equation][1][6]27.1}{150}}
\newlabel{lem-cacheperm}{{28}{151}{}{theorem.28}{}}
\newlabel{lem-cacheperm@cref}{{[lemma][28][]28}{151}}
\newlabel{lem-selfsame}{{29}{151}{}{theorem.29}{}}
\newlabel{lem-selfsame@cref}{{[lemma][29][]29}{151}}
\newlabel{eq28b1}{{29.1}{151}{}{equation.29.1}{}}
\newlabel{eq28b1@cref}{{[equation][1][6]29.1}{151}}
\newlabel{lem-cong-crux}{{30}{152}{}{theorem.30}{}}
\newlabel{lem-cong-crux@cref}{{[lemma][30][]30}{152}}
\newlabel{eq251}{{30.1}{152}{}{equation.30.1}{}}
\newlabel{eq251@cref}{{[equation][1][6]30.1}{152}}
\newlabel{lem-cong-ext}{{31}{153}{}{theorem.31}{}}
\newlabel{lem-cong-ext@cref}{{[lemma][31][]31}{153}}
\newlabel{eq281}{{31.1}{153}{}{equation.31.1}{}}
\newlabel{eq281@cref}{{[equation][1][6]31.1}{153}}
\newlabel{eq285}{{31.5}{153}{\attrfetchcached }{equation.31.5}{}}
\newlabel{eq285@cref}{{[equation][5][6]31.5}{153}}
\newlabel{eq286}{{31.6}{153}{\attrfetchcached }{equation.31.6}{}}
\newlabel{eq286@cref}{{[equation][6][6]31.6}{153}}
\newlabel{eq287}{{31.7}{153}{\attrfetchcached }{equation.31.7}{}}
\newlabel{eq287@cref}{{[equation][7][6]31.7}{153}}
\newlabel{eq289}{{31.9}{153}{\attrfetchcached }{equation.31.9}{}}
\newlabel{eq289@cref}{{[equation][9][6]31.9}{153}}
\newlabel{eq2810}{{31.10}{153}{\attrfetchcached }{equation.31.10}{}}
\newlabel{eq2810@cref}{{[equation][10][6]31.10}{153}}
\newlabel{eq2811}{{31.11}{153}{\attrfetchcached }{equation.31.11}{}}
\newlabel{eq2811@cref}{{[equation][11][6]31.11}{153}}
\newlabel{eq2812}{{31.12}{153}{\attrfetchcached }{equation.31.12}{}}
\newlabel{eq2812@cref}{{[equation][12][6]31.12}{153}}
\newlabel{eq2813}{{31.13}{153}{\attrfetchcached }{equation.31.13}{}}
\newlabel{eq2813@cref}{{[equation][13][6]31.13}{153}}
\newlabel{eq2814}{{31.14}{153}{\attrfetchcached }{equation.31.14}{}}
\newlabel{eq2814@cref}{{[equation][14][6]31.14}{153}}
\newlabel{eq2815}{{31.15}{153}{\attrfetchcached }{equation.31.15}{}}
\newlabel{eq2815@cref}{{[equation][15][6]31.15}{153}}
\newlabel{eq2816}{{31.16}{153}{\attrfetchcached }{equation.31.16}{}}
\newlabel{eq2816@cref}{{[equation][16][6]31.16}{153}}
\newlabel{lem-cong-crux-ho}{{32}{154}{}{theorem.32}{}}
\newlabel{lem-cong-crux-ho@cref}{{[lemma][32][]32}{154}}
\newlabel{thm-cong-ho}{{33}{155}{}{theorem.33}{}}
\newlabel{thm-cong-ho@cref}{{[theorem][33][]33}{155}}
\newlabel{eq324}{{33.3}{156}{\attrfetchho }{equation.33.3}{}}
\newlabel{eq324@cref}{{[equation][3][6]33.3}{156}}
\newlabel{eq325}{{33.4}{156}{\attrfetchho }{equation.33.4}{}}
\newlabel{eq325@cref}{{[equation][4][6]33.4}{156}}
\newlabel{eq326}{{33.5}{156}{\attrfetchho }{equation.33.5}{}}
\newlabel{eq326@cref}{{[equation][5][6]33.5}{156}}
\newlabel{eq329}{{33.9}{156}{\attrfetchho }{equation.33.9}{}}
\newlabel{eq329@cref}{{[equation][9][6]33.9}{156}}
\newlabel{thm-multistep-equivalence}{{34}{156}{}{theorem.34}{}}
\newlabel{thm-multistep-equivalence@cref}{{[theorem][34][]34}{156}}
\newlabel{thm-equiv-applied}{{35}{156}{}{theorem.35}{}}
\newlabel{thm-equiv-applied@cref}{{[theorem][35][]35}{156}}
\newlabel{def-contextequiv-exp}{{6.8.2}{157}{Alternative Context Equivalence}{definition.6.8.2}{}}
\newlabel{def-contextequiv-exp@cref}{{[definition][2][6,8]6.8.2}{157}}
\newlabel{lem-equiv-equivexp}{{36}{157}{}{theorem.36}{}}
\newlabel{lem-equiv-equivexp@cref}{{[lemma][36][]36}{157}}
\@writefile{toc}{\contentsline {section}{\numberline {6.9}Conclusion}{158}{section.6.9}}
\@setckpt{chap_metatheoretic}{
\setcounter{page}{159}
\setcounter{equation}{1}
\setcounter{enumi}{8}
\setcounter{enumii}{0}
\setcounter{enumiii}{0}
\setcounter{enumiv}{0}
\setcounter{footnote}{2}
\setcounter{mpfootnote}{0}
\setcounter{part}{0}
\setcounter{chapter}{6}
\setcounter{section}{9}
\setcounter{subsection}{0}
\setcounter{subsubsection}{0}
\setcounter{paragraph}{0}
\setcounter{subparagraph}{0}
\setcounter{figure}{0}
\setcounter{table}{0}
\setcounter{NAT@ctr}{0}
\setcounter{parentequation}{0}
\setcounter{Item}{8}
\setcounter{Hfootnote}{6}
\setcounter{bookmark@seq@number}{98}
\setcounter{@@conflict}{0}
\setcounter{tcbbreakpart}{0}
\setcounter{subfigure}{0}
\setcounter{lofdepth}{1}
\setcounter{subtable}{0}
\setcounter{lotdepth}{1}
\setcounter{lstnumber}{2}
\setcounter{tmkcount}{126}
\setcounter{lcword@index}{0}
\setcounter{word@count}{0}
\setcounter{lc@words}{0}
\setcounter{dia@count}{0}
\setcounter{arg@@@index}{0}
\setcounter{theorem}{36}
\setcounter{definition}{0}
\setcounter{thmcase}{0}
\setcounter{thmsubcase}{0}
\setcounter{thmsubsubcase}{0}
\setcounter{section@level}{1}
\setcounter{lstlisting}{0}
}
