\relax 
\providecommand\hyper@newdestlabel[2]{}
\@writefile{toc}{\contentsline {chapter}{\numberline {3}Saiga}{37}{chapter.3}}
\@writefile{lof}{\addvspace {10\p@ }}
\@writefile{lot}{\addvspace {10\p@ }}
\newlabel{chap-saiga}{{3}{37}{Saiga}{chapter.3}{}}
\newlabel{chap-saiga@cref}{{[chapter][3][]3}{37}}
\@writefile{toc}{\contentsline {section}{\numberline {3.1}Calculus}{38}{section.3.1}}
\newlabel{sect-saiga-calculus}{{3.1}{38}{Calculus}{section.3.1}{}}
\newlabel{sect-saiga-calculus@cref}{{[section][1][3]3.1}{38}}
\@writefile{toc}{\contentsline {subsection}{\numberline {3.1.1}An Underlying System}{38}{subsection.3.1.1}}
\newlabel{sect-saiga-underlying}{{3.1.1}{38}{An Underlying System}{subsection.3.1.1}{}}
\newlabel{sect-saiga-underlying@cref}{{[subsection][1][3,1]3.1.1}{38}}
\@writefile{toc}{\contentsline {subsection}{\numberline {3.1.2}All Types}{40}{subsection.3.1.2}}
\newlabel{sect-saiga-types}{{3.1.2}{40}{All Types}{subsection.3.1.2}{}}
\newlabel{sect-saiga-types@cref}{{[subsection][2][3,1]3.1.2}{40}}
\@writefile{toc}{\contentsline {subsection}{\numberline {3.1.3}Expression Language}{40}{subsection.3.1.3}}
\newlabel{sect-saiga-grammar}{{3.1.3}{40}{Expression Language}{subsection.3.1.3}{}}
\newlabel{sect-saiga-grammar@cref}{{[subsection][3][3,1]3.1.3}{40}}
\@writefile{toc}{\contentsline {subsection}{\numberline {3.1.4}Type Rules}{41}{subsection.3.1.4}}
\newlabel{sect-saiga-typerules}{{3.1.4}{41}{Type Rules}{subsection.3.1.4}{}}
\newlabel{sect-saiga-typerules@cref}{{[subsection][4][3,1]3.1.4}{41}}
\@writefile{toc}{\contentsline {subsection}{\numberline {3.1.5}Semantic Rules}{41}{subsection.3.1.5}}
\newlabel{sect-saiga-semantics}{{3.1.5}{41}{Semantic Rules}{subsection.3.1.5}{}}
\newlabel{sect-saiga-semantics@cref}{{[subsection][5][3,1]3.1.5}{41}}
\@writefile{toc}{\contentsline {subsection}{\numberline {3.1.6}Intrinsic, Structural, and Extrinsic Attributes}{43}{subsection.3.1.6}}
\newlabel{sect-saiga-intrinsicetc}{{3.1.6}{43}{Intrinsic, Structural, and Extrinsic Attributes}{subsection.3.1.6}{}}
\newlabel{sect-saiga-intrinsicetc@cref}{{[subsection][6][3,1]3.1.6}{43}}
\@writefile{toc}{\contentsline {subsection}{\numberline {3.1.7}Simple Example}{44}{subsection.3.1.7}}
\newlabel{sect-saiga-simpleexample}{{3.1.7}{44}{Simple Example}{subsection.3.1.7}{}}
\newlabel{sect-saiga-simpleexample@cref}{{[subsection][7][3,1]3.1.7}{44}}
\@writefile{toc}{\contentsline {section}{\numberline {3.2}Discussion}{47}{section.3.2}}
\newlabel{sect-saiga-discussion}{{3.2}{47}{Discussion}{section.3.2}{}}
\newlabel{sect-saiga-discussion@cref}{{[section][2][3]3.2}{47}}
\@writefile{toc}{\contentsline {subsection}{\numberline {3.2.1}Equation Selection and the Context Function}{47}{subsection.3.2.1}}
\newlabel{sect-equationselection}{{3.2.1}{47}{Equation Selection and the Context Function}{subsection.3.2.1}{}}
\newlabel{sect-equationselection@cref}{{[subsection][1][3,2]3.2.1}{47}}
\@writefile{toc}{\contentsline {subsubsection}{Demonstration}{49}{section*.12}}
\@writefile{toc}{\contentsline {subsection}{\numberline {3.2.2}Equation Selection and Node Types}{51}{subsection.3.2.2}}
\newlabel{sect-saiga-equationselection-types}{{3.2.2}{51}{Equation Selection and Node Types}{subsection.3.2.2}{}}
\newlabel{sect-saiga-equationselection-types@cref}{{[subsection][2][3,2]3.2.2}{51}}
\@writefile{toc}{\contentsline {subsubsection}{Symbol-Based Equation Selection}{52}{section*.13}}
\@writefile{toc}{\contentsline {subsubsection}{Production-Based Equation Selection}{53}{section*.14}}
\@writefile{toc}{\contentsline {subsubsection}{Selector Notations}{55}{section*.15}}
\newlabel{sect-saiga-selectors}{{3.2.2}{55}{Selector Notations}{section*.15}{}}
\newlabel{sect-saiga-selectors@cref}{{[subsection][2][3,2]3.2.2}{55}}
\@writefile{toc}{\contentsline {subsubsection}{Selector Example}{58}{section*.16}}
\@writefile{toc}{\contentsline {subsubsection}{Invalid Context Functions and Non-Terminating Evaluation}{59}{section*.17}}
\citation{boyland96conditional}
\@writefile{toc}{\contentsline {subsection}{\numberline {3.2.3}Conditional Expressions}{60}{subsection.3.2.3}}
\@writefile{toc}{\contentsline {subsection}{\numberline {3.2.4}Multiple-Parameter Functions}{61}{subsection.3.2.4}}
\@writefile{toc}{\contentsline {subsection}{\numberline {3.2.5}Tuples}{62}{subsection.3.2.5}}
\newlabel{sect-tuples}{{3.2.5}{62}{Tuples}{subsection.3.2.5}{}}
\newlabel{sect-tuples@cref}{{[subsection][5][3,2]3.2.5}{62}}
\@writefile{toc}{\contentsline {subsection}{\numberline {3.2.6}Functions Returning Expressions}{63}{subsection.3.2.6}}
\@writefile{toc}{\contentsline {subsection}{\numberline {3.2.7}Option Types and the Null Node}{64}{subsection.3.2.7}}
\@writefile{toc}{\contentsline {subsection}{\numberline {3.2.8}The Multistep Relation}{65}{subsection.3.2.8}}
\newlabel{sect-multistep-core}{{3.2.8}{65}{The Multistep Relation}{subsection.3.2.8}{}}
\newlabel{sect-multistep-core@cref}{{[subsection][8][3,2]3.2.8}{65}}
\@writefile{toc}{\contentsline {subsection}{\numberline {3.2.9}The Big Step Relation}{66}{subsection.3.2.9}}
\newlabel{sect-bigstep-core}{{3.2.9}{66}{The Big Step Relation}{subsection.3.2.9}{}}
\newlabel{sect-bigstep-core@cref}{{[subsection][9][3,2]3.2.9}{66}}
\@writefile{toc}{\contentsline {section}{\numberline {3.3}Name Analysis Example}{66}{section.3.3}}
\newlabel{sect-saiga-name-example}{{3.3}{66}{Name Analysis Example}{section.3.3}{}}
\newlabel{sect-saiga-name-example@cref}{{[section][3][3]3.3}{66}}
\@writefile{toc}{\contentsline {section}{\numberline {3.4}Conclusion}{70}{section.3.4}}
\@setckpt{chap_saiga}{
\setcounter{page}{71}
\setcounter{equation}{0}
\setcounter{enumi}{8}
\setcounter{enumii}{0}
\setcounter{enumiii}{0}
\setcounter{enumiv}{0}
\setcounter{footnote}{0}
\setcounter{mpfootnote}{0}
\setcounter{part}{0}
\setcounter{chapter}{3}
\setcounter{section}{4}
\setcounter{subsection}{0}
\setcounter{subsubsection}{0}
\setcounter{paragraph}{0}
\setcounter{subparagraph}{0}
\setcounter{figure}{0}
\setcounter{table}{0}
\setcounter{NAT@ctr}{0}
\setcounter{parentequation}{0}
\setcounter{Item}{8}
\setcounter{Hfootnote}{3}
\setcounter{bookmark@seq@number}{40}
\setcounter{@@conflict}{0}
\setcounter{tcbbreakpart}{0}
\setcounter{subfigure}{0}
\setcounter{lofdepth}{1}
\setcounter{subtable}{0}
\setcounter{lotdepth}{1}
\setcounter{lstnumber}{2}
\setcounter{tmkcount}{9}
\setcounter{lcword@index}{0}
\setcounter{word@count}{0}
\setcounter{lc@words}{0}
\setcounter{dia@count}{0}
\setcounter{arg@@@index}{0}
\setcounter{theorem}{0}
\setcounter{definition}{0}
\setcounter{thmcase}{0}
\setcounter{thmsubcase}{0}
\setcounter{thmsubsubcase}{0}
\setcounter{section@level}{1}
\setcounter{lstlisting}{0}
}
