\relax 
\providecommand\hyper@newdestlabel[2]{}
\citation{barras97coq}
\citation{buckley17saiga}
\citation{de15lean}
\@writefile{toc}{\contentsline {chapter}{\numberline {8}Mechanisation}{233}{chapter.8}}
\@writefile{lof}{\addvspace {10\p@ }}
\@writefile{lot}{\addvspace {10\p@ }}
\newlabel{chap-mechanisation}{{8}{233}{Mechanisation}{chapter.8}{}}
\newlabel{chap-mechanisation@cref}{{[chapter][8][]8}{233}}
\@writefile{toc}{\contentsline {section}{\numberline {8.1}Configuration}{234}{section.8.1}}
\newlabel{sect-mech-config}{{8.1}{234}{Configuration}{section.8.1}{}}
\newlabel{sect-mech-config@cref}{{[section][1][8]8.1}{234}}
\@writefile{toc}{\contentsline {section}{\numberline {8.2}Expression Language}{234}{section.8.2}}
\newlabel{sect-mech-exp}{{8.2}{234}{Expression Language}{section.8.2}{}}
\newlabel{sect-mech-exp@cref}{{[section][2][8]8.2}{234}}
\@writefile{toc}{\contentsline {section}{\numberline {8.3}Type Rules}{235}{section.8.3}}
\newlabel{sect-mech-type}{{8.3}{235}{Type Rules}{section.8.3}{}}
\newlabel{sect-mech-type@cref}{{[section][3][8]8.3}{235}}
\@writefile{toc}{\contentsline {section}{\numberline {8.4}The Context Function}{236}{section.8.4}}
\newlabel{sect-mech-ctx}{{8.4}{236}{The Context Function}{section.8.4}{}}
\newlabel{sect-mech-ctx@cref}{{[section][4][8]8.4}{236}}
\@writefile{toc}{\contentsline {subsection}{\numberline {8.4.1}Node Existence in Lean}{237}{subsection.8.4.1}}
\@writefile{toc}{\contentsline {section}{\numberline {8.5}The Step Relation}{237}{section.8.5}}
\newlabel{sect-mech-step}{{8.5}{237}{The Step Relation}{section.8.5}{}}
\newlabel{sect-mech-step@cref}{{[section][5][8]8.5}{237}}
\@writefile{toc}{\contentsline {section}{\numberline {8.6}Metatheoretic Properties}{238}{section.8.6}}
\newlabel{sect-mech-meta}{{8.6}{238}{Metatheoretic Properties}{section.8.6}{}}
\newlabel{sect-mech-meta@cref}{{[section][6][8]8.6}{238}}
\@writefile{toc}{\contentsline {subsection}{\numberline {8.6.1}Step Determinism}{239}{subsection.8.6.1}}
\@writefile{toc}{\contentsline {subsection}{\numberline {8.6.2}Type Determinism}{240}{subsection.8.6.2}}
\@writefile{toc}{\contentsline {subsection}{\numberline {8.6.3}Type Preservation}{240}{subsection.8.6.3}}
\@writefile{toc}{\contentsline {subsection}{\numberline {8.6.4}Progress}{240}{subsection.8.6.4}}
\@writefile{toc}{\contentsline {subsection}{\numberline {8.6.5}Big Step and Multistep}{240}{subsection.8.6.5}}
\@writefile{toc}{\contentsline {section}{\numberline {8.7}Cache Irrelevance}{241}{section.8.7}}
\newlabel{sect-mech-cacheirrel}{{8.7}{241}{Cache Irrelevance}{section.8.7}{}}
\newlabel{sect-mech-cacheirrel@cref}{{[section][7][8]8.7}{241}}
\@setckpt{chap_mechanisation}{
\setcounter{page}{242}
\setcounter{equation}{0}
\setcounter{enumi}{8}
\setcounter{enumii}{0}
\setcounter{enumiii}{0}
\setcounter{enumiv}{0}
\setcounter{footnote}{0}
\setcounter{mpfootnote}{0}
\setcounter{part}{0}
\setcounter{chapter}{8}
\setcounter{section}{7}
\setcounter{subsection}{0}
\setcounter{subsubsection}{0}
\setcounter{paragraph}{0}
\setcounter{subparagraph}{0}
\setcounter{figure}{0}
\setcounter{table}{0}
\setcounter{NAT@ctr}{0}
\setcounter{parentequation}{0}
\setcounter{Item}{8}
\setcounter{Hfootnote}{9}
\setcounter{bookmark@seq@number}{123}
\setcounter{@@conflict}{0}
\setcounter{tcbbreakpart}{0}
\setcounter{subfigure}{0}
\setcounter{lofdepth}{1}
\setcounter{subtable}{0}
\setcounter{lotdepth}{1}
\setcounter{lstnumber}{5}
\setcounter{tmkcount}{257}
\setcounter{lcword@index}{0}
\setcounter{word@count}{0}
\setcounter{lc@words}{0}
\setcounter{dia@count}{0}
\setcounter{arg@@@index}{0}
\setcounter{theorem}{69}
\setcounter{definition}{0}
\setcounter{thmcase}{0}
\setcounter{thmsubcase}{0}
\setcounter{thmsubsubcase}{2}
\setcounter{section@level}{1}
\setcounter{lstlisting}{0}
}
