\relax 
\providecommand\hyper@newdestlabel[2]{}
\@writefile{toc}{\contentsline {chapter}{\numberline {5}Higher Order Saiga}{93}{chapter.5}}
\@writefile{lof}{\addvspace {10\p@ }}
\@writefile{lot}{\addvspace {10\p@ }}
\newlabel{chap-saiga-ho}{{5}{93}{Higher Order Saiga}{chapter.5}{}}
\newlabel{chap-saiga-ho@cref}{{[chapter][5][]5}{93}}
\@writefile{toc}{\contentsline {section}{\numberline {5.1}Higher Order Attributes}{93}{section.5.1}}
\newlabel{sect-ho-calculus}{{5.1}{93}{Higher Order Attributes}{section.5.1}{}}
\newlabel{sect-ho-calculus@cref}{{[section][1][5]5.1}{93}}
\@writefile{toc}{\contentsline {subsection}{\numberline {5.1.1}Expression Language}{95}{subsection.5.1.1}}
\newlabel{sect-ho-grammar}{{5.1.1}{95}{Expression Language}{subsection.5.1.1}{}}
\newlabel{sect-ho-grammar@cref}{{[subsection][1][5,1]5.1.1}{95}}
\@writefile{toc}{\contentsline {subsection}{\numberline {5.1.2}Type Rules}{96}{subsection.5.1.2}}
\newlabel{sect-ho-typerules}{{5.1.2}{96}{Type Rules}{subsection.5.1.2}{}}
\newlabel{sect-ho-typerules@cref}{{[subsection][2][5,1]5.1.2}{96}}
\@writefile{toc}{\contentsline {subsection}{\numberline {5.1.3}Semantic Rules}{96}{subsection.5.1.3}}
\newlabel{sect-ho-semantics}{{5.1.3}{96}{Semantic Rules}{subsection.5.1.3}{}}
\newlabel{sect-ho-semantics@cref}{{[subsection][3][5,1]5.1.3}{96}}
\@writefile{toc}{\contentsline {section}{\numberline {5.2}Tree Optimisation Example}{97}{section.5.2}}
\newlabel{sect-ho-example}{{5.2}{97}{Tree Optimisation Example}{section.5.2}{}}
\newlabel{sect-ho-example@cref}{{[section][2][5]5.2}{97}}
\@writefile{toc}{\contentsline {section}{\numberline {5.3}Discussion}{105}{section.5.3}}
\newlabel{sect-ho-discussion}{{5.3}{105}{Discussion}{section.5.3}{}}
\newlabel{sect-ho-discussion@cref}{{[section][3][5]5.3}{105}}
\@writefile{toc}{\contentsline {subsection}{\numberline {5.3.1}User-Level Expressions}{105}{subsection.5.3.1}}
\newlabel{sect-ho-userlevel}{{5.3.1}{105}{User-Level Expressions}{subsection.5.3.1}{}}
\newlabel{sect-ho-userlevel@cref}{{[subsection][1][5,3]5.3.1}{105}}
\@writefile{toc}{\contentsline {subsection}{\numberline {5.3.2}Intrinsic Attributes on Higher Order Nodes}{106}{subsection.5.3.2}}
\newlabel{sect-ho-intrinsic}{{5.3.2}{106}{Intrinsic Attributes on Higher Order Nodes}{subsection.5.3.2}{}}
\newlabel{sect-ho-intrinsic@cref}{{[subsection][2][5,3]5.3.2}{106}}
\@writefile{toc}{\contentsline {subsection}{\numberline {5.3.3}Building Initial Trees}{107}{subsection.5.3.3}}
\newlabel{sect-ho-treebuilding}{{5.3.3}{107}{Building Initial Trees}{subsection.5.3.3}{}}
\newlabel{sect-ho-treebuilding@cref}{{[subsection][3][5,3]5.3.3}{107}}
\@writefile{toc}{\contentsline {subsubsection}{Tree Construction and Parsing}{109}{section*.22}}
\@writefile{toc}{\contentsline {subsubsection}{Forcing Full Construction}{109}{section*.23}}
\newlabel{sect-ho-forcing}{{5.3.3}{109}{Forcing Full Construction}{section*.23}{}}
\newlabel{sect-ho-forcing@cref}{{[subsection][3][5,3]5.3.3}{109}}
\citation{vanwyk02forwarding}
\@writefile{toc}{\contentsline {subsection}{\numberline {5.3.4}Forwarding}{110}{subsection.5.3.4}}
\newlabel{sect-ho-forwarding}{{5.3.4}{110}{Forwarding}{subsection.5.3.4}{}}
\newlabel{sect-ho-forwarding@cref}{{[subsection][4][5,3]5.3.4}{110}}
\@writefile{toc}{\contentsline {subsection}{\numberline {5.3.5}The Multistep Relation}{112}{subsection.5.3.5}}
\newlabel{sect-multistep-ho}{{5.3.5}{112}{The Multistep Relation}{subsection.5.3.5}{}}
\newlabel{sect-multistep-ho@cref}{{[subsection][5][5,3]5.3.5}{112}}
\@writefile{toc}{\contentsline {subsection}{\numberline {5.3.6}The Big Step Relation}{112}{subsection.5.3.6}}
\newlabel{sect-bigstep-ho}{{5.3.6}{112}{The Big Step Relation}{subsection.5.3.6}{}}
\newlabel{sect-bigstep-ho@cref}{{[subsection][6][5,3]5.3.6}{112}}
\@setckpt{chap_saiga_ho}{
\setcounter{page}{114}
\setcounter{equation}{0}
\setcounter{enumi}{8}
\setcounter{enumii}{0}
\setcounter{enumiii}{0}
\setcounter{enumiv}{0}
\setcounter{footnote}{1}
\setcounter{mpfootnote}{0}
\setcounter{part}{0}
\setcounter{chapter}{5}
\setcounter{section}{3}
\setcounter{subsection}{6}
\setcounter{subsubsection}{0}
\setcounter{paragraph}{0}
\setcounter{subparagraph}{0}
\setcounter{figure}{0}
\setcounter{table}{0}
\setcounter{NAT@ctr}{0}
\setcounter{parentequation}{0}
\setcounter{Item}{8}
\setcounter{Hfootnote}{4}
\setcounter{bookmark@seq@number}{73}
\setcounter{@@conflict}{0}
\setcounter{tcbbreakpart}{0}
\setcounter{subfigure}{0}
\setcounter{lofdepth}{1}
\setcounter{subtable}{0}
\setcounter{lotdepth}{1}
\setcounter{lstnumber}{2}
\setcounter{tmkcount}{24}
\setcounter{lcword@index}{0}
\setcounter{word@count}{0}
\setcounter{lc@words}{0}
\setcounter{dia@count}{0}
\setcounter{arg@@@index}{0}
\setcounter{theorem}{0}
\setcounter{definition}{0}
\setcounter{thmcase}{0}
\setcounter{thmsubcase}{0}
\setcounter{thmsubsubcase}{0}
\setcounter{section@level}{2}
\setcounter{lstlisting}{0}
}
