\relax 
\providecommand\hyper@newdestlabel[2]{}
\bibstyle{mqthesis}
\providecommand\HyperFirstAtBeginDocument{\AtBeginDocument}
\HyperFirstAtBeginDocument{\ifx\hyper@anchor\@undefined
\global\let\oldcontentsline\contentsline
\gdef\contentsline#1#2#3#4{\oldcontentsline{#1}{#2}{#3}}
\global\let\oldnewlabel\newlabel
\gdef\newlabel#1#2{\newlabelxx{#1}#2}
\gdef\newlabelxx#1#2#3#4#5#6{\oldnewlabel{#1}{{#2}{#3}}}
\AtEndDocument{\ifx\hyper@anchor\@undefined
\let\contentsline\oldcontentsline
\let\newlabel\oldnewlabel
\fi}
\fi}
\global\let\hyper@last\relax 
\gdef\HyperFirstAtBeginDocument#1{#1}
\providecommand\HyField@AuxAddToFields[1]{}
\providecommand\HyField@AuxAddToCoFields[2]{}
\providecommand \oddpage@label [2]{}
\@writefile{toc}{\contentsline {chapter}{Abstract}{v}{chapter*.1}}
\@writefile{lof}{\addvspace {10\p@ }}
\@writefile{lot}{\addvspace {10\p@ }}
\@writefile{toc}{\contentsline {chapter}{Contents}{vii}{chapter*.2}}
\@input{chap_intro.aux}
\@input{chap_background.aux}
\@input{chap_saiga.aux}
\@input{chap_saiga_extended.aux}
\@input{chap_saiga_ho.aux}
\@input{chap_metatheoretic.aux}
\@input{chap_example.aux}
\savepointas{206-a}{pgfid159}
\savepointas{206-b}{pgfid160}
\savepointas{206-a}{pgfid161}
\savepointas{206-b}{pgfid162}
\savepicturepage{pgfid161}{212}
\pgfsyspdfmark {pgfid161}{4417176}{14058484}
\savepointas{208-a}{pgfid163}
\savepointas{208-c}{pgfid164}
\savepointas{208-e}{pgfid165}
\savepointas{208-a}{pgfid166}
\savepointas{208-c}{pgfid167}
\savepointas{208-e}{pgfid168}
\savepicturepage{pgfid162}{213}
\pgfsyspdfmark {pgfid162}{6909795}{48588886}
\savepicturepage{pgfid166}{213}
\pgfsyspdfmark {pgfid166}{6909795}{13493563}
\savepicturepage{pgfid167}{213}
\pgfsyspdfmark {pgfid167}{7214196}{10792172}
\savepicturepage{pgfid168}{213}
\pgfsyspdfmark {pgfid168}{6909795}{7006159}
\savepointas{209-a1}{pgfid169}
\savepointas{209-b1}{pgfid170}
\savepointas{209-c1}{pgfid171}
\savepointas{209-a2}{pgfid172}
\savepointas{209-b2}{pgfid173}
\savepointas{209-c2}{pgfid174}
\savepointas{209-a1}{pgfid175}
\savepointas{209-b1}{pgfid176}
\savepointas{209-c1}{pgfid177}
\savepointas{209-a2}{pgfid178}
\savepointas{209-b2}{pgfid179}
\savepointas{209-c2}{pgfid180}
\savepicturepage{pgfid175}{214}
\pgfsyspdfmark {pgfid175}{4303498}{25381101}
\savepicturepage{pgfid176}{214}
\pgfsyspdfmark {pgfid176}{4607899}{23892125}
\savepicturepage{pgfid177}{214}
\pgfsyspdfmark {pgfid177}{4607899}{22403149}
\savepicturepage{pgfid178}{214}
\pgfsyspdfmark {pgfid178}{4303498}{16352867}
\savepicturepage{pgfid179}{214}
\pgfsyspdfmark {pgfid179}{4607899}{14863891}
\savepicturepage{pgfid180}{214}
\pgfsyspdfmark {pgfid180}{4607899}{12228035}
\savepointas{211-a1}{pgfid181}
\savepointas{211-a2}{pgfid182}
\savepointas{211-a1}{pgfid183}
\savepointas{211-a2}{pgfid184}
\savepicturepage{pgfid183}{215}
\pgfsyspdfmark {pgfid183}{6546342}{12737937}
\savepointas{212-a1}{pgfid185}
\savepointas{212-b1}{pgfid186}
\savepointas{212-c1}{pgfid187}
\savepointas{212-d1}{pgfid188}
\savepointas{212-a2}{pgfid189}
\savepointas{212-b2}{pgfid190}
\savepointas{212-c2}{pgfid191}
\savepointas{212-d2}{pgfid192}
\savepointas{212-a1}{pgfid193}
\savepointas{212-b1}{pgfid194}
\savepointas{212-c1}{pgfid195}
\savepointas{212-d1}{pgfid196}
\savepointas{212-a2}{pgfid197}
\savepointas{212-b2}{pgfid198}
\savepointas{212-c2}{pgfid199}
\savepointas{212-d2}{pgfid200}
\savepicturepage{pgfid184}{216}
\pgfsyspdfmark {pgfid184}{3749322}{46108346}
\savepicturepage{pgfid193}{216}
\pgfsyspdfmark {pgfid193}{4033760}{27904531}
\savepicturepage{pgfid194}{216}
\pgfsyspdfmark {pgfid194}{3729359}{25203140}
\savepicturepage{pgfid195}{216}
\pgfsyspdfmark {pgfid195}{3729359}{22501749}
\savepicturepage{pgfid196}{216}
\pgfsyspdfmark {pgfid196}{3729359}{19747794}
\savepicturepage{pgfid197}{216}
\pgfsyspdfmark {pgfid197}{4033760}{9044457}
\savepicturepage{pgfid198}{216}
\pgfsyspdfmark {pgfid198}{3729359}{6343066}
\savepicturepage{pgfid199}{216}
\pgfsyspdfmark {pgfid199}{3729359}{3641675}
\savepointas{215-1a}{pgfid201}
\savepointas{215-2a}{pgfid202}
\savepointas{215-1b}{pgfid203}
\savepointas{215-2b}{pgfid204}
\savepointas{215-1a}{pgfid205}
\savepointas{215-2a}{pgfid206}
\savepointas{215-1b}{pgfid207}
\savepointas{215-2b}{pgfid208}
\savepicturepage{pgfid200}{217}
\pgfsyspdfmark {pgfid200}{6526379}{47255226}
\savepicturepage{pgfid205}{218}
\pgfsyspdfmark {pgfid205}{4033760}{45976622}
\savepicturepage{pgfid206}{218}
\pgfsyspdfmark {pgfid206}{3729359}{44487646}
\savepicturepage{pgfid207}{218}
\pgfsyspdfmark {pgfid207}{4033760}{37290484}
\savepicturepage{pgfid208}{218}
\pgfsyspdfmark {pgfid208}{3729359}{35801508}
\@input{chap_mechanisation.aux}
\@input{chap_conclusion.aux}
\@writefile{toc}{\contentsline {chapter}{\numberline {A}Appendix}{249}{appendix.A}}
\@writefile{lof}{\addvspace {10\p@ }}
\@writefile{lot}{\addvspace {10\p@ }}
\@writefile{toc}{\contentsline {section}{\numberline {A.1}Name Analysis Example}{249}{section.A.1}}
\newlabel{app-ex-asts}{{A.1}{249}{Name Analysis Example}{section.A.1}{}}
\newlabel{app-ex-asts@cref}{{[subappendix][1][2147483647,1]A.1}{249}}
\@writefile{toc}{\contentsline {subsection}{\numberline {A.1.1}Kiama's Abstract Grammar for Featherweight Java}{249}{subsection.A.1.1}}
\newlabel{app-fig-ex-kiamatree}{{A.1.1}{249}{Kiama's Abstract Grammar for Featherweight Java}{subsection.A.1.1}{}}
\newlabel{app-fig-ex-kiamatree@cref}{{[subsubappendix][1][2147483647,1,1]A.1.1}{249}}
\@writefile{toc}{\contentsline {subsection}{\numberline {A.1.2}JastAdd's Abstract Grammar for Featherweight Java}{251}{subsection.A.1.2}}
\newlabel{app-fig-ex-jastaddtree}{{A.1.2}{251}{JastAdd's Abstract Grammar for Featherweight Java}{subsection.A.1.2}{}}
\newlabel{app-fig-ex-jastaddtree@cref}{{[subsubappendix][2][2147483647,1,1]A.1.2}{251}}
\@writefile{toc}{\contentsline {section}{\numberline {A.2}Featherweight Java Code in Kiama and JastAdd}{251}{section.A.2}}
\@writefile{toc}{\contentsline {subsection}{\numberline {A.2.1}Kiama}{251}{subsection.A.2.1}}
\newlabel{app-ex-kiamacode}{{A.2.1}{251}{Kiama}{subsection.A.2.1}{}}
\newlabel{app-ex-kiamacode@cref}{{[subsubappendix][1][2147483647,1,2]A.2.1}{251}}
\@writefile{toc}{\contentsline {subsection}{\numberline {A.2.2}JastAdd}{257}{subsection.A.2.2}}
\newlabel{app-ex-jastaddcode}{{A.2.2}{257}{JastAdd}{subsection.A.2.2}{}}
\newlabel{app-ex-jastaddcode@cref}{{[subsubappendix][2][2147483647,1,2]A.2.2}{257}}
\bibdata{references}
\bibcite{languageworkbenches-stateoftheart2013}{{1}{}{{}}{{}}}
\bibcite{knuth68}{{2}{}{{}}{{}}}
\bibcite{jourdan84optimalrecursive}{{3}{}{{}}{{}}}
\bibcite{hedin00reference}{{4}{}{{}}{{}}}
\bibcite{boyland05remote}{{5}{}{{}}{{}}}
\bibcite{kiama}{{6}{}{{}}{{}}}
\bibcite{silver}{{7}{}{{}}{{}}}
\bibcite{de15lean}{{8}{}{{}}{{}}}
\bibcite{igarashi01fwjgj}{{9}{}{{}}{{}}}
\@writefile{toc}{\contentsline {chapter}{References}{263}{appendix*.56}}
\bibcite{history_transduction}{{10}{}{{}}{{}}}
\bibcite{genesis}{{11}{}{{}}{{}}}
\bibcite{ags88}{{12}{}{{}}{{}}}
\bibcite{lewis73puresynth}{{13}{}{{}}{{}}}
\bibcite{knuth68correction}{{14}{}{{}}{{}}}
\bibcite{kennedy1976automatic}{{15}{}{{}}{{}}}
\bibcite{courcelle1982SNCAGs}{{16}{}{{}}{{}}}
\bibcite{jourdan1984sncdemand}{{17}{}{{}}{{}}}
\bibcite{mayoh1981benign}{{18}{}{{}}{{}}}
\bibcite{lncs90attributeapplications}{{19}{}{{}}{{}}}
\bibcite{kastens80}{{20}{}{{}}{{}}}
\bibcite{lncs91attributesystems}{{21}{}{{}}{{}}}
\bibcite{eng82lordered}{{22}{}{{}}{{}}}
\bibcite{kastens78orderedwrong}{{23}{}{{}}{{}}}
\bibcite{file1987dnc}{{24}{}{{}}{{}}}
\bibcite{barbar1982partialorder}{{25}{}{{}}{{}}}
\bibcite{boyland96conditional}{{26}{}{{}}{{}}}
\bibcite{madsen80dags}{{27}{}{{}}{{}}}
\bibcite{jalili83linear}{{28}{}{{}}{{}}}
\bibcite{saraiva99lrc}{{29}{}{{}}{{}}}
\bibcite{jastadd01}{{30}{}{{}}{{}}}
\bibcite{jastadd03}{{31}{}{{}}{{}}}
\bibcite{jastadd}{{32}{}{{}}{{}}}
\bibcite{baars03uuag}{{33}{}{{}}{{}}}
\bibcite{paakki95survey}{{34}{}{{}}{{}}}
\bibcite{jastaddonline}{{35}{}{{}}{{}}}
\bibcite{scalabook}{{36}{}{{}}{{}}}
\bibcite{poetzsch93distant}{{37}{}{{}}{{}}}
\bibcite{boyland96remote}{{38}{}{{}}{{}}}
\bibcite{vogt89hoags}{{39}{}{{}}{{}}}
\bibcite{swierstra91hoags}{{40}{}{{}}{{}}}
\bibcite{vanwyk02forwarding}{{41}{}{{}}{{}}}
\bibcite{farrow86circular}{{42}{}{{}}{{}}}
\bibcite{jones90circular}{{43}{}{{}}{{}}}
\bibcite{magnusson07circular}{{44}{}{{}}{{}}}
\bibcite{demoor99aspect}{{45}{}{{}}{{}}}
\bibcite{demoor00firstclass}{{46}{}{{}}{{}}}
\bibcite{johnsson87functional}{{47}{}{{}}{{}}}
\bibcite{backhouse02functional}{{48}{}{{}}{{}}}
\bibcite{schafer09agcoq}{{49}{}{{}}{{}}}
\bibcite{martins16zippers}{{50}{}{{}}{{}}}
\bibcite{buckley17saiga}{{51}{}{{}}{{}}}
\bibcite{sloane16rats}{{52}{}{{}}{{}}}
\bibcite{barras97coq}{{53}{}{{}}{{}}}
\providecommand\NAT@force@numbers{}\NAT@force@numbers
